Version 4
SHEET 1 904 680
WIRE -160 -192 -208 -192
WIRE -32 -192 -80 -192
WIRE 240 -192 -32 -192
WIRE 448 -192 240 -192
WIRE -32 -160 -32 -192
WIRE 240 -160 240 -192
WIRE -208 -144 -208 -192
WIRE -32 -64 -32 -96
WIRE -208 -48 -208 -64
WIRE 448 0 448 -192
WIRE 448 0 416 0
WIRE 240 16 240 -80
WIRE 240 16 80 16
WIRE 352 16 240 16
WIRE 448 32 416 32
WIRE 80 48 80 16
WIRE 240 144 240 16
WIRE 240 144 208 144
WIRE -32 160 -112 160
WIRE 80 160 80 128
WIRE 80 160 32 160
WIRE 144 160 80 160
WIRE 240 176 208 176
WIRE 448 176 448 32
WIRE 496 176 448 176
WIRE 576 176 560 176
WIRE 704 176 656 176
WIRE 240 208 240 176
WIRE 272 208 240 208
WIRE 368 208 336 208
WIRE -112 224 -112 160
WIRE 80 224 80 160
WIRE 240 240 240 208
WIRE 368 240 368 208
WIRE 448 240 448 176
WIRE 704 240 704 176
WIRE -112 336 -112 304
WIRE 80 336 80 304
WIRE 240 336 240 320
WIRE 368 336 368 320
WIRE 448 336 448 320
WIRE 704 336 704 320
FLAG -32 -64 0
FLAG 80 336 0
FLAG 240 336 0
FLAG 368 336 0
FLAG 704 336 0
FLAG -208 -48 0
FLAG -112 336 0
FLAG -112 160 in
FLAG 704 176 out
FLAG 448 336 0
SYMBOL AutoGenerated\\BFR93A 176 160 R0
SYMATTR InstName U1
SYMBOL res 224 224 R0
SYMATTR InstName R1
SYMATTR Value 470
SYMBOL res 352 224 R0
SYMATTR InstName R2
SYMATTR Value 2.2
SYMBOL res 672 160 R90
WINDOW 0 0 56 VBottom 2
WINDOW 3 32 56 VTop 2
SYMATTR InstName R4
SYMATTR Value 51
SYMBOL cap 560 160 R90
WINDOW 0 0 32 VBottom 2
WINDOW 3 32 32 VTop 2
SYMATTR InstName C1
SYMATTR Value 100n
SYMBOL cap 336 192 R90
WINDOW 0 0 32 VBottom 2
WINDOW 3 32 32 VTop 2
SYMATTR InstName C2
SYMATTR Value 100n
SYMBOL cap 32 144 R90
WINDOW 0 0 32 VBottom 2
WINDOW 3 32 32 VTop 2
SYMATTR InstName C3
SYMATTR Value 100n
SYMBOL res 64 208 R0
SYMATTR InstName R5
SYMATTR Value 1k
SYMBOL res 96 144 R180
WINDOW 0 36 76 Left 2
WINDOW 3 36 40 Left 2
SYMATTR InstName R6
SYMATTR Value 2.2k
SYMBOL res 256 -64 R180
WINDOW 0 36 76 Left 2
WINDOW 3 36 40 Left 2
SYMATTR InstName R7
SYMATTR Value 220
SYMBOL res -176 -176 R270
WINDOW 0 32 56 VTop 2
WINDOW 3 0 56 VBottom 2
SYMATTR InstName R8
SYMATTR Value 10
SYMBOL cap -48 -160 R0
SYMATTR InstName C4
SYMATTR Value 100n
SYMBOL res 688 224 R0
SYMATTR InstName R9
SYMATTR Value 50
SYMBOL voltage -112 208 R0
WINDOW 123 24 124 Left 2
WINDOW 39 24 152 Left 2
SYMATTR Value2 AC 100e-6
SYMATTR SpiceLine Rser=50
SYMATTR InstName V1
SYMATTR Value SINE(0 100e-6 10e6)
SYMBOL voltage -208 -160 R0
WINDOW 123 0 0 Left 0
WINDOW 39 0 0 Left 0
SYMATTR InstName V2
SYMATTR Value 13.8
SYMBOL AutoGenerated\\BFR93A 384 16 R0
SYMATTR InstName U4
SYMBOL res 432 224 R0
SYMATTR InstName R11
SYMATTR Value 470
TEXT 112 448 Left 2 !.tran 0 1u 0 1n
