Version 4
SHEET 1 1636 680
WIRE -160 -192 -208 -192
WIRE -32 -192 -80 -192
WIRE 240 -192 -32 -192
WIRE 528 -192 240 -192
WIRE 704 -192 528 -192
WIRE -32 -160 -32 -192
WIRE -208 -144 -208 -192
WIRE 240 -128 240 -192
WIRE 528 -128 528 -192
WIRE 528 -128 512 -128
WIRE 704 -128 704 -192
WIRE 704 -128 688 -128
WIRE 448 -112 400 -112
WIRE 624 -112 560 -112
WIRE 560 -96 560 -112
WIRE 560 -96 512 -96
WIRE 784 -96 688 -96
WIRE 800 -96 784 -96
WIRE 880 -96 864 -96
WIRE 1008 -96 960 -96
WIRE -32 -64 -32 -96
WIRE -208 -48 -208 -64
WIRE 560 -48 560 -96
WIRE 784 -32 784 -96
WIRE 1008 -32 1008 -96
WIRE 112 16 80 16
WIRE 240 16 240 -48
WIRE 240 16 192 16
WIRE 400 16 400 -112
WIRE 400 16 240 16
WIRE 560 48 560 32
WIRE 784 64 784 48
WIRE 1008 64 1008 48
WIRE 528 112 528 -128
WIRE 528 112 512 112
WIRE 704 112 704 -128
WIRE 704 112 688 112
WIRE 400 128 400 16
WIRE 448 128 400 128
WIRE 624 128 560 128
WIRE 240 144 240 16
WIRE 240 144 208 144
WIRE 560 144 560 128
WIRE 560 144 512 144
WIRE 784 144 688 144
WIRE 800 144 784 144
WIRE 880 144 864 144
WIRE 1008 144 960 144
WIRE -32 160 -112 160
WIRE 80 160 80 16
WIRE 80 160 32 160
WIRE 144 160 80 160
WIRE 240 176 208 176
WIRE 240 208 240 176
WIRE 272 208 240 208
WIRE 368 208 336 208
WIRE 560 208 560 144
WIRE 784 208 784 144
WIRE 1008 208 1008 144
WIRE -112 224 -112 160
WIRE 80 224 80 160
WIRE 240 240 240 208
WIRE 368 240 368 208
WIRE 784 304 784 288
WIRE 1008 304 1008 288
WIRE 560 320 560 288
WIRE -112 336 -112 304
WIRE 80 336 80 304
WIRE 240 336 240 320
WIRE 368 336 368 320
FLAG -32 -64 0
FLAG 80 336 0
FLAG 240 336 0
FLAG 368 336 0
FLAG 784 64 0
FLAG 1008 64 0
FLAG -208 -48 0
FLAG -112 336 0
FLAG -112 160 in
FLAG 784 304 0
FLAG 1008 304 0
FLAG 1008 -96 out1
FLAG 1008 144 out2
FLAG 560 320 0
FLAG 560 48 0
SYMBOL AutoGenerated\\BFR93A 176 160 R0
SYMATTR InstName U1
SYMBOL AutoGenerated\\BFR93A 656 -112 R0
SYMATTR InstName U2
SYMBOL res 224 224 R0
SYMATTR InstName R1
SYMATTR Value 470
SYMBOL res 352 224 R0
SYMATTR InstName R2
SYMATTR Value 2.2
SYMBOL res 768 -48 R0
SYMATTR InstName R3
SYMATTR Value 470
SYMBOL res 976 -112 R90
WINDOW 0 0 56 VBottom 2
WINDOW 3 32 56 VTop 2
SYMATTR InstName R4
SYMATTR Value 47
SYMBOL cap 864 -112 R90
WINDOW 0 0 32 VBottom 2
WINDOW 3 32 32 VTop 2
SYMATTR InstName C1
SYMATTR Value 1n
SYMBOL cap 336 192 R90
WINDOW 0 0 32 VBottom 2
WINDOW 3 32 32 VTop 2
SYMATTR InstName C2
SYMATTR Value 1n
SYMBOL cap 32 144 R90
WINDOW 0 0 32 VBottom 2
WINDOW 3 32 32 VTop 2
SYMATTR InstName C3
SYMATTR Value 1n
SYMBOL res 64 208 R0
SYMATTR InstName R5
SYMATTR Value 1k
SYMBOL res 208 0 R90
WINDOW 0 0 56 VBottom 2
WINDOW 3 32 56 VTop 2
SYMATTR InstName R6
SYMATTR Value 2.2k
SYMBOL res 256 -32 R180
WINDOW 0 36 76 Left 2
WINDOW 3 36 40 Left 2
SYMATTR InstName R7
SYMATTR Value 220
SYMBOL res -176 -176 R270
WINDOW 0 32 56 VTop 2
WINDOW 3 0 56 VBottom 2
SYMATTR InstName R8
SYMATTR Value 10
SYMBOL cap -48 -160 R0
SYMATTR InstName C4
SYMATTR Value 100n
SYMBOL res 992 -48 R0
SYMATTR InstName R9
SYMATTR Value 50
SYMBOL voltage -112 208 R0
WINDOW 123 24 124 Left 2
WINDOW 39 24 152 Left 2
SYMATTR Value2 AC 100e-6
SYMATTR SpiceLine Rser=50
SYMATTR InstName V1
SYMATTR Value SINE(0 100e-6 10e6)
SYMBOL voltage -208 -160 R0
WINDOW 123 0 0 Left 0
WINDOW 39 0 0 Left 0
SYMATTR InstName V2
SYMATTR Value 13.8
SYMBOL AutoGenerated\\BFR93A 656 128 R0
SYMATTR InstName U3
SYMBOL res 768 192 R0
SYMATTR InstName R10
SYMATTR Value 470
SYMBOL res 976 128 R90
WINDOW 0 0 56 VBottom 2
WINDOW 3 32 56 VTop 2
SYMATTR InstName R11
SYMATTR Value 47
SYMBOL cap 864 128 R90
WINDOW 0 0 32 VBottom 2
WINDOW 3 32 32 VTop 2
SYMATTR InstName C5
SYMATTR Value 1n
SYMBOL res 992 192 R0
SYMATTR InstName R12
SYMATTR Value 50
SYMBOL AutoGenerated\\BFR93A 480 -112 R0
SYMATTR InstName U4
SYMBOL AutoGenerated\\BFR93A 480 128 R0
SYMATTR InstName U5
SYMBOL res 544 -64 R0
SYMATTR InstName R13
SYMATTR Value 2.2k
SYMBOL res 544 192 R0
SYMATTR InstName R14
SYMATTR Value 2.2k
TEXT 112 448 Left 2 !.ac dec 1000 100e6 500e6
