%TF.GenerationSoftware,KiCad,Pcbnew,6.0.2+dfsg-1*%
%TF.CreationDate,2022-11-06T17:22:16+01:00*%
%TF.ProjectId,BandpassModule,42616e64-7061-4737-934d-6f64756c652e,rev?*%
%TF.SameCoordinates,Original*%
%TF.FileFunction,Profile,NP*%
%FSLAX46Y46*%
G04 Gerber Fmt 4.6, Leading zero omitted, Abs format (unit mm)*
G04 Created by KiCad (PCBNEW 6.0.2+dfsg-1) date 2022-11-06 17:22:16*
%MOMM*%
%LPD*%
G01*
G04 APERTURE LIST*
%TA.AperFunction,Profile*%
%ADD10C,0.050000*%
%TD*%
G04 APERTURE END LIST*
D10*
X160000000Y-50000000D02*
X160000000Y-63000000D01*
X116000000Y-50000000D02*
X160000000Y-50000000D01*
X116000000Y-63000000D02*
X116000000Y-50000000D01*
X160000000Y-63000000D02*
X116000000Y-63000000D01*
M02*
