M48
; DRILL file {KiCad 6.0.2+dfsg-1} date So 06 Nov 2022 17:22:21 CET
; FORMAT={-:-/ absolute / inch / decimal}
; #@! TF.CreationDate,2022-11-06T17:22:21+01:00
; #@! TF.GenerationSoftware,Kicad,Pcbnew,6.0.2+dfsg-1
; #@! TF.FileFunction,Plated,1,2,PTH
FMAT,2
INCH
; #@! TA.AperFunction,Plated,PTH,ViaDrill
T1C0.0157
; #@! TA.AperFunction,Plated,PTH,ComponentDrill
T2C0.0472
%
G90
G05
T1
X4.825Y-2.025
X4.825Y-2.425
X4.925Y-2.025
X5.025Y-2.025
X5.025Y-2.425
X5.125Y-2.025
X5.125Y-2.425
X5.225Y-2.025
X5.225Y-2.425
X5.325Y-2.025
X5.425Y-2.025
X5.425Y-2.425
X5.525Y-2.025
X5.525Y-2.425
X5.625Y-2.025
X5.725Y-2.025
X5.725Y-2.425
X5.825Y-2.025
X5.825Y-2.425
X5.925Y-2.025
X6.025Y-2.025
X6.025Y-2.425
T2
X5.05Y-2.125
X5.33Y-2.365
X5.61Y-2.375
X5.85Y-2.095
T0
M30
