%TF.GenerationSoftware,KiCad,Pcbnew,6.0.2+dfsg-1*%
%TF.CreationDate,2022-11-06T17:22:15+01:00*%
%TF.ProjectId,BandpassModule,42616e64-7061-4737-934d-6f64756c652e,rev?*%
%TF.SameCoordinates,Original*%
%TF.FileFunction,Copper,L2,Bot*%
%TF.FilePolarity,Positive*%
%FSLAX46Y46*%
G04 Gerber Fmt 4.6, Leading zero omitted, Abs format (unit mm)*
G04 Created by KiCad (PCBNEW 6.0.2+dfsg-1) date 2022-11-06 17:22:15*
%MOMM*%
%LPD*%
G01*
G04 APERTURE LIST*
%TA.AperFunction,ComponentPad*%
%ADD10C,2.000000*%
%TD*%
%TA.AperFunction,SMDPad,CuDef*%
%ADD11R,5.080000X1.500000*%
%TD*%
%TA.AperFunction,ViaPad*%
%ADD12C,0.800000*%
%TD*%
G04 APERTURE END LIST*
D10*
%TO.P,L402,1,1*%
%TO.N,Net-(C404-Pad2)*%
X142494000Y-60325000D03*
%TO.P,L402,2,2*%
%TO.N,Net-(C406-Pad1)*%
X148590000Y-53213000D03*
%TD*%
%TO.P,L401,1,1*%
%TO.N,Net-(C401-Pad2)*%
X128270000Y-53975000D03*
%TO.P,L401,2,2*%
%TO.N,Net-(C403-Pad1)*%
X135382000Y-60071000D03*
%TD*%
D11*
%TO.P,J102,2,Ext*%
%TO.N,GND*%
X157500000Y-60765000D03*
X157500000Y-52265000D03*
%TD*%
%TO.P,J101,2,Ext*%
%TO.N,GND*%
X118500000Y-60750000D03*
X118500000Y-52250000D03*
%TD*%
D12*
%TO.N,GND*%
X153035000Y-61595000D03*
X147955000Y-61595000D03*
X145415000Y-61595000D03*
X140335000Y-61595000D03*
X137795000Y-61595000D03*
X132715000Y-61595000D03*
X130175000Y-61595000D03*
X127635000Y-61595000D03*
X122555000Y-61595000D03*
X153035000Y-51435000D03*
X150495000Y-51435000D03*
X147955000Y-51435000D03*
X145415000Y-51435000D03*
X142875000Y-51435000D03*
X140335000Y-51435000D03*
X137795000Y-51435000D03*
X135255000Y-51435000D03*
X132715000Y-51435000D03*
X130175000Y-51435000D03*
X127635000Y-51435000D03*
X125095000Y-51435000D03*
X122555000Y-51435000D03*
%TD*%
%TA.AperFunction,Conductor*%
%TO.N,GND*%
G36*
X159434121Y-50528002D02*
G01*
X159480614Y-50581658D01*
X159492000Y-50634000D01*
X159492000Y-50881000D01*
X159471998Y-50949121D01*
X159418342Y-50995614D01*
X159366000Y-51007000D01*
X157772115Y-51007000D01*
X157756876Y-51011475D01*
X157755671Y-51012865D01*
X157754000Y-51020548D01*
X157754000Y-53504884D01*
X157758475Y-53520123D01*
X157759865Y-53521328D01*
X157767548Y-53522999D01*
X159366000Y-53522999D01*
X159434121Y-53543001D01*
X159480614Y-53596657D01*
X159492000Y-53648999D01*
X159492000Y-59381000D01*
X159471998Y-59449121D01*
X159418342Y-59495614D01*
X159366000Y-59507000D01*
X157772115Y-59507000D01*
X157756876Y-59511475D01*
X157755671Y-59512865D01*
X157754000Y-59520548D01*
X157754000Y-62004884D01*
X157758475Y-62020123D01*
X157759865Y-62021328D01*
X157767548Y-62022999D01*
X159366000Y-62022999D01*
X159434121Y-62043001D01*
X159480614Y-62096657D01*
X159492000Y-62148999D01*
X159492000Y-62366000D01*
X159471998Y-62434121D01*
X159418342Y-62480614D01*
X159366000Y-62492000D01*
X116634000Y-62492000D01*
X116565879Y-62471998D01*
X116519386Y-62418342D01*
X116508000Y-62366000D01*
X116508000Y-62134000D01*
X116528002Y-62065879D01*
X116581658Y-62019386D01*
X116634000Y-62008000D01*
X118227885Y-62008000D01*
X118243124Y-62003525D01*
X118244329Y-62002135D01*
X118246000Y-61994452D01*
X118246000Y-61989884D01*
X118754000Y-61989884D01*
X118758475Y-62005123D01*
X118759865Y-62006328D01*
X118767548Y-62007999D01*
X121084669Y-62007999D01*
X121091490Y-62007629D01*
X121142352Y-62002105D01*
X121157604Y-61998479D01*
X121278054Y-61953324D01*
X121293649Y-61944786D01*
X121395724Y-61868285D01*
X121408285Y-61855724D01*
X121484786Y-61753649D01*
X121493324Y-61738054D01*
X121538478Y-61617606D01*
X121542105Y-61602351D01*
X121547631Y-61551486D01*
X121548000Y-61544672D01*
X121548000Y-61022115D01*
X121543525Y-61006876D01*
X121542135Y-61005671D01*
X121534452Y-61004000D01*
X118772115Y-61004000D01*
X118756876Y-61008475D01*
X118755671Y-61009865D01*
X118754000Y-61017548D01*
X118754000Y-61989884D01*
X118246000Y-61989884D01*
X118246000Y-60477885D01*
X118754000Y-60477885D01*
X118758475Y-60493124D01*
X118759865Y-60494329D01*
X118767548Y-60496000D01*
X121529884Y-60496000D01*
X121545123Y-60491525D01*
X121546328Y-60490135D01*
X121547999Y-60482452D01*
X121547999Y-60071000D01*
X133868835Y-60071000D01*
X133887465Y-60307711D01*
X133888619Y-60312518D01*
X133888620Y-60312524D01*
X133892799Y-60329930D01*
X133942895Y-60538594D01*
X133944788Y-60543165D01*
X133944789Y-60543167D01*
X133950427Y-60556777D01*
X134033760Y-60757963D01*
X134036346Y-60762183D01*
X134155241Y-60956202D01*
X134155245Y-60956208D01*
X134157824Y-60960416D01*
X134312031Y-61140969D01*
X134492584Y-61295176D01*
X134496792Y-61297755D01*
X134496798Y-61297759D01*
X134660665Y-61398177D01*
X134695037Y-61419240D01*
X134699607Y-61421133D01*
X134699611Y-61421135D01*
X134909833Y-61508211D01*
X134914406Y-61510105D01*
X134994609Y-61529360D01*
X135140476Y-61564380D01*
X135140482Y-61564381D01*
X135145289Y-61565535D01*
X135382000Y-61584165D01*
X135618711Y-61565535D01*
X135623518Y-61564381D01*
X135623524Y-61564380D01*
X135769391Y-61529360D01*
X135849594Y-61510105D01*
X135854167Y-61508211D01*
X136064389Y-61421135D01*
X136064393Y-61421133D01*
X136068963Y-61419240D01*
X136103335Y-61398177D01*
X136267202Y-61297759D01*
X136267208Y-61297755D01*
X136271416Y-61295176D01*
X136451969Y-61140969D01*
X136606176Y-60960416D01*
X136608755Y-60956208D01*
X136608759Y-60956202D01*
X136727654Y-60762183D01*
X136730240Y-60757963D01*
X136813574Y-60556777D01*
X136819211Y-60543167D01*
X136819212Y-60543165D01*
X136821105Y-60538594D01*
X136871201Y-60329930D01*
X136872385Y-60325000D01*
X140980835Y-60325000D01*
X140999465Y-60561711D01*
X141054895Y-60792594D01*
X141056788Y-60797165D01*
X141056789Y-60797167D01*
X141143154Y-61005671D01*
X141145760Y-61011963D01*
X141148346Y-61016183D01*
X141267241Y-61210202D01*
X141267245Y-61210208D01*
X141269824Y-61214416D01*
X141424031Y-61394969D01*
X141604584Y-61549176D01*
X141608792Y-61551755D01*
X141608798Y-61551759D01*
X141716251Y-61617606D01*
X141807037Y-61673240D01*
X141811607Y-61675133D01*
X141811611Y-61675135D01*
X142021833Y-61762211D01*
X142026406Y-61764105D01*
X142106609Y-61783360D01*
X142252476Y-61818380D01*
X142252482Y-61818381D01*
X142257289Y-61819535D01*
X142494000Y-61838165D01*
X142730711Y-61819535D01*
X142735518Y-61818381D01*
X142735524Y-61818380D01*
X142881391Y-61783360D01*
X142961594Y-61764105D01*
X142966167Y-61762211D01*
X143176389Y-61675135D01*
X143176393Y-61675133D01*
X143180963Y-61673240D01*
X143271749Y-61617606D01*
X143366294Y-61559669D01*
X154452001Y-61559669D01*
X154452371Y-61566490D01*
X154457895Y-61617352D01*
X154461521Y-61632604D01*
X154506676Y-61753054D01*
X154515214Y-61768649D01*
X154591715Y-61870724D01*
X154604276Y-61883285D01*
X154706351Y-61959786D01*
X154721946Y-61968324D01*
X154842394Y-62013478D01*
X154857649Y-62017105D01*
X154908514Y-62022631D01*
X154915328Y-62023000D01*
X157227885Y-62023000D01*
X157243124Y-62018525D01*
X157244329Y-62017135D01*
X157246000Y-62009452D01*
X157246000Y-61037115D01*
X157241525Y-61021876D01*
X157240135Y-61020671D01*
X157232452Y-61019000D01*
X154470116Y-61019000D01*
X154454877Y-61023475D01*
X154453672Y-61024865D01*
X154452001Y-61032548D01*
X154452001Y-61559669D01*
X143366294Y-61559669D01*
X143379202Y-61551759D01*
X143379208Y-61551755D01*
X143383416Y-61549176D01*
X143563969Y-61394969D01*
X143718176Y-61214416D01*
X143720755Y-61210208D01*
X143720759Y-61210202D01*
X143839654Y-61016183D01*
X143842240Y-61011963D01*
X143844847Y-61005671D01*
X143931211Y-60797167D01*
X143931212Y-60797165D01*
X143933105Y-60792594D01*
X143988535Y-60561711D01*
X143993952Y-60492885D01*
X154452000Y-60492885D01*
X154456475Y-60508124D01*
X154457865Y-60509329D01*
X154465548Y-60511000D01*
X157227885Y-60511000D01*
X157243124Y-60506525D01*
X157244329Y-60505135D01*
X157246000Y-60497452D01*
X157246000Y-59525116D01*
X157241525Y-59509877D01*
X157240135Y-59508672D01*
X157232452Y-59507001D01*
X154915331Y-59507001D01*
X154908510Y-59507371D01*
X154857648Y-59512895D01*
X154842396Y-59516521D01*
X154721946Y-59561676D01*
X154706351Y-59570214D01*
X154604276Y-59646715D01*
X154591715Y-59659276D01*
X154515214Y-59761351D01*
X154506676Y-59776946D01*
X154461522Y-59897394D01*
X154457895Y-59912649D01*
X154452369Y-59963514D01*
X154452000Y-59970328D01*
X154452000Y-60492885D01*
X143993952Y-60492885D01*
X144007165Y-60325000D01*
X143988535Y-60088289D01*
X143984385Y-60071000D01*
X143942705Y-59897394D01*
X143933105Y-59857406D01*
X143931211Y-59852833D01*
X143844135Y-59642611D01*
X143844133Y-59642607D01*
X143842240Y-59638037D01*
X143773042Y-59525116D01*
X143720759Y-59439798D01*
X143720755Y-59439792D01*
X143718176Y-59435584D01*
X143563969Y-59255031D01*
X143383416Y-59100824D01*
X143379208Y-59098245D01*
X143379202Y-59098241D01*
X143185183Y-58979346D01*
X143180963Y-58976760D01*
X143176393Y-58974867D01*
X143176389Y-58974865D01*
X142966167Y-58887789D01*
X142966165Y-58887788D01*
X142961594Y-58885895D01*
X142881391Y-58866640D01*
X142735524Y-58831620D01*
X142735518Y-58831619D01*
X142730711Y-58830465D01*
X142494000Y-58811835D01*
X142257289Y-58830465D01*
X142252482Y-58831619D01*
X142252476Y-58831620D01*
X142106609Y-58866640D01*
X142026406Y-58885895D01*
X142021835Y-58887788D01*
X142021833Y-58887789D01*
X141811611Y-58974865D01*
X141811607Y-58974867D01*
X141807037Y-58976760D01*
X141802817Y-58979346D01*
X141608798Y-59098241D01*
X141608792Y-59098245D01*
X141604584Y-59100824D01*
X141424031Y-59255031D01*
X141269824Y-59435584D01*
X141267245Y-59439792D01*
X141267241Y-59439798D01*
X141214958Y-59525116D01*
X141145760Y-59638037D01*
X141143867Y-59642607D01*
X141143865Y-59642611D01*
X141056789Y-59852833D01*
X141054895Y-59857406D01*
X141045295Y-59897394D01*
X141003616Y-60071000D01*
X140999465Y-60088289D01*
X140980835Y-60325000D01*
X136872385Y-60325000D01*
X136875380Y-60312524D01*
X136875381Y-60312518D01*
X136876535Y-60307711D01*
X136895165Y-60071000D01*
X136876535Y-59834289D01*
X136862769Y-59776946D01*
X136834518Y-59659276D01*
X136821105Y-59603406D01*
X136803820Y-59561676D01*
X136732135Y-59388611D01*
X136732133Y-59388607D01*
X136730240Y-59384037D01*
X136727654Y-59379817D01*
X136608759Y-59185798D01*
X136608755Y-59185792D01*
X136606176Y-59181584D01*
X136451969Y-59001031D01*
X136271416Y-58846824D01*
X136267208Y-58844245D01*
X136267202Y-58844241D01*
X136073183Y-58725346D01*
X136068963Y-58722760D01*
X136064393Y-58720867D01*
X136064389Y-58720865D01*
X135854167Y-58633789D01*
X135854165Y-58633788D01*
X135849594Y-58631895D01*
X135769391Y-58612640D01*
X135623524Y-58577620D01*
X135623518Y-58577619D01*
X135618711Y-58576465D01*
X135382000Y-58557835D01*
X135145289Y-58576465D01*
X135140482Y-58577619D01*
X135140476Y-58577620D01*
X134994609Y-58612640D01*
X134914406Y-58631895D01*
X134909835Y-58633788D01*
X134909833Y-58633789D01*
X134699611Y-58720865D01*
X134699607Y-58720867D01*
X134695037Y-58722760D01*
X134690817Y-58725346D01*
X134496798Y-58844241D01*
X134496792Y-58844245D01*
X134492584Y-58846824D01*
X134312031Y-59001031D01*
X134157824Y-59181584D01*
X134155245Y-59185792D01*
X134155241Y-59185798D01*
X134036346Y-59379817D01*
X134033760Y-59384037D01*
X134031867Y-59388607D01*
X134031865Y-59388611D01*
X133960180Y-59561676D01*
X133942895Y-59603406D01*
X133929482Y-59659276D01*
X133901232Y-59776946D01*
X133887465Y-59834289D01*
X133868835Y-60071000D01*
X121547999Y-60071000D01*
X121547999Y-59955331D01*
X121547629Y-59948510D01*
X121542105Y-59897648D01*
X121538479Y-59882396D01*
X121493324Y-59761946D01*
X121484786Y-59746351D01*
X121408285Y-59644276D01*
X121395724Y-59631715D01*
X121293649Y-59555214D01*
X121278054Y-59546676D01*
X121157606Y-59501522D01*
X121142351Y-59497895D01*
X121091486Y-59492369D01*
X121084672Y-59492000D01*
X118772115Y-59492000D01*
X118756876Y-59496475D01*
X118755671Y-59497865D01*
X118754000Y-59505548D01*
X118754000Y-60477885D01*
X118246000Y-60477885D01*
X118246000Y-59510116D01*
X118241525Y-59494877D01*
X118240135Y-59493672D01*
X118232452Y-59492001D01*
X116634000Y-59492001D01*
X116565879Y-59471999D01*
X116519386Y-59418343D01*
X116508000Y-59366001D01*
X116508000Y-53975000D01*
X126756835Y-53975000D01*
X126775465Y-54211711D01*
X126776619Y-54216518D01*
X126776620Y-54216524D01*
X126811640Y-54362391D01*
X126830895Y-54442594D01*
X126832788Y-54447165D01*
X126832789Y-54447167D01*
X126917677Y-54652105D01*
X126921760Y-54661963D01*
X126924346Y-54666183D01*
X127043241Y-54860202D01*
X127043245Y-54860208D01*
X127045824Y-54864416D01*
X127200031Y-55044969D01*
X127380584Y-55199176D01*
X127384792Y-55201755D01*
X127384798Y-55201759D01*
X127578817Y-55320654D01*
X127583037Y-55323240D01*
X127587607Y-55325133D01*
X127587611Y-55325135D01*
X127797833Y-55412211D01*
X127802406Y-55414105D01*
X127882609Y-55433360D01*
X128028476Y-55468380D01*
X128028482Y-55468381D01*
X128033289Y-55469535D01*
X128270000Y-55488165D01*
X128506711Y-55469535D01*
X128511518Y-55468381D01*
X128511524Y-55468380D01*
X128657391Y-55433360D01*
X128737594Y-55414105D01*
X128742167Y-55412211D01*
X128952389Y-55325135D01*
X128952393Y-55325133D01*
X128956963Y-55323240D01*
X128961183Y-55320654D01*
X129155202Y-55201759D01*
X129155208Y-55201755D01*
X129159416Y-55199176D01*
X129339969Y-55044969D01*
X129494176Y-54864416D01*
X129496755Y-54860208D01*
X129496759Y-54860202D01*
X129615654Y-54666183D01*
X129618240Y-54661963D01*
X129622324Y-54652105D01*
X129707211Y-54447167D01*
X129707212Y-54447165D01*
X129709105Y-54442594D01*
X129728360Y-54362391D01*
X129763380Y-54216524D01*
X129763381Y-54216518D01*
X129764535Y-54211711D01*
X129783165Y-53975000D01*
X129764535Y-53738289D01*
X129749529Y-53675782D01*
X129723143Y-53565879D01*
X129709105Y-53507406D01*
X129706909Y-53502105D01*
X129620135Y-53292611D01*
X129620133Y-53292607D01*
X129618240Y-53288037D01*
X129572257Y-53213000D01*
X147076835Y-53213000D01*
X147095465Y-53449711D01*
X147096619Y-53454518D01*
X147096620Y-53454524D01*
X147113060Y-53522999D01*
X147150895Y-53680594D01*
X147152788Y-53685165D01*
X147152789Y-53685167D01*
X147176837Y-53743223D01*
X147241760Y-53899963D01*
X147244346Y-53904183D01*
X147363241Y-54098202D01*
X147363245Y-54098208D01*
X147365824Y-54102416D01*
X147520031Y-54282969D01*
X147700584Y-54437176D01*
X147704792Y-54439755D01*
X147704798Y-54439759D01*
X147898817Y-54558654D01*
X147903037Y-54561240D01*
X147907607Y-54563133D01*
X147907611Y-54563135D01*
X148117833Y-54650211D01*
X148122406Y-54652105D01*
X148202609Y-54671360D01*
X148348476Y-54706380D01*
X148348482Y-54706381D01*
X148353289Y-54707535D01*
X148590000Y-54726165D01*
X148826711Y-54707535D01*
X148831518Y-54706381D01*
X148831524Y-54706380D01*
X148977391Y-54671360D01*
X149057594Y-54652105D01*
X149062167Y-54650211D01*
X149272389Y-54563135D01*
X149272393Y-54563133D01*
X149276963Y-54561240D01*
X149281183Y-54558654D01*
X149475202Y-54439759D01*
X149475208Y-54439755D01*
X149479416Y-54437176D01*
X149659969Y-54282969D01*
X149814176Y-54102416D01*
X149816755Y-54098208D01*
X149816759Y-54098202D01*
X149935654Y-53904183D01*
X149938240Y-53899963D01*
X150003164Y-53743223D01*
X150027211Y-53685167D01*
X150027212Y-53685165D01*
X150029105Y-53680594D01*
X150066940Y-53522999D01*
X150083380Y-53454524D01*
X150083381Y-53454518D01*
X150084535Y-53449711D01*
X150103165Y-53213000D01*
X150091097Y-53059669D01*
X154452001Y-53059669D01*
X154452371Y-53066490D01*
X154457895Y-53117352D01*
X154461521Y-53132604D01*
X154506676Y-53253054D01*
X154515214Y-53268649D01*
X154591715Y-53370724D01*
X154604276Y-53383285D01*
X154706351Y-53459786D01*
X154721946Y-53468324D01*
X154842394Y-53513478D01*
X154857649Y-53517105D01*
X154908514Y-53522631D01*
X154915328Y-53523000D01*
X157227885Y-53523000D01*
X157243124Y-53518525D01*
X157244329Y-53517135D01*
X157246000Y-53509452D01*
X157246000Y-52537115D01*
X157241525Y-52521876D01*
X157240135Y-52520671D01*
X157232452Y-52519000D01*
X154470116Y-52519000D01*
X154454877Y-52523475D01*
X154453672Y-52524865D01*
X154452001Y-52532548D01*
X154452001Y-53059669D01*
X150091097Y-53059669D01*
X150084535Y-52976289D01*
X150068330Y-52908787D01*
X150048360Y-52825609D01*
X150029105Y-52745406D01*
X149942829Y-52537115D01*
X149940135Y-52530611D01*
X149940133Y-52530607D01*
X149938240Y-52526037D01*
X149898897Y-52461835D01*
X149816759Y-52327798D01*
X149816755Y-52327792D01*
X149814176Y-52323584D01*
X149659969Y-52143031D01*
X149484171Y-51992885D01*
X154452000Y-51992885D01*
X154456475Y-52008124D01*
X154457865Y-52009329D01*
X154465548Y-52011000D01*
X157227885Y-52011000D01*
X157243124Y-52006525D01*
X157244329Y-52005135D01*
X157246000Y-51997452D01*
X157246000Y-51025116D01*
X157241525Y-51009877D01*
X157240135Y-51008672D01*
X157232452Y-51007001D01*
X154915331Y-51007001D01*
X154908510Y-51007371D01*
X154857648Y-51012895D01*
X154842396Y-51016521D01*
X154721946Y-51061676D01*
X154706351Y-51070214D01*
X154604276Y-51146715D01*
X154591715Y-51159276D01*
X154515214Y-51261351D01*
X154506676Y-51276946D01*
X154461522Y-51397394D01*
X154457895Y-51412649D01*
X154452369Y-51463514D01*
X154452000Y-51470328D01*
X154452000Y-51992885D01*
X149484171Y-51992885D01*
X149479416Y-51988824D01*
X149475208Y-51986245D01*
X149475202Y-51986241D01*
X149281183Y-51867346D01*
X149276963Y-51864760D01*
X149272393Y-51862867D01*
X149272389Y-51862865D01*
X149062167Y-51775789D01*
X149062165Y-51775788D01*
X149057594Y-51773895D01*
X148977391Y-51754640D01*
X148831524Y-51719620D01*
X148831518Y-51719619D01*
X148826711Y-51718465D01*
X148590000Y-51699835D01*
X148353289Y-51718465D01*
X148348482Y-51719619D01*
X148348476Y-51719620D01*
X148202609Y-51754640D01*
X148122406Y-51773895D01*
X148117835Y-51775788D01*
X148117833Y-51775789D01*
X147907611Y-51862865D01*
X147907607Y-51862867D01*
X147903037Y-51864760D01*
X147898817Y-51867346D01*
X147704798Y-51986241D01*
X147704792Y-51986245D01*
X147700584Y-51988824D01*
X147520031Y-52143031D01*
X147365824Y-52323584D01*
X147363245Y-52327792D01*
X147363241Y-52327798D01*
X147281103Y-52461835D01*
X147241760Y-52526037D01*
X147239867Y-52530607D01*
X147239865Y-52530611D01*
X147237171Y-52537115D01*
X147150895Y-52745406D01*
X147131640Y-52825609D01*
X147111671Y-52908787D01*
X147095465Y-52976289D01*
X147076835Y-53213000D01*
X129572257Y-53213000D01*
X129569236Y-53208070D01*
X129496759Y-53089798D01*
X129496755Y-53089792D01*
X129494176Y-53085584D01*
X129339969Y-52905031D01*
X129159416Y-52750824D01*
X129155208Y-52748245D01*
X129155202Y-52748241D01*
X128961183Y-52629346D01*
X128956963Y-52626760D01*
X128952393Y-52624867D01*
X128952389Y-52624865D01*
X128742167Y-52537789D01*
X128742165Y-52537788D01*
X128737594Y-52535895D01*
X128629171Y-52509865D01*
X128511524Y-52481620D01*
X128511518Y-52481619D01*
X128506711Y-52480465D01*
X128270000Y-52461835D01*
X128033289Y-52480465D01*
X128028482Y-52481619D01*
X128028476Y-52481620D01*
X127910829Y-52509865D01*
X127802406Y-52535895D01*
X127797835Y-52537788D01*
X127797833Y-52537789D01*
X127587611Y-52624865D01*
X127587607Y-52624867D01*
X127583037Y-52626760D01*
X127578817Y-52629346D01*
X127384798Y-52748241D01*
X127384792Y-52748245D01*
X127380584Y-52750824D01*
X127200031Y-52905031D01*
X127045824Y-53085584D01*
X127043245Y-53089792D01*
X127043241Y-53089798D01*
X126970764Y-53208070D01*
X126921760Y-53288037D01*
X126919867Y-53292607D01*
X126919865Y-53292611D01*
X126833091Y-53502105D01*
X126830895Y-53507406D01*
X126816857Y-53565879D01*
X126790472Y-53675782D01*
X126775465Y-53738289D01*
X126756835Y-53975000D01*
X116508000Y-53975000D01*
X116508000Y-53634000D01*
X116528002Y-53565879D01*
X116581658Y-53519386D01*
X116634000Y-53508000D01*
X118227885Y-53508000D01*
X118243124Y-53503525D01*
X118244329Y-53502135D01*
X118246000Y-53494452D01*
X118246000Y-53489884D01*
X118754000Y-53489884D01*
X118758475Y-53505123D01*
X118759865Y-53506328D01*
X118767548Y-53507999D01*
X121084669Y-53507999D01*
X121091490Y-53507629D01*
X121142352Y-53502105D01*
X121157604Y-53498479D01*
X121278054Y-53453324D01*
X121293649Y-53444786D01*
X121395724Y-53368285D01*
X121408285Y-53355724D01*
X121484786Y-53253649D01*
X121493324Y-53238054D01*
X121538478Y-53117606D01*
X121542105Y-53102351D01*
X121547631Y-53051486D01*
X121548000Y-53044672D01*
X121548000Y-52522115D01*
X121543525Y-52506876D01*
X121542135Y-52505671D01*
X121534452Y-52504000D01*
X118772115Y-52504000D01*
X118756876Y-52508475D01*
X118755671Y-52509865D01*
X118754000Y-52517548D01*
X118754000Y-53489884D01*
X118246000Y-53489884D01*
X118246000Y-51977885D01*
X118754000Y-51977885D01*
X118758475Y-51993124D01*
X118759865Y-51994329D01*
X118767548Y-51996000D01*
X121529884Y-51996000D01*
X121545123Y-51991525D01*
X121546328Y-51990135D01*
X121547999Y-51982452D01*
X121547999Y-51455331D01*
X121547629Y-51448510D01*
X121542105Y-51397648D01*
X121538479Y-51382396D01*
X121493324Y-51261946D01*
X121484786Y-51246351D01*
X121408285Y-51144276D01*
X121395724Y-51131715D01*
X121293649Y-51055214D01*
X121278054Y-51046676D01*
X121157606Y-51001522D01*
X121142351Y-50997895D01*
X121091486Y-50992369D01*
X121084672Y-50992000D01*
X118772115Y-50992000D01*
X118756876Y-50996475D01*
X118755671Y-50997865D01*
X118754000Y-51005548D01*
X118754000Y-51977885D01*
X118246000Y-51977885D01*
X118246000Y-51010116D01*
X118241525Y-50994877D01*
X118240135Y-50993672D01*
X118232452Y-50992001D01*
X116634000Y-50992001D01*
X116565879Y-50971999D01*
X116519386Y-50918343D01*
X116508000Y-50866001D01*
X116508000Y-50634000D01*
X116528002Y-50565879D01*
X116581658Y-50519386D01*
X116634000Y-50508000D01*
X159366000Y-50508000D01*
X159434121Y-50528002D01*
G37*
%TD.AperFunction*%
%TD*%
M02*
