EESchema Schematic File Version 4
EELAYER 30 0
EELAYER END
$Descr A4 11693 8268
encoding utf-8
Sheet 3 6
Title ""
Date ""
Rev ""
Comp ""
Comment1 ""
Comment2 ""
Comment3 ""
Comment4 ""
$EndDescr
$Comp
L Connector:USB_B_Mini J?
U 1 1 618746D5
P 10500 1450
F 0 "J?" H 10270 1439 50  0000 R CNN
F 1 "USB" H 10270 1348 50  0000 R CNN
F 2 "" H 10650 1400 50  0001 C CNN
F 3 "~" H 10650 1400 50  0001 C CNN
	1    10500 1450
	-1   0    0    -1  
$EndComp
NoConn ~ 10600 1850
$Comp
L power:+3.3VA #PWR?
U 1 1 618790D0
P 2250 750
F 0 "#PWR?" H 2250 600 50  0001 C CNN
F 1 "+3.3VA" H 2265 923 50  0000 C CNN
F 2 "" H 2250 750 50  0001 C CNN
F 3 "" H 2250 750 50  0001 C CNN
	1    2250 750 
	1    0    0    -1  
$EndComp
$Comp
L Oscillator:Si5351A-B-GT U?
U 1 1 5FCE3FEE
P 9850 5400
F 0 "U?" H 10200 4900 50  0000 C CNN
F 1 "Si5351A-B-GT" H 10200 4800 50  0000 C CNN
F 2 "Package_SO:MSOP-10_3x3mm_P0.5mm" H 9850 4600 50  0001 C CNN
F 3 "https://www.silabs.com/documents/public/data-sheets/Si5351-B.pdf" H 9500 5300 50  0001 C CNN
	1    9850 5400
	1    0    0    -1  
$EndComp
$Comp
L power:GND #PWR?
U 1 1 5FCE5711
P 9850 6000
F 0 "#PWR?" H 9850 5750 50  0001 C CNN
F 1 "GND" H 9855 5827 50  0000 C CNN
F 2 "" H 9850 6000 50  0001 C CNN
F 3 "" H 9850 6000 50  0001 C CNN
	1    9850 6000
	1    0    0    -1  
$EndComp
Wire Wire Line
	9850 5900 9850 6000
$Comp
L power:+3.3V #PWR?
U 1 1 5FCE6AD5
P 9750 4600
F 0 "#PWR?" H 9750 4450 50  0001 C CNN
F 1 "+3.3V" H 9765 4773 50  0000 C CNN
F 2 "" H 9750 4600 50  0001 C CNN
F 3 "" H 9750 4600 50  0001 C CNN
	1    9750 4600
	1    0    0    -1  
$EndComp
$Comp
L power:+3.3V #PWR?
U 1 1 5FCE736D
P 9950 4600
F 0 "#PWR?" H 9950 4450 50  0001 C CNN
F 1 "+3.3V" H 9965 4773 50  0000 C CNN
F 2 "" H 9950 4600 50  0001 C CNN
F 3 "" H 9950 4600 50  0001 C CNN
	1    9950 4600
	1    0    0    -1  
$EndComp
$Comp
L Device:C C?
U 1 1 5FCE7C13
P 10250 4750
F 0 "C?" V 9998 4750 50  0000 C CNN
F 1 "100n" V 10089 4750 50  0000 C CNN
F 2 "" H 10288 4600 50  0001 C CNN
F 3 "~" H 10250 4750 50  0001 C CNN
	1    10250 4750
	0    1    1    0   
$EndComp
$Comp
L Device:C C?
U 1 1 5FCE84F5
P 9500 4750
F 0 "C?" V 9248 4750 50  0000 C CNN
F 1 "100n" V 9339 4750 50  0000 C CNN
F 2 "" H 9538 4600 50  0001 C CNN
F 3 "~" H 9500 4750 50  0001 C CNN
	1    9500 4750
	0    1    1    0   
$EndComp
$Comp
L power:GND #PWR?
U 1 1 5FCE8A60
P 10500 4850
F 0 "#PWR?" H 10500 4600 50  0001 C CNN
F 1 "GND" H 10505 4677 50  0000 C CNN
F 2 "" H 10500 4850 50  0001 C CNN
F 3 "" H 10500 4850 50  0001 C CNN
	1    10500 4850
	1    0    0    -1  
$EndComp
$Comp
L power:GND #PWR?
U 1 1 5FCE8F57
P 9250 4850
F 0 "#PWR?" H 9250 4600 50  0001 C CNN
F 1 "GND" H 9255 4677 50  0000 C CNN
F 2 "" H 9250 4850 50  0001 C CNN
F 3 "" H 9250 4850 50  0001 C CNN
	1    9250 4850
	1    0    0    -1  
$EndComp
Wire Wire Line
	9750 4600 9750 4750
Wire Wire Line
	9650 4750 9750 4750
Connection ~ 9750 4750
Wire Wire Line
	9750 4750 9750 4900
Wire Wire Line
	9350 4750 9250 4750
Wire Wire Line
	9250 4750 9250 4850
Wire Wire Line
	9950 4600 9950 4750
Wire Wire Line
	9950 4750 10100 4750
Connection ~ 9950 4750
Wire Wire Line
	9950 4750 9950 4900
Wire Wire Line
	10400 4750 10500 4750
Wire Wire Line
	10500 4750 10500 4850
Text GLabel 9250 5600 0    50   Input ~ 0
SCL
Text GLabel 9250 5700 0    50   Input ~ 0
SDA
$Comp
L Device:Crystal Y?
U 1 1 5FCEBE6A
P 8600 5300
F 0 "Y?" H 8600 5032 50  0000 C CNN
F 1 "27MHz" H 8600 5123 50  0000 C CNN
F 2 "" H 8600 5300 50  0001 C CNN
F 3 "~" H 8600 5300 50  0001 C CNN
	1    8600 5300
	-1   0    0    1   
$EndComp
$Comp
L Device:C C?
U 1 1 5FCF8CCF
P 8350 5550
F 0 "C?" H 8235 5504 50  0000 R CNN
F 1 "0" H 8235 5595 50  0000 R CNN
F 2 "" H 8388 5400 50  0001 C CNN
F 3 "~" H 8350 5550 50  0001 C CNN
	1    8350 5550
	-1   0    0    1   
$EndComp
$Comp
L Device:C C?
U 1 1 5FCF9164
P 8850 5550
F 0 "C?" H 8735 5504 50  0000 R CNN
F 1 "0" H 8735 5595 50  0000 R CNN
F 2 "" H 8888 5400 50  0001 C CNN
F 3 "~" H 8850 5550 50  0001 C CNN
	1    8850 5550
	-1   0    0    1   
$EndComp
$Comp
L power:GND #PWR?
U 1 1 5FCF971F
P 8850 5800
F 0 "#PWR?" H 8850 5550 50  0001 C CNN
F 1 "GND" H 8855 5627 50  0000 C CNN
F 2 "" H 8850 5800 50  0001 C CNN
F 3 "" H 8850 5800 50  0001 C CNN
	1    8850 5800
	1    0    0    -1  
$EndComp
$Comp
L power:GND #PWR?
U 1 1 5FCF9A5A
P 8350 5800
F 0 "#PWR?" H 8350 5550 50  0001 C CNN
F 1 "GND" H 8355 5627 50  0000 C CNN
F 2 "" H 8350 5800 50  0001 C CNN
F 3 "" H 8350 5800 50  0001 C CNN
	1    8350 5800
	1    0    0    -1  
$EndComp
Wire Wire Line
	9350 5100 8350 5100
Wire Wire Line
	8350 5100 8350 5300
Wire Wire Line
	8350 5300 8450 5300
Connection ~ 8350 5300
Wire Wire Line
	8350 5300 8350 5400
Wire Wire Line
	8750 5300 8850 5300
Wire Wire Line
	8850 5400 8850 5300
Connection ~ 8850 5300
Wire Wire Line
	8850 5300 9350 5300
Wire Wire Line
	8850 5700 8850 5800
Wire Wire Line
	8350 5700 8350 5800
Wire Wire Line
	9250 5600 9350 5600
Wire Wire Line
	9250 5700 9350 5700
Wire Wire Line
	10350 5200 10450 5200
Wire Wire Line
	10350 5400 10450 5400
Wire Wire Line
	10350 5600 10450 5600
NoConn ~ 10200 1650
$Comp
L power:GND #PWR?
U 1 1 5FD0E7A2
P 10500 2150
F 0 "#PWR?" H 10500 1900 50  0001 C CNN
F 1 "GND" H 10505 1977 50  0000 C CNN
F 2 "" H 10500 2150 50  0001 C CNN
F 3 "" H 10500 2150 50  0001 C CNN
	1    10500 2150
	1    0    0    -1  
$EndComp
Wire Wire Line
	10500 1850 10500 2150
$Comp
L Device:Ferrite_Bead_Small FB?
U 1 1 5FD0FF4B
P 10100 1050
F 0 "FB?" H 10000 1004 50  0000 R CNN
F 1 "GZ2012D601TF " H 10000 1095 50  0000 R CNN
F 2 "" V 10030 1050 50  0001 C CNN
F 3 "~" H 10100 1050 50  0001 C CNN
	1    10100 1050
	-1   0    0    1   
$EndComp
$Comp
L Device:C C?
U 1 1 5FD11896
P 10100 1900
F 0 "C?" V 9848 1900 50  0000 C CNN
F 1 "100n" V 9939 1900 50  0000 C CNN
F 2 "" H 10138 1750 50  0001 C CNN
F 3 "~" H 10100 1900 50  0001 C CNN
	1    10100 1900
	-1   0    0    1   
$EndComp
$Comp
L power:GND #PWR?
U 1 1 5FD1243E
P 10100 2150
F 0 "#PWR?" H 10100 1900 50  0001 C CNN
F 1 "GND" H 10105 1977 50  0000 C CNN
F 2 "" H 10100 2150 50  0001 C CNN
F 3 "" H 10100 2150 50  0001 C CNN
	1    10100 2150
	1    0    0    -1  
$EndComp
Wire Wire Line
	10100 1150 10100 1250
Wire Wire Line
	10100 1250 10200 1250
$Comp
L power:+5V #PWR?
U 1 1 5FD16A93
P 10600 750
F 0 "#PWR?" H 10600 600 50  0001 C CNN
F 1 "+5V" H 10615 923 50  0000 C CNN
F 2 "" H 10600 750 50  0001 C CNN
F 3 "" H 10600 750 50  0001 C CNN
	1    10600 750 
	1    0    0    -1  
$EndComp
$Comp
L MCU_ST_STM32F4:STM32F407VETx U?
U 1 1 6040E89D
P 1850 3550
F 0 "U?" H 1000 6200 50  0000 C CNN
F 1 "STM32F407VETx" H 1000 6300 50  0000 C CNN
F 2 "Package_QFP:LQFP-100_14x14mm_P0.5mm" H 1150 950 50  0001 R CNN
F 3 "http://www.st.com/st-web-ui/static/active/en/resource/technical/document/datasheet/DM00037051.pdf" H 1850 3550 50  0001 C CNN
	1    1850 3550
	1    0    0    -1  
$EndComp
$Comp
L power:GND #PWR?
U 1 1 6042198D
P 1850 6450
F 0 "#PWR?" H 1850 6200 50  0001 C CNN
F 1 "GND" H 1855 6277 50  0000 C CNN
F 2 "" H 1850 6450 50  0001 C CNN
F 3 "" H 1850 6450 50  0001 C CNN
	1    1850 6450
	1    0    0    -1  
$EndComp
$Comp
L power:+3.3V #PWR?
U 1 1 6042866C
P 1850 750
F 0 "#PWR?" H 1850 600 50  0001 C CNN
F 1 "+3.3V" H 1865 923 50  0000 C CNN
F 2 "" H 1850 750 50  0001 C CNN
F 3 "" H 1850 750 50  0001 C CNN
	1    1850 750 
	1    0    0    -1  
$EndComp
$Comp
L power:+BATT #PWR?
U 1 1 60429E04
P 1550 750
F 0 "#PWR?" H 1550 600 50  0001 C CNN
F 1 "+BATT" H 1565 923 50  0000 C CNN
F 2 "" H 1550 750 50  0001 C CNN
F 3 "" H 1550 750 50  0001 C CNN
	1    1550 750 
	1    0    0    -1  
$EndComp
Wire Wire Line
	1550 750  1550 850 
Wire Wire Line
	1850 750  1850 800 
Wire Wire Line
	2250 750  2250 850 
$Comp
L Device:C C?
U 1 1 604425D2
P 850 7250
F 0 "C?" H 735 7204 50  0000 R CNN
F 1 "100n" H 735 7295 50  0000 R CNN
F 2 "" H 888 7100 50  0001 C CNN
F 3 "~" H 850 7250 50  0001 C CNN
	1    850  7250
	-1   0    0    1   
$EndComp
$Comp
L power:GND #PWR?
U 1 1 60442D61
P 850 7500
F 0 "#PWR?" H 850 7250 50  0001 C CNN
F 1 "GND" H 855 7327 50  0000 C CNN
F 2 "" H 850 7500 50  0001 C CNN
F 3 "" H 850 7500 50  0001 C CNN
	1    850  7500
	1    0    0    -1  
$EndComp
$Comp
L Device:C C?
U 1 1 60444B27
P 1250 7250
F 0 "C?" H 1135 7204 50  0000 R CNN
F 1 "100n" H 1135 7295 50  0000 R CNN
F 2 "" H 1288 7100 50  0001 C CNN
F 3 "~" H 1250 7250 50  0001 C CNN
	1    1250 7250
	-1   0    0    1   
$EndComp
$Comp
L Device:C C?
U 1 1 60444F92
P 1650 7250
F 0 "C?" H 1535 7204 50  0000 R CNN
F 1 "100n" H 1535 7295 50  0000 R CNN
F 2 "" H 1688 7100 50  0001 C CNN
F 3 "~" H 1650 7250 50  0001 C CNN
	1    1650 7250
	-1   0    0    1   
$EndComp
$Comp
L Device:C C?
U 1 1 604453A7
P 2050 7250
F 0 "C?" H 1935 7204 50  0000 R CNN
F 1 "100n" H 1935 7295 50  0000 R CNN
F 2 "" H 2088 7100 50  0001 C CNN
F 3 "~" H 2050 7250 50  0001 C CNN
	1    2050 7250
	-1   0    0    1   
$EndComp
$Comp
L Device:C C?
U 1 1 60445858
P 2450 7250
F 0 "C?" H 2335 7204 50  0000 R CNN
F 1 "100n" H 2335 7295 50  0000 R CNN
F 2 "" H 2488 7100 50  0001 C CNN
F 3 "~" H 2450 7250 50  0001 C CNN
	1    2450 7250
	-1   0    0    1   
$EndComp
$Comp
L Device:C C?
U 1 1 60445CF8
P 2850 7250
F 0 "C?" H 2735 7204 50  0000 R CNN
F 1 "100n" H 2735 7295 50  0000 R CNN
F 2 "" H 2888 7100 50  0001 C CNN
F 3 "~" H 2850 7250 50  0001 C CNN
	1    2850 7250
	-1   0    0    1   
$EndComp
$Comp
L Device:C C?
U 1 1 60446069
P 3250 7250
F 0 "C?" H 3135 7204 50  0000 R CNN
F 1 "4.7u" H 3135 7295 50  0000 R CNN
F 2 "" H 3288 7100 50  0001 C CNN
F 3 "~" H 3250 7250 50  0001 C CNN
	1    3250 7250
	-1   0    0    1   
$EndComp
$Comp
L power:+3.3V #PWR?
U 1 1 6044B52D
P 850 7000
F 0 "#PWR?" H 850 6850 50  0001 C CNN
F 1 "+3.3V" H 865 7173 50  0000 C CNN
F 2 "" H 850 7000 50  0001 C CNN
F 3 "" H 850 7000 50  0001 C CNN
	1    850  7000
	1    0    0    -1  
$EndComp
$Comp
L power:+3.3V #PWR?
U 1 1 6044C664
P 1250 7000
F 0 "#PWR?" H 1250 6850 50  0001 C CNN
F 1 "+3.3V" H 1265 7173 50  0000 C CNN
F 2 "" H 1250 7000 50  0001 C CNN
F 3 "" H 1250 7000 50  0001 C CNN
	1    1250 7000
	1    0    0    -1  
$EndComp
$Comp
L power:+3.3V #PWR?
U 1 1 6044CB9B
P 1650 7000
F 0 "#PWR?" H 1650 6850 50  0001 C CNN
F 1 "+3.3V" H 1665 7173 50  0000 C CNN
F 2 "" H 1650 7000 50  0001 C CNN
F 3 "" H 1650 7000 50  0001 C CNN
	1    1650 7000
	1    0    0    -1  
$EndComp
$Comp
L power:+3.3V #PWR?
U 1 1 6044D0A5
P 2050 7000
F 0 "#PWR?" H 2050 6850 50  0001 C CNN
F 1 "+3.3V" H 2065 7173 50  0000 C CNN
F 2 "" H 2050 7000 50  0001 C CNN
F 3 "" H 2050 7000 50  0001 C CNN
	1    2050 7000
	1    0    0    -1  
$EndComp
$Comp
L power:+3.3V #PWR?
U 1 1 6044D48F
P 2450 7000
F 0 "#PWR?" H 2450 6850 50  0001 C CNN
F 1 "+3.3V" H 2465 7173 50  0000 C CNN
F 2 "" H 2450 7000 50  0001 C CNN
F 3 "" H 2450 7000 50  0001 C CNN
	1    2450 7000
	1    0    0    -1  
$EndComp
$Comp
L power:+3.3V #PWR?
U 1 1 6044D8BD
P 2850 7000
F 0 "#PWR?" H 2850 6850 50  0001 C CNN
F 1 "+3.3V" H 2865 7173 50  0000 C CNN
F 2 "" H 2850 7000 50  0001 C CNN
F 3 "" H 2850 7000 50  0001 C CNN
	1    2850 7000
	1    0    0    -1  
$EndComp
$Comp
L power:+3.3V #PWR?
U 1 1 6044DD08
P 3250 7000
F 0 "#PWR?" H 3250 6850 50  0001 C CNN
F 1 "+3.3V" H 3265 7173 50  0000 C CNN
F 2 "" H 3250 7000 50  0001 C CNN
F 3 "" H 3250 7000 50  0001 C CNN
	1    3250 7000
	1    0    0    -1  
$EndComp
$Comp
L power:GND #PWR?
U 1 1 6044EC8F
P 1250 7500
F 0 "#PWR?" H 1250 7250 50  0001 C CNN
F 1 "GND" H 1255 7327 50  0000 C CNN
F 2 "" H 1250 7500 50  0001 C CNN
F 3 "" H 1250 7500 50  0001 C CNN
	1    1250 7500
	1    0    0    -1  
$EndComp
$Comp
L power:GND #PWR?
U 1 1 6044F149
P 1650 7500
F 0 "#PWR?" H 1650 7250 50  0001 C CNN
F 1 "GND" H 1655 7327 50  0000 C CNN
F 2 "" H 1650 7500 50  0001 C CNN
F 3 "" H 1650 7500 50  0001 C CNN
	1    1650 7500
	1    0    0    -1  
$EndComp
$Comp
L power:GND #PWR?
U 1 1 6044F553
P 2050 7500
F 0 "#PWR?" H 2050 7250 50  0001 C CNN
F 1 "GND" H 2055 7327 50  0000 C CNN
F 2 "" H 2050 7500 50  0001 C CNN
F 3 "" H 2050 7500 50  0001 C CNN
	1    2050 7500
	1    0    0    -1  
$EndComp
$Comp
L power:GND #PWR?
U 1 1 6044F900
P 2450 7500
F 0 "#PWR?" H 2450 7250 50  0001 C CNN
F 1 "GND" H 2455 7327 50  0000 C CNN
F 2 "" H 2450 7500 50  0001 C CNN
F 3 "" H 2450 7500 50  0001 C CNN
	1    2450 7500
	1    0    0    -1  
$EndComp
$Comp
L power:GND #PWR?
U 1 1 6044FD1A
P 2850 7500
F 0 "#PWR?" H 2850 7250 50  0001 C CNN
F 1 "GND" H 2855 7327 50  0000 C CNN
F 2 "" H 2850 7500 50  0001 C CNN
F 3 "" H 2850 7500 50  0001 C CNN
	1    2850 7500
	1    0    0    -1  
$EndComp
$Comp
L power:GND #PWR?
U 1 1 60450129
P 3250 7500
F 0 "#PWR?" H 3250 7250 50  0001 C CNN
F 1 "GND" H 3255 7327 50  0000 C CNN
F 2 "" H 3250 7500 50  0001 C CNN
F 3 "" H 3250 7500 50  0001 C CNN
	1    3250 7500
	1    0    0    -1  
$EndComp
$Comp
L power:+3.3VA #PWR?
U 1 1 6046A37F
P 550 750
F 0 "#PWR?" H 550 600 50  0001 C CNN
F 1 "+3.3VA" H 565 923 50  0000 C CNN
F 2 "" H 550 750 50  0001 C CNN
F 3 "" H 550 750 50  0001 C CNN
	1    550  750 
	1    0    0    -1  
$EndComp
Wire Wire Line
	950  1750 550  1750
Wire Wire Line
	550  1750 550  750 
$Comp
L Device:C C?
U 1 1 604728B9
P 6000 1550
F 0 "C?" H 5885 1504 50  0000 R CNN
F 1 "2.2u" H 5885 1595 50  0000 R CNN
F 2 "" H 6038 1400 50  0001 C CNN
F 3 "~" H 6000 1550 50  0001 C CNN
	1    6000 1550
	-1   0    0    1   
$EndComp
$Comp
L Device:C C?
U 1 1 604744B7
P 5650 1550
F 0 "C?" H 5535 1504 50  0000 R CNN
F 1 "2.2u" H 5535 1595 50  0000 R CNN
F 2 "" H 5688 1400 50  0001 C CNN
F 3 "~" H 5650 1550 50  0001 C CNN
	1    5650 1550
	-1   0    0    1   
$EndComp
$Comp
L power:GND #PWR?
U 1 1 604782B4
P 5650 1800
F 0 "#PWR?" H 5650 1550 50  0001 C CNN
F 1 "GND" H 5655 1627 50  0000 C CNN
F 2 "" H 5650 1800 50  0001 C CNN
F 3 "" H 5650 1800 50  0001 C CNN
	1    5650 1800
	1    0    0    -1  
$EndComp
$Comp
L power:GND #PWR?
U 1 1 6047972E
P 6000 1800
F 0 "#PWR?" H 6000 1550 50  0001 C CNN
F 1 "GND" H 6005 1627 50  0000 C CNN
F 2 "" H 6000 1800 50  0001 C CNN
F 3 "" H 6000 1800 50  0001 C CNN
	1    6000 1800
	1    0    0    -1  
$EndComp
Wire Wire Line
	6000 1700 6000 1800
Wire Wire Line
	5650 1700 5650 1800
Wire Wire Line
	850  7000 850  7100
Wire Wire Line
	1250 7000 1250 7100
Wire Wire Line
	1650 7000 1650 7100
Wire Wire Line
	2050 7000 2050 7100
Wire Wire Line
	2450 7000 2450 7100
Wire Wire Line
	2850 7000 2850 7100
Wire Wire Line
	3250 7000 3250 7100
Wire Wire Line
	3250 7400 3250 7500
Wire Wire Line
	2850 7400 2850 7500
Wire Wire Line
	2450 7400 2450 7500
Wire Wire Line
	2050 7400 2050 7500
Wire Wire Line
	1650 7400 1650 7500
Wire Wire Line
	1250 7400 1250 7500
Wire Wire Line
	850  7400 850  7500
Text GLabel 850  1150 0    50   Input ~ 0
NRST
Text GLabel 850  1350 0    50   Input ~ 0
Boot
Wire Wire Line
	850  1150 950  1150
Wire Wire Line
	850  1350 950  1350
Text HLabel 2850 1150 2    50   Input ~ 0
I+60
Text HLabel 2850 1250 2    50   Input ~ 0
Q+60
Text HLabel 2850 1350 2    50   Input ~ 0
I+80
Text HLabel 2850 1450 2    50   Input ~ 0
Q+80
Text HLabel 2850 1750 2    50   Input ~ 0
I+100
Text HLabel 2850 1850 2    50   Input ~ 0
Q+100
Text HLabel 2850 1550 2    50   Output ~ 0
HP-OUT
Text HLabel 2850 1650 2    50   Output ~ 0
Line-OUT
Text HLabel 2850 2850 2    50   Input ~ 0
MIC
Text GLabel 2850 2350 2    50   Input ~ 0
USB-D+
Text GLabel 2850 2250 2    50   Input ~ 0
USB-D-
Wire Wire Line
	1850 6350 1850 6400
$Comp
L Device:Battery_Cell BT?
U 1 1 60E4971A
P 3800 7300
F 0 "BT?" H 3918 7396 50  0000 L CNN
F 1 "3V" H 3918 7305 50  0000 L CNN
F 2 "" V 3800 7360 50  0001 C CNN
F 3 "~" V 3800 7360 50  0001 C CNN
	1    3800 7300
	1    0    0    -1  
$EndComp
$Comp
L power:+BATT #PWR?
U 1 1 60E4D9D3
P 4200 6300
F 0 "#PWR?" H 4200 6150 50  0001 C CNN
F 1 "+BATT" H 4215 6473 50  0000 C CNN
F 2 "" H 4200 6300 50  0001 C CNN
F 3 "" H 4200 6300 50  0001 C CNN
	1    4200 6300
	1    0    0    -1  
$EndComp
$Comp
L power:GND #PWR?
U 1 1 60E51A5C
P 3800 7500
F 0 "#PWR?" H 3800 7250 50  0001 C CNN
F 1 "GND" H 3805 7327 50  0000 C CNN
F 2 "" H 3800 7500 50  0001 C CNN
F 3 "" H 3800 7500 50  0001 C CNN
	1    3800 7500
	1    0    0    -1  
$EndComp
$Comp
L Diode:BAT54C D?
U 1 1 60E59B15
P 3800 6700
F 0 "D?" V 3846 6788 50  0000 L CNN
F 1 "BAT54C" V 3755 6788 50  0000 L CNN
F 2 "Package_TO_SOT_SMD:SOT-23" H 3875 6825 50  0001 L CNN
F 3 "http://www.diodes.com/_files/datasheets/ds11005.pdf" H 3720 6700 50  0001 C CNN
	1    3800 6700
	0    -1   -1   0   
$EndComp
Wire Wire Line
	3800 7400 3800 7500
$Comp
L power:+3.3V #PWR?
U 1 1 60E65E95
P 3800 6300
F 0 "#PWR?" H 3800 6150 50  0001 C CNN
F 1 "+3.3V" H 3815 6473 50  0000 C CNN
F 2 "" H 3800 6300 50  0001 C CNN
F 3 "" H 3800 6300 50  0001 C CNN
	1    3800 6300
	1    0    0    -1  
$EndComp
$Comp
L Device:C C?
U 1 1 60E82D32
P 4200 7250
F 0 "C?" H 4085 7204 50  0000 R CNN
F 1 "100n" H 4085 7295 50  0000 R CNN
F 2 "" H 4238 7100 50  0001 C CNN
F 3 "~" H 4200 7250 50  0001 C CNN
	1    4200 7250
	-1   0    0    1   
$EndComp
$Comp
L power:GND #PWR?
U 1 1 60E83365
P 4200 7500
F 0 "#PWR?" H 4200 7250 50  0001 C CNN
F 1 "GND" H 4205 7327 50  0000 C CNN
F 2 "" H 4200 7500 50  0001 C CNN
F 3 "" H 4200 7500 50  0001 C CNN
	1    4200 7500
	1    0    0    -1  
$EndComp
$Comp
L power:+3.3V #PWR?
U 1 1 60E9B13D
P 5250 6500
F 0 "#PWR?" H 5250 6350 50  0001 C CNN
F 1 "+3.3V" H 5265 6673 50  0000 C CNN
F 2 "" H 5250 6500 50  0001 C CNN
F 3 "" H 5250 6500 50  0001 C CNN
	1    5250 6500
	1    0    0    -1  
$EndComp
$Comp
L Device:R R?
U 1 1 60E9DCCB
P 5250 6750
F 0 "R?" H 5320 6796 50  0000 L CNN
F 1 "10k" H 5320 6705 50  0000 L CNN
F 2 "" V 5180 6750 50  0001 C CNN
F 3 "~" H 5250 6750 50  0001 C CNN
	1    5250 6750
	1    0    0    -1  
$EndComp
Text GLabel 5350 7000 2    50   Input ~ 0
NRST
$Comp
L power:GND #PWR?
U 1 1 60EADA6F
P 5250 7500
F 0 "#PWR?" H 5250 7250 50  0001 C CNN
F 1 "GND" H 5255 7327 50  0000 C CNN
F 2 "" H 5250 7500 50  0001 C CNN
F 3 "" H 5250 7500 50  0001 C CNN
	1    5250 7500
	1    0    0    -1  
$EndComp
$Comp
L power:GND #PWR?
U 1 1 60EADE9F
P 4750 7500
F 0 "#PWR?" H 4750 7250 50  0001 C CNN
F 1 "GND" H 4755 7327 50  0000 C CNN
F 2 "" H 4750 7500 50  0001 C CNN
F 3 "" H 4750 7500 50  0001 C CNN
	1    4750 7500
	1    0    0    -1  
$EndComp
Wire Wire Line
	5350 7000 5250 7000
Wire Wire Line
	5250 6900 5250 7000
Connection ~ 5250 7000
Wire Wire Line
	5250 7000 4750 7000
Wire Wire Line
	5250 7100 5250 7000
Wire Wire Line
	5250 6500 5250 6600
Wire Wire Line
	5250 7400 5250 7500
Text GLabel 850  2550 0    50   Input ~ 0
HQ1
Text GLabel 850  2650 0    50   Input ~ 0
HQ2
Text GLabel 2850 5950 2    50   Input ~ 0
LQ1
Text GLabel 2850 6050 2    50   Input ~ 0
LQ2
$Comp
L Device:Crystal Y?
U 1 1 60ECAE8C
P 3850 1250
F 0 "Y?" H 3850 1518 50  0000 C CNN
F 1 "8MHz" H 3850 1427 50  0000 C CNN
F 2 "" H 3850 1250 50  0001 C CNN
F 3 "~" H 3850 1250 50  0001 C CNN
	1    3850 1250
	1    0    0    -1  
$EndComp
$Comp
L Device:R R?
U 1 1 60ECBE24
P 3850 900
F 0 "R?" V 3643 900 50  0000 C CNN
F 1 "10M" V 3734 900 50  0000 C CNN
F 2 "" V 3780 900 50  0001 C CNN
F 3 "~" H 3850 900 50  0001 C CNN
	1    3850 900 
	0    1    1    0   
$EndComp
$Comp
L Device:C C?
U 1 1 60EA08D6
P 5250 7250
F 0 "C?" H 5135 7204 50  0000 R CNN
F 1 "100n" H 5135 7295 50  0000 R CNN
F 2 "" H 5288 7100 50  0001 C CNN
F 3 "~" H 5250 7250 50  0001 C CNN
	1    5250 7250
	1    0    0    -1  
$EndComp
$Comp
L Device:C C?
U 1 1 60ECF143
P 4100 1500
F 0 "C?" H 3985 1454 50  0000 R CNN
F 1 "22p" H 3985 1545 50  0000 R CNN
F 2 "" H 4138 1350 50  0001 C CNN
F 3 "~" H 4100 1500 50  0001 C CNN
	1    4100 1500
	1    0    0    -1  
$EndComp
$Comp
L Device:C C?
U 1 1 60ECF5A5
P 3600 1500
F 0 "C?" H 3485 1454 50  0000 R CNN
F 1 "22p" H 3485 1545 50  0000 R CNN
F 2 "" H 3638 1350 50  0001 C CNN
F 3 "~" H 3600 1500 50  0001 C CNN
	1    3600 1500
	1    0    0    -1  
$EndComp
$Comp
L power:GND #PWR?
U 1 1 60ECFEA8
P 3600 1750
F 0 "#PWR?" H 3600 1500 50  0001 C CNN
F 1 "GND" H 3605 1577 50  0000 C CNN
F 2 "" H 3600 1750 50  0001 C CNN
F 3 "" H 3600 1750 50  0001 C CNN
	1    3600 1750
	1    0    0    -1  
$EndComp
$Comp
L power:GND #PWR?
U 1 1 60ED2854
P 4100 1750
F 0 "#PWR?" H 4100 1500 50  0001 C CNN
F 1 "GND" H 4105 1577 50  0000 C CNN
F 2 "" H 4100 1750 50  0001 C CNN
F 3 "" H 4100 1750 50  0001 C CNN
	1    4100 1750
	1    0    0    -1  
$EndComp
Text GLabel 3600 800  1    50   Input ~ 0
HQ1
Text GLabel 4100 800  1    50   Input ~ 0
HQ2
Wire Wire Line
	4100 800  4100 900 
Wire Wire Line
	4000 1250 4100 1250
Connection ~ 4100 1250
Wire Wire Line
	4100 1250 4100 1350
Wire Wire Line
	4000 900  4100 900 
Connection ~ 4100 900 
Wire Wire Line
	4100 900  4100 1250
Wire Wire Line
	3700 900  3600 900 
Wire Wire Line
	3600 900  3600 800 
Wire Wire Line
	3600 900  3600 1250
Connection ~ 3600 900 
Wire Wire Line
	3600 1250 3700 1250
Connection ~ 3600 1250
Wire Wire Line
	3600 1250 3600 1350
Wire Wire Line
	3600 1650 3600 1750
Wire Wire Line
	4100 1650 4100 1750
$Comp
L Device:Crystal Y?
U 1 1 60EEFF84
P 5050 1300
F 0 "Y?" H 5050 1568 50  0000 C CNN
F 1 "32.768kHz" H 5050 1477 50  0000 C CNN
F 2 "" H 5050 1300 50  0001 C CNN
F 3 "~" H 5050 1300 50  0001 C CNN
	1    5050 1300
	1    0    0    -1  
$EndComp
$Comp
L Device:C C?
U 1 1 60EEFF8E
P 5300 1550
F 0 "C?" H 5185 1504 50  0000 R CNN
F 1 "12p" H 5185 1595 50  0000 R CNN
F 2 "" H 5338 1400 50  0001 C CNN
F 3 "~" H 5300 1550 50  0001 C CNN
	1    5300 1550
	1    0    0    -1  
$EndComp
$Comp
L Device:C C?
U 1 1 60EEFF98
P 4800 1550
F 0 "C?" H 4685 1504 50  0000 R CNN
F 1 "12p" H 4685 1595 50  0000 R CNN
F 2 "" H 4838 1400 50  0001 C CNN
F 3 "~" H 4800 1550 50  0001 C CNN
	1    4800 1550
	1    0    0    -1  
$EndComp
$Comp
L power:GND #PWR?
U 1 1 60EEFFA2
P 4800 1800
F 0 "#PWR?" H 4800 1550 50  0001 C CNN
F 1 "GND" H 4805 1627 50  0000 C CNN
F 2 "" H 4800 1800 50  0001 C CNN
F 3 "" H 4800 1800 50  0001 C CNN
	1    4800 1800
	1    0    0    -1  
$EndComp
$Comp
L power:GND #PWR?
U 1 1 60EEFFAC
P 5300 1800
F 0 "#PWR?" H 5300 1550 50  0001 C CNN
F 1 "GND" H 5305 1627 50  0000 C CNN
F 2 "" H 5300 1800 50  0001 C CNN
F 3 "" H 5300 1800 50  0001 C CNN
	1    5300 1800
	1    0    0    -1  
$EndComp
Wire Wire Line
	5200 1300 5300 1300
Connection ~ 5300 1300
Wire Wire Line
	5300 1300 5300 1400
Wire Wire Line
	5300 850  5300 1300
Wire Wire Line
	4800 850  4800 1300
Wire Wire Line
	4800 1300 4900 1300
Connection ~ 4800 1300
Wire Wire Line
	4800 1300 4800 1400
Wire Wire Line
	4800 1700 4800 1800
Wire Wire Line
	5300 1700 5300 1800
Text GLabel 4800 850  1    50   Input ~ 0
LQ1
Text GLabel 5300 850  1    50   Input ~ 0
LQ2
Wire Wire Line
	10100 1750 10100 1250
Connection ~ 10100 1250
Wire Wire Line
	10100 2050 10100 2150
Wire Wire Line
	10200 1450 9850 1450
Wire Wire Line
	9850 1300 9850 1450
$Comp
L power:+3.3V #PWR?
U 1 1 60F9E3BF
P 9850 750
F 0 "#PWR?" H 9850 600 50  0001 C CNN
F 1 "+3.3V" H 9865 923 50  0000 C CNN
F 2 "" H 9850 750 50  0001 C CNN
F 3 "" H 9850 750 50  0001 C CNN
	1    9850 750 
	1    0    0    -1  
$EndComp
Wire Wire Line
	9850 750  9850 1000
$Comp
L Device:Jumper_NO_Small JP?
U 1 1 60FB5BF8
P 10300 850
F 0 "JP?" H 10300 1035 50  0000 C CNN
F 1 "USB Supply" H 10300 944 50  0000 C CNN
F 2 "" H 10300 850 50  0001 C CNN
F 3 "~" H 10300 850 50  0001 C CNN
	1    10300 850 
	1    0    0    -1  
$EndComp
Wire Wire Line
	10200 850  10100 850 
Wire Wire Line
	10100 850  10100 950 
Wire Wire Line
	10400 850  10600 850 
Wire Wire Line
	10600 850  10600 750 
$Comp
L Device:R R?
U 1 1 60F2AACF
P 9850 1150
F 0 "R?" H 9920 1196 50  0000 L CNN
F 1 "1.5k" H 9920 1105 50  0000 L CNN
F 2 "" V 9780 1150 50  0001 C CNN
F 3 "~" H 9850 1150 50  0001 C CNN
	1    9850 1150
	1    0    0    -1  
$EndComp
$Comp
L Device:R R?
U 1 1 60FE4434
P 9600 1450
F 0 "R?" V 9393 1450 50  0000 C CNN
F 1 "22" V 9484 1450 50  0000 C CNN
F 2 "" V 9530 1450 50  0001 C CNN
F 3 "~" H 9600 1450 50  0001 C CNN
	1    9600 1450
	0    1    1    0   
$EndComp
$Comp
L Device:R R?
U 1 1 60FE8B73
P 9600 1550
F 0 "R?" V 9700 1550 50  0000 C CNN
F 1 "22" V 9800 1550 50  0000 C CNN
F 2 "" V 9530 1550 50  0001 C CNN
F 3 "~" H 9600 1550 50  0001 C CNN
	1    9600 1550
	0    1    1    0   
$EndComp
Wire Wire Line
	9750 1550 10200 1550
Wire Wire Line
	9750 1450 9850 1450
Connection ~ 9850 1450
Wire Wire Line
	9350 1450 9450 1450
Wire Wire Line
	9450 1550 9350 1550
Wire Wire Line
	850  2550 950  2550
Wire Wire Line
	850  2650 950  2650
Wire Wire Line
	2750 2250 2850 2250
Wire Wire Line
	2850 2350 2750 2350
Wire Wire Line
	2750 1350 2850 1350
Wire Wire Line
	2850 1550 2750 1550
Wire Wire Line
	2850 1650 2750 1650
Wire Wire Line
	2750 1750 2850 1750
Wire Wire Line
	2750 1850 2850 1850
Wire Wire Line
	2750 2850 2850 2850
Wire Wire Line
	2750 3150 2850 3150
Wire Wire Line
	1650 850  1650 800 
Wire Wire Line
	1650 800  1750 800 
Wire Wire Line
	1750 800  1750 850 
Wire Wire Line
	1750 800  1850 800 
Connection ~ 1750 800 
Connection ~ 1850 800 
Wire Wire Line
	1850 800  1850 850 
Wire Wire Line
	1850 800  1950 800 
Wire Wire Line
	1950 800  1950 850 
Wire Wire Line
	1950 800  2050 800 
Wire Wire Line
	2050 800  2050 850 
Connection ~ 1950 800 
Wire Wire Line
	2050 800  2150 800 
Wire Wire Line
	2150 800  2150 850 
Connection ~ 2050 800 
Wire Wire Line
	1850 6400 1950 6400
Wire Wire Line
	2050 6400 2050 6350
Connection ~ 1850 6400
Wire Wire Line
	1850 6400 1850 6450
Wire Wire Line
	1950 6350 1950 6400
Connection ~ 1950 6400
Wire Wire Line
	1950 6400 2050 6400
Wire Wire Line
	1850 6400 1750 6400
Wire Wire Line
	1650 6400 1650 6350
Wire Wire Line
	1750 6350 1750 6400
Connection ~ 1750 6400
Wire Wire Line
	1750 6400 1650 6400
Wire Wire Line
	2750 6050 2850 6050
Wire Wire Line
	2750 5950 2850 5950
Text GLabel 850  1550 0    50   Input ~ 0
CAP1
Text GLabel 850  1650 0    50   Input ~ 0
CAP2
Wire Wire Line
	850  1650 950  1650
Wire Wire Line
	850  1550 950  1550
Text GLabel 5650 1300 1    50   Input ~ 0
CAP1
Text GLabel 6000 1300 1    50   Input ~ 0
CAP2
Wire Wire Line
	6000 1300 6000 1400
Wire Wire Line
	5650 1300 5650 1400
Wire Wire Line
	3800 7000 3800 7100
Wire Wire Line
	3800 6300 3800 6400
Wire Wire Line
	4000 6700 4200 6700
Wire Wire Line
	4200 6700 4200 6300
Wire Wire Line
	4200 6700 4200 7100
Connection ~ 4200 6700
Wire Wire Line
	4200 7400 4200 7500
Text HLabel 2850 2950 2    50   Input ~ 0
Line-IN
Wire Wire Line
	2850 1450 2750 1450
Text HLabel 10450 5200 2    50   Output ~ 0
CLK0
Text HLabel 10450 5400 2    50   Output ~ 0
CLK1
Text HLabel 10450 5600 2    50   Output ~ 0
CLK2
Text GLabel 2850 3850 2    50   Input ~ 0
SCL
Text GLabel 2850 3950 2    50   Input ~ 0
SDA
Text HLabel 2850 4050 2    50   Output ~ 0
SS
Text HLabel 2850 4150 2    50   Output ~ 0
SCK
Text HLabel 2850 4250 2    50   Output ~ 0
MOSI
Text HLabel 2850 4350 2    50   Input ~ 0
MISO
Wire Wire Line
	2850 3850 2750 3850
Wire Wire Line
	2850 3950 2750 3950
Wire Wire Line
	2850 4050 2750 4050
Wire Wire Line
	2750 4150 2850 4150
Wire Wire Line
	2850 4250 2750 4250
Wire Wire Line
	2850 4350 2750 4350
Text GLabel 2850 3150 2    50   Output ~ 0
TDO
Text GLabel 2850 2650 2    50   Input ~ 0
TDI
Text GLabel 2850 2550 2    50   Input ~ 0
TCK
Text GLabel 2850 2450 2    50   BiDi ~ 0
TMS
Wire Wire Line
	2850 2450 2750 2450
Wire Wire Line
	2850 2550 2750 2550
Wire Wire Line
	2850 2650 2750 2650
Text GLabel 2850 5650 2    50   Input ~ 0
UART_RX
Text GLabel 2850 5550 2    50   Output ~ 0
UART_TX
Wire Wire Line
	2750 5550 2850 5550
Wire Wire Line
	2750 5650 2850 5650
$Comp
L power:+3.3V #PWR?
U 1 1 604EA12B
P 8200 850
F 0 "#PWR?" H 8200 700 50  0001 C CNN
F 1 "+3.3V" H 8215 1023 50  0000 C CNN
F 2 "" H 8200 850 50  0001 C CNN
F 3 "" H 8200 850 50  0001 C CNN
	1    8200 850 
	1    0    0    -1  
$EndComp
$Comp
L power:GND #PWR?
U 1 1 604E9CB4
P 8300 2150
F 0 "#PWR?" H 8300 1900 50  0001 C CNN
F 1 "GND" H 8305 1977 50  0000 C CNN
F 2 "" H 8300 2150 50  0001 C CNN
F 3 "" H 8300 2150 50  0001 C CNN
	1    8300 2150
	1    0    0    -1  
$EndComp
$Comp
L power:GND #PWR?
U 1 1 604E9815
P 8200 2150
F 0 "#PWR?" H 8200 1900 50  0001 C CNN
F 1 "GND" H 8205 1977 50  0000 C CNN
F 2 "" H 8200 2150 50  0001 C CNN
F 3 "" H 8200 2150 50  0001 C CNN
	1    8200 2150
	1    0    0    -1  
$EndComp
Wire Wire Line
	7600 1700 7700 1700
Wire Wire Line
	7600 1600 7700 1600
Wire Wire Line
	7600 1500 7700 1500
Wire Wire Line
	7600 1400 7700 1400
Wire Wire Line
	7600 1200 7700 1200
Text GLabel 7600 1700 0    50   Output ~ 0
TDI
Text GLabel 7600 1600 0    50   Input ~ 0
TDO
Text GLabel 7600 1500 0    50   BiDi ~ 0
TMS
Text GLabel 7600 1400 0    50   Output ~ 0
TCK
Text GLabel 7600 1200 0    50   Output ~ 0
NRST
$Comp
L Connector:Conn_ARM_JTAG_SWD_10 J?
U 1 1 6049C684
P 8200 1500
F 0 "J?" H 7756 1546 50  0000 R CNN
F 1 "JTAG" H 7756 1455 50  0000 R CNN
F 2 "" H 8200 1500 50  0001 C CNN
F 3 "http://infocenter.arm.com/help/topic/com.arm.doc.ddi0314h/DDI0314H_coresight_components_trm.pdf" V 7850 250 50  0001 C CNN
	1    8200 1500
	-1   0    0    -1  
$EndComp
Text GLabel 9350 1550 0    50   Input ~ 0
USB-D-
Text GLabel 9350 1450 0    50   Input ~ 0
USB-D+
Wire Wire Line
	8200 2100 8200 2150
Wire Wire Line
	8300 2100 8300 2150
Wire Wire Line
	8200 850  8200 900 
Wire Wire Line
	2850 4850 2750 4850
Text GLabel 2850 4550 2    50   Input ~ 0
VSupply
Wire Wire Line
	2850 4550 2750 4550
Text GLabel 2850 4650 2    50   Input ~ 0
FWD3V
Text GLabel 2850 4750 2    50   Input ~ 0
REV3V
Wire Wire Line
	2850 4650 2750 4650
Wire Wire Line
	2850 4750 2750 4750
$Comp
L Device:R R?
U 1 1 606EA958
P 6500 1050
F 0 "R?" H 6570 1096 50  0000 L CNN
F 1 "100k" H 6570 1005 50  0000 L CNN
F 2 "" V 6430 1050 50  0001 C CNN
F 3 "~" H 6500 1050 50  0001 C CNN
	1    6500 1050
	1    0    0    -1  
$EndComp
$Comp
L Device:R R?
U 1 1 606EBF9A
P 6500 1550
F 0 "R?" H 6430 1504 50  0000 R CNN
F 1 "10k" H 6430 1595 50  0000 R CNN
F 2 "" V 6430 1550 50  0001 C CNN
F 3 "~" H 6500 1550 50  0001 C CNN
	1    6500 1550
	-1   0    0    1   
$EndComp
$Comp
L power:GND #PWR?
U 1 1 606ECD64
P 6500 1800
F 0 "#PWR?" H 6500 1550 50  0001 C CNN
F 1 "GND" H 6505 1627 50  0000 C CNN
F 2 "" H 6500 1800 50  0001 C CNN
F 3 "" H 6500 1800 50  0001 C CNN
	1    6500 1800
	1    0    0    -1  
$EndComp
$Comp
L Device:C C?
U 1 1 606ED4BA
P 6800 1550
F 0 "C?" H 6685 1504 50  0000 R CNN
F 1 "100n" H 6685 1595 50  0000 R CNN
F 2 "" H 6838 1400 50  0001 C CNN
F 3 "~" H 6800 1550 50  0001 C CNN
	1    6800 1550
	-1   0    0    1   
$EndComp
$Comp
L power:GND #PWR?
U 1 1 606EE8EE
P 6800 1800
F 0 "#PWR?" H 6800 1550 50  0001 C CNN
F 1 "GND" H 6805 1627 50  0000 C CNN
F 2 "" H 6800 1800 50  0001 C CNN
F 3 "" H 6800 1800 50  0001 C CNN
	1    6800 1800
	1    0    0    -1  
$EndComp
Text GLabel 6800 1200 1    50   Input ~ 0
VSupply
$Comp
L power:+12V #PWR?
U 1 1 606F0F5D
P 6500 800
F 0 "#PWR?" H 6500 650 50  0001 C CNN
F 1 "+12V" H 6515 973 50  0000 C CNN
F 2 "" H 6500 800 50  0001 C CNN
F 3 "" H 6500 800 50  0001 C CNN
	1    6500 800 
	1    0    0    -1  
$EndComp
Wire Wire Line
	6500 800  6500 900 
Wire Wire Line
	6500 1200 6500 1300
Wire Wire Line
	6500 1700 6500 1800
Wire Wire Line
	6800 1700 6800 1800
Wire Wire Line
	6500 1300 6800 1300
Wire Wire Line
	6800 1300 6800 1400
Connection ~ 6500 1300
Wire Wire Line
	6500 1300 6500 1400
Wire Wire Line
	6800 1200 6800 1300
Connection ~ 6800 1300
Text HLabel 10850 3200 2    50   Input ~ 0
FWD
Text HLabel 10850 3500 2    50   Input ~ 0
REV
$Comp
L Device:R R?
U 1 1 6072A207
P 10600 3200
F 0 "R?" V 10807 3200 50  0000 C CNN
F 1 "10k" V 10716 3200 50  0000 C CNN
F 2 "" V 10530 3200 50  0001 C CNN
F 3 "~" H 10600 3200 50  0001 C CNN
	1    10600 3200
	0    -1   -1   0   
$EndComp
$Comp
L Device:R R?
U 1 1 6072AC16
P 10600 3500
F 0 "R?" V 10807 3500 50  0000 C CNN
F 1 "10k" V 10716 3500 50  0000 C CNN
F 2 "" V 10530 3500 50  0001 C CNN
F 3 "~" H 10600 3500 50  0001 C CNN
	1    10600 3500
	0    -1   -1   0   
$EndComp
$Comp
L Device:R R?
U 1 1 607370E1
P 10350 3750
F 0 "R?" H 10280 3704 50  0000 R CNN
F 1 "4.7k" H 10280 3795 50  0000 R CNN
F 2 "" V 10280 3750 50  0001 C CNN
F 3 "~" H 10350 3750 50  0001 C CNN
	1    10350 3750
	-1   0    0    1   
$EndComp
$Comp
L Device:R R?
U 1 1 60737B6C
P 10050 3750
F 0 "R?" H 9980 3704 50  0000 R CNN
F 1 "4.7k" H 9980 3795 50  0000 R CNN
F 2 "" V 9980 3750 50  0001 C CNN
F 3 "~" H 10050 3750 50  0001 C CNN
	1    10050 3750
	-1   0    0    1   
$EndComp
Wire Wire Line
	10450 3200 10050 3200
Wire Wire Line
	9450 3200 9450 3600
Wire Wire Line
	10050 3600 10050 3200
Connection ~ 10050 3200
Wire Wire Line
	10050 3200 9450 3200
Wire Wire Line
	10450 3500 10350 3500
Wire Wire Line
	9750 3500 9750 3600
Wire Wire Line
	10350 3600 10350 3500
Connection ~ 10350 3500
Wire Wire Line
	10350 3500 9750 3500
$Comp
L Device:C C?
U 1 1 6077926E
P 8700 3750
F 0 "C?" H 8585 3704 50  0000 R CNN
F 1 "100n" H 8585 3795 50  0000 R CNN
F 2 "" H 8738 3600 50  0001 C CNN
F 3 "~" H 8700 3750 50  0001 C CNN
	1    8700 3750
	-1   0    0    1   
$EndComp
$Comp
L Device:C C?
U 1 1 60779A51
P 8300 3750
F 0 "C?" H 8185 3704 50  0000 R CNN
F 1 "100n" H 8185 3795 50  0000 R CNN
F 2 "" H 8338 3600 50  0001 C CNN
F 3 "~" H 8300 3750 50  0001 C CNN
	1    8300 3750
	-1   0    0    1   
$EndComp
Wire Wire Line
	9750 3500 8700 3500
Wire Wire Line
	8700 3500 8700 3600
Connection ~ 9750 3500
Wire Wire Line
	9450 3200 8300 3200
Wire Wire Line
	8300 3200 8300 3600
Connection ~ 9450 3200
$Comp
L power:GND #PWR?
U 1 1 6078D8E1
P 10350 4000
F 0 "#PWR?" H 10350 3750 50  0001 C CNN
F 1 "GND" H 10355 3827 50  0000 C CNN
F 2 "" H 10350 4000 50  0001 C CNN
F 3 "" H 10350 4000 50  0001 C CNN
	1    10350 4000
	1    0    0    -1  
$EndComp
$Comp
L power:GND #PWR?
U 1 1 6078E26A
P 10050 4000
F 0 "#PWR?" H 10050 3750 50  0001 C CNN
F 1 "GND" H 10055 3827 50  0000 C CNN
F 2 "" H 10050 4000 50  0001 C CNN
F 3 "" H 10050 4000 50  0001 C CNN
	1    10050 4000
	1    0    0    -1  
$EndComp
$Comp
L power:GND #PWR?
U 1 1 6078EA07
P 9750 4000
F 0 "#PWR?" H 9750 3750 50  0001 C CNN
F 1 "GND" H 9755 3827 50  0000 C CNN
F 2 "" H 9750 4000 50  0001 C CNN
F 3 "" H 9750 4000 50  0001 C CNN
	1    9750 4000
	1    0    0    -1  
$EndComp
$Comp
L power:GND #PWR?
U 1 1 6078F1BF
P 9450 4000
F 0 "#PWR?" H 9450 3750 50  0001 C CNN
F 1 "GND" H 9455 3827 50  0000 C CNN
F 2 "" H 9450 4000 50  0001 C CNN
F 3 "" H 9450 4000 50  0001 C CNN
	1    9450 4000
	1    0    0    -1  
$EndComp
$Comp
L power:GND #PWR?
U 1 1 6078F886
P 8700 4000
F 0 "#PWR?" H 8700 3750 50  0001 C CNN
F 1 "GND" H 8705 3827 50  0000 C CNN
F 2 "" H 8700 4000 50  0001 C CNN
F 3 "" H 8700 4000 50  0001 C CNN
	1    8700 4000
	1    0    0    -1  
$EndComp
$Comp
L power:GND #PWR?
U 1 1 6079003D
P 8300 4000
F 0 "#PWR?" H 8300 3750 50  0001 C CNN
F 1 "GND" H 8305 3827 50  0000 C CNN
F 2 "" H 8300 4000 50  0001 C CNN
F 3 "" H 8300 4000 50  0001 C CNN
	1    8300 4000
	1    0    0    -1  
$EndComp
Wire Wire Line
	10350 3900 10350 4000
Wire Wire Line
	10050 3900 10050 4000
Wire Wire Line
	9750 3900 9750 4000
Wire Wire Line
	9450 3900 9450 4000
Wire Wire Line
	8700 3900 8700 4000
Wire Wire Line
	8300 3900 8300 4000
Text GLabel 7750 3200 0    50   Output ~ 0
FWD3V
Text GLabel 7750 3500 0    50   Output ~ 0
REV3V
Wire Wire Line
	7750 3500 8700 3500
Connection ~ 8700 3500
Wire Wire Line
	7750 3200 8300 3200
Connection ~ 8300 3200
Wire Wire Line
	10750 3200 10850 3200
Wire Wire Line
	10750 3500 10850 3500
$Comp
L Transistor_FET:Si2371EDS Q?
U 1 1 6082B0DD
P 5950 5350
F 0 "Q?" H 6154 5304 50  0000 L CNN
F 1 "Si2301" H 6154 5395 50  0000 L CNN
F 2 "Package_TO_SOT_SMD:SOT-23" H 6150 5275 50  0001 L CIN
F 3 "http://www.vishay.com/docs/63924/si2371eds.pdf" H 5950 5350 50  0001 L CNN
	1    5950 5350
	1    0    0    1   
$EndComp
$Comp
L Device:R R?
U 1 1 6082EB15
P 5500 5350
F 0 "R?" V 5707 5350 50  0000 C CNN
F 1 "510" V 5616 5350 50  0000 C CNN
F 2 "" V 5430 5350 50  0001 C CNN
F 3 "~" H 5500 5350 50  0001 C CNN
	1    5500 5350
	0    -1   -1   0   
$EndComp
$Comp
L Device:R R?
U 1 1 608646A2
P 6300 5650
F 0 "R?" V 6507 5650 50  0000 C CNN
F 1 "220" V 6416 5650 50  0000 C CNN
F 2 "" V 6230 5650 50  0001 C CNN
F 3 "~" H 6300 5650 50  0001 C CNN
	1    6300 5650
	0    -1   -1   0   
$EndComp
$Comp
L Device:C C?
U 1 1 60864DFC
P 6550 5900
F 0 "C?" H 6435 5854 50  0000 R CNN
F 1 "220n" H 6435 5945 50  0000 R CNN
F 2 "" H 6588 5750 50  0001 C CNN
F 3 "~" H 6550 5900 50  0001 C CNN
	1    6550 5900
	-1   0    0    1   
$EndComp
$Comp
L power:+3.3V #PWR?
U 1 1 60867F4F
P 6050 5050
F 0 "#PWR?" H 6050 4900 50  0001 C CNN
F 1 "+3.3V" H 6065 5223 50  0000 C CNN
F 2 "" H 6050 5050 50  0001 C CNN
F 3 "" H 6050 5050 50  0001 C CNN
	1    6050 5050
	1    0    0    -1  
$EndComp
Wire Wire Line
	5650 5350 5750 5350
Wire Wire Line
	6050 5050 6050 5150
Wire Wire Line
	6150 5650 6050 5650
Wire Wire Line
	6050 5650 6050 5550
$Comp
L power:GND #PWR?
U 1 1 608A2895
P 6550 6150
F 0 "#PWR?" H 6550 5900 50  0001 C CNN
F 1 "GND" H 6555 5977 50  0000 C CNN
F 2 "" H 6550 6150 50  0001 C CNN
F 3 "" H 6550 6150 50  0001 C CNN
	1    6550 6150
	1    0    0    -1  
$EndComp
Wire Wire Line
	6450 5650 6550 5650
Wire Wire Line
	6550 5650 6550 5750
Wire Wire Line
	6550 6050 6550 6150
Text GLabel 5250 5350 0    50   Input ~ 0
D_BL
Text HLabel 6650 5650 2    50   Output ~ 0
DISP-BL
Wire Wire Line
	6650 5650 6550 5650
Connection ~ 6550 5650
Wire Wire Line
	5250 5350 5350 5350
$Comp
L Diode:ZMMxx D?
U 1 1 60949FED
P 9750 3750
F 0 "D?" H 9700 3650 50  0000 L CNN
F 1 "ZMM3V3" H 9600 3850 50  0000 L CNN
F 2 "Diode_SMD:D_MiniMELF" H 9750 3575 50  0001 C CNN
F 3 "https://diotec.com/tl_files/diotec/files/pdf/datasheets/zmm1.pdf" H 9750 3750 50  0001 C CNN
	1    9750 3750
	0    1    1    0   
$EndComp
$Comp
L Diode:ZMMxx D?
U 1 1 609752E8
P 9450 3750
F 0 "D?" H 9400 3650 50  0000 L CNN
F 1 "ZMM3V3" H 9300 3850 50  0000 L CNN
F 2 "Diode_SMD:D_MiniMELF" H 9450 3575 50  0001 C CNN
F 3 "https://diotec.com/tl_files/diotec/files/pdf/datasheets/zmm1.pdf" H 9450 3750 50  0001 C CNN
	1    9450 3750
	0    1    1    0   
$EndComp
$Comp
L Connector_Generic:Conn_01x07 J?
U 1 1 609A78AF
P 8000 5550
F 0 "J?" H 8080 5592 50  0000 L CNN
F 1 "SI5351" H 8080 5501 50  0000 L CNN
F 2 "" H 8000 5550 50  0001 C CNN
F 3 "~" H 8000 5550 50  0001 C CNN
	1    8000 5550
	1    0    0    -1  
$EndComp
Text HLabel 7600 5250 0    50   Output ~ 0
CLK0
Text HLabel 7600 5350 0    50   Output ~ 0
CLK1
Text HLabel 7600 5450 0    50   Output ~ 0
CLK2
Text GLabel 7600 5550 0    50   Input ~ 0
SCL
Text GLabel 7600 5650 0    50   Input ~ 0
SDA
$Comp
L power:GND #PWR?
U 1 1 609AD4B4
P 7600 5950
F 0 "#PWR?" H 7600 5700 50  0001 C CNN
F 1 "GND" H 7605 5777 50  0000 C CNN
F 2 "" H 7600 5950 50  0001 C CNN
F 3 "" H 7600 5950 50  0001 C CNN
	1    7600 5950
	1    0    0    -1  
$EndComp
Wire Wire Line
	7800 5750 7600 5750
Wire Wire Line
	7600 5750 7600 5950
$Comp
L power:+3.3V #PWR?
U 1 1 60A13204
P 7700 5150
F 0 "#PWR?" H 7700 5000 50  0001 C CNN
F 1 "+3.3V" H 7715 5323 50  0000 C CNN
F 2 "" H 7700 5150 50  0001 C CNN
F 3 "" H 7700 5150 50  0001 C CNN
	1    7700 5150
	1    0    0    -1  
$EndComp
Wire Wire Line
	7800 5850 7700 5850
Wire Wire Line
	7700 5850 7700 5150
Wire Wire Line
	7600 5250 7800 5250
Wire Wire Line
	7600 5350 7800 5350
Wire Wire Line
	7600 5450 7800 5450
Wire Wire Line
	7600 5550 7800 5550
Wire Wire Line
	7600 5650 7800 5650
Text HLabel 850  5350 0    50   Output ~ 0
D_RST
Text HLabel 850  5450 0    50   Output ~ 0
D_CE
Text HLabel 850  5550 0    50   Output ~ 0
D_DC
Text GLabel 850  5650 0    50   Output ~ 0
D_BL
Wire Wire Line
	850  5350 950  5350
Wire Wire Line
	850  5450 950  5450
Wire Wire Line
	850  5550 950  5550
Wire Wire Line
	850  5650 950  5650
Wire Wire Line
	2850 5150 2750 5150
Text HLabel 2850 5150 2    50   Output ~ 0
PWM
Text HLabel 850  6050 0    50   Output ~ 0
TX_EN
Text HLabel 850  5950 0    50   Output ~ 0
RX_MUTE
Wire Wire Line
	850  5950 950  5950
Wire Wire Line
	850  6050 950  6050
Text HLabel 850  2850 0    50   Input ~ 0
KEY_DIT
Text HLabel 850  2950 0    50   Input ~ 0
KEY_DAH
Wire Wire Line
	850  2850 950  2850
Wire Wire Line
	850  2950 950  2950
Text HLabel 2850 5350 2    50   Input ~ 0
PTT
Wire Wire Line
	2850 5350 2750 5350
$Comp
L Jumper:SolderJumper_2_Open JP?
U 1 1 60B3A981
P 4750 7250
F 0 "JP?" V 4704 7318 50  0000 L CNN
F 1 "RST" V 4795 7318 50  0000 L CNN
F 2 "" H 4750 7250 50  0001 C CNN
F 3 "~" H 4750 7250 50  0001 C CNN
	1    4750 7250
	0    1    1    0   
$EndComp
Wire Wire Line
	4750 7000 4750 7100
Wire Wire Line
	4750 7400 4750 7500
$Comp
L Device:Jumper_NO_Small JP?
U 1 1 60B5D409
P 5950 3000
F 0 "JP?" V 5996 2952 50  0000 R CNN
F 1 "BOOT" V 5905 2952 50  0000 R CNN
F 2 "" H 5950 3000 50  0001 C CNN
F 3 "~" H 5950 3000 50  0001 C CNN
	1    5950 3000
	0    -1   -1   0   
$EndComp
$Comp
L Device:R R?
U 1 1 60B5F461
P 5950 3500
F 0 "R?" H 6020 3546 50  0000 L CNN
F 1 "10k" H 6020 3455 50  0000 L CNN
F 2 "" V 5880 3500 50  0001 C CNN
F 3 "~" H 5950 3500 50  0001 C CNN
	1    5950 3500
	1    0    0    -1  
$EndComp
$Comp
L power:+3.3V #PWR?
U 1 1 60B5FF69
P 5950 2650
F 0 "#PWR?" H 5950 2500 50  0001 C CNN
F 1 "+3.3V" H 5965 2823 50  0000 C CNN
F 2 "" H 5950 2650 50  0001 C CNN
F 3 "" H 5950 2650 50  0001 C CNN
	1    5950 2650
	1    0    0    -1  
$EndComp
Text GLabel 5950 3900 3    50   Input ~ 0
Boot
$Comp
L Device:R R?
U 1 1 60BAC4A8
P 7100 2950
F 0 "R?" H 7170 2996 50  0000 L CNN
F 1 "510" H 7170 2905 50  0000 L CNN
F 2 "" V 7030 2950 50  0001 C CNN
F 3 "~" H 7100 2950 50  0001 C CNN
	1    7100 2950
	1    0    0    -1  
$EndComp
$Comp
L Device:LED D?
U 1 1 60BAF21B
P 7100 3750
F 0 "D?" H 7139 3633 50  0000 R CNN
F 1 "19-217/GHC-YR1S2/3T" H 7750 3850 50  0000 R CNN
F 2 "" H 7100 3750 50  0001 C CNN
F 3 "~" H 7100 3750 50  0001 C CNN
	1    7100 3750
	0    -1   -1   0   
$EndComp
$Comp
L power:GND #PWR?
U 1 1 60BAF9D0
P 7100 4000
F 0 "#PWR?" H 7100 3750 50  0001 C CNN
F 1 "GND" H 7105 3827 50  0000 C CNN
F 2 "" H 7100 4000 50  0001 C CNN
F 3 "" H 7100 4000 50  0001 C CNN
	1    7100 4000
	1    0    0    -1  
$EndComp
$Comp
L Jumper:SolderJumper_2_Bridged JP?
U 1 1 60BB30A6
P 7100 3350
F 0 "JP?" V 7054 3418 50  0000 L CNN
F 1 "LED3" V 7145 3418 50  0000 L CNN
F 2 "" H 7100 3350 50  0001 C CNN
F 3 "~" H 7100 3350 50  0001 C CNN
	1    7100 3350
	0    1    1    0   
$EndComp
$Comp
L Device:R R?
U 1 1 60BBAEF7
P 6700 2950
F 0 "R?" H 6770 2996 50  0000 L CNN
F 1 "510" H 6770 2905 50  0000 L CNN
F 2 "" V 6630 2950 50  0001 C CNN
F 3 "~" H 6700 2950 50  0001 C CNN
	1    6700 2950
	1    0    0    -1  
$EndComp
$Comp
L Device:LED D?
U 1 1 60BBAF01
P 6700 3750
F 0 "D?" H 6739 3633 50  0000 R CNN
F 1 "19-217/GHC-YR1S2/3T" H 7350 3850 50  0000 R CNN
F 2 "" H 6700 3750 50  0001 C CNN
F 3 "~" H 6700 3750 50  0001 C CNN
	1    6700 3750
	0    -1   -1   0   
$EndComp
$Comp
L power:GND #PWR?
U 1 1 60BBAF0B
P 6700 4000
F 0 "#PWR?" H 6700 3750 50  0001 C CNN
F 1 "GND" H 6705 3827 50  0000 C CNN
F 2 "" H 6700 4000 50  0001 C CNN
F 3 "" H 6700 4000 50  0001 C CNN
	1    6700 4000
	1    0    0    -1  
$EndComp
$Comp
L Jumper:SolderJumper_2_Bridged JP?
U 1 1 60BBAF15
P 6700 3350
F 0 "JP?" V 6654 3418 50  0000 L CNN
F 1 "LED2" V 6745 3418 50  0000 L CNN
F 2 "" H 6700 3350 50  0001 C CNN
F 3 "~" H 6700 3350 50  0001 C CNN
	1    6700 3350
	0    1    1    0   
$EndComp
$Comp
L Device:R R?
U 1 1 60BD3955
P 6300 2950
F 0 "R?" H 6370 2996 50  0000 L CNN
F 1 "510" H 6370 2905 50  0000 L CNN
F 2 "" V 6230 2950 50  0001 C CNN
F 3 "~" H 6300 2950 50  0001 C CNN
	1    6300 2950
	1    0    0    -1  
$EndComp
$Comp
L Device:LED D?
U 1 1 60BD395F
P 6300 3750
F 0 "D?" H 6350 3650 50  0000 R CNN
F 1 "19-217/GHC-YR1S2/3T" H 6950 3850 50  0000 R CNN
F 2 "" H 6300 3750 50  0001 C CNN
F 3 "~" H 6300 3750 50  0001 C CNN
	1    6300 3750
	0    -1   -1   0   
$EndComp
$Comp
L power:GND #PWR?
U 1 1 60BD3969
P 6300 4000
F 0 "#PWR?" H 6300 3750 50  0001 C CNN
F 1 "GND" H 6305 3827 50  0000 C CNN
F 2 "" H 6300 4000 50  0001 C CNN
F 3 "" H 6300 4000 50  0001 C CNN
	1    6300 4000
	1    0    0    -1  
$EndComp
$Comp
L Jumper:SolderJumper_2_Bridged JP?
U 1 1 60BD3973
P 6300 3350
F 0 "JP?" V 6254 3418 50  0000 L CNN
F 1 "LED1" V 6345 3418 50  0000 L CNN
F 2 "" H 6300 3350 50  0001 C CNN
F 3 "~" H 6300 3350 50  0001 C CNN
	1    6300 3350
	0    1    1    0   
$EndComp
Wire Wire Line
	6300 3900 6300 4000
Wire Wire Line
	6700 3900 6700 4000
Wire Wire Line
	7100 3900 7100 4000
Wire Wire Line
	7100 3100 7100 3200
Wire Wire Line
	7100 3500 7100 3600
Wire Wire Line
	6700 3500 6700 3600
Wire Wire Line
	6700 3100 6700 3200
Wire Wire Line
	6300 3100 6300 3200
Wire Wire Line
	6300 3500 6300 3600
Text GLabel 6300 2700 1    50   Input ~ 0
LED1
Text GLabel 6700 2700 1    50   Input ~ 0
LED2
Text GLabel 7100 2700 1    50   Input ~ 0
LED3
Wire Wire Line
	6300 2700 6300 2800
Wire Wire Line
	6700 2700 6700 2800
Wire Wire Line
	7100 2700 7100 2800
Text GLabel 850  4550 0    50   Input ~ 0
LED1
Text GLabel 850  4650 0    50   Input ~ 0
LED2
Text GLabel 850  4750 0    50   Input ~ 0
LED3
Wire Wire Line
	850  4550 950  4550
Wire Wire Line
	850  4650 950  4650
Wire Wire Line
	850  4750 950  4750
Wire Wire Line
	2850 2950 2750 2950
Text HLabel 2850 4950 2    50   Input ~ 0
I+120
Text HLabel 2850 5050 2    50   Input ~ 0
Q+120
Wire Wire Line
	2850 4950 2750 4950
Wire Wire Line
	2850 5050 2750 5050
Text HLabel 10850 2900 2    50   Input ~ 0
PWM-FB
Wire Wire Line
	2850 1150 2750 1150
Wire Wire Line
	2850 1250 2750 1250
Text HLabel 850  3050 0    50   Input ~ 0
EXT-PTT
Text HLabel 850  3150 0    50   Output ~ 0
TX-OC
Wire Wire Line
	850  3050 950  3050
Wire Wire Line
	850  3150 950  3150
$Comp
L Device:R R?
U 1 1 60E303EC
P 10600 2900
F 0 "R?" V 10807 2900 50  0000 C CNN
F 1 "220" V 10716 2900 50  0000 C CNN
F 2 "" V 10530 2900 50  0001 C CNN
F 3 "~" H 10600 2900 50  0001 C CNN
	1    10600 2900
	0    -1   -1   0   
$EndComp
$Comp
L Diode:ZMMxx D?
U 1 1 60E32310
P 9150 3750
F 0 "D?" H 9100 3650 50  0000 L CNN
F 1 "ZMM3V3" H 9000 3850 50  0000 L CNN
F 2 "Diode_SMD:D_MiniMELF" H 9150 3575 50  0001 C CNN
F 3 "https://diotec.com/tl_files/diotec/files/pdf/datasheets/zmm1.pdf" H 9150 3750 50  0001 C CNN
	1    9150 3750
	0    1    1    0   
$EndComp
$Comp
L power:GND #PWR?
U 1 1 60ED8D9A
P 9150 4000
F 0 "#PWR?" H 9150 3750 50  0001 C CNN
F 1 "GND" H 9155 3827 50  0000 C CNN
F 2 "" H 9150 4000 50  0001 C CNN
F 3 "" H 9150 4000 50  0001 C CNN
	1    9150 4000
	1    0    0    -1  
$EndComp
Wire Wire Line
	10450 2900 9150 2900
Wire Wire Line
	9150 2900 9150 3600
$Comp
L Device:C C?
U 1 1 60EECB87
P 7900 3750
F 0 "C?" H 7785 3704 50  0000 R CNN
F 1 "100n" H 7785 3795 50  0000 R CNN
F 2 "" H 7938 3600 50  0001 C CNN
F 3 "~" H 7900 3750 50  0001 C CNN
	1    7900 3750
	-1   0    0    1   
$EndComp
$Comp
L power:GND #PWR?
U 1 1 60EED4AA
P 7900 4000
F 0 "#PWR?" H 7900 3750 50  0001 C CNN
F 1 "GND" H 7905 3827 50  0000 C CNN
F 2 "" H 7900 4000 50  0001 C CNN
F 3 "" H 7900 4000 50  0001 C CNN
	1    7900 4000
	1    0    0    -1  
$EndComp
Wire Wire Line
	9150 2900 7900 2900
Wire Wire Line
	7900 2900 7900 3600
Connection ~ 9150 2900
Wire Wire Line
	7900 3900 7900 4000
Text GLabel 2850 4850 2    50   Input ~ 0
PWM_FB
Wire Wire Line
	10850 2900 10750 2900
Text GLabel 7750 2900 0    50   Output ~ 0
PWM_FB
Wire Wire Line
	7750 2900 7900 2900
Connection ~ 7900 2900
Wire Wire Line
	5950 2650 5950 2900
Wire Wire Line
	5950 3100 5950 3350
Wire Wire Line
	5950 3650 5950 3900
Wire Wire Line
	9150 3900 9150 4000
$EndSCHEMATC
