(kicad_sch (version 20211123) (generator eeschema)

  (uuid 46f7027c-4e00-4d94-b6b4-dbb54bd633ca)

  (paper "A4")

  (lib_symbols
    (symbol "74xx:74HCT00" (pin_names (offset 1.016)) (in_bom yes) (on_board yes)
      (property "Reference" "U" (id 0) (at 0 1.27 0)
        (effects (font (size 1.27 1.27)))
      )
      (property "Value" "74HCT00" (id 1) (at 0 -1.27 0)
        (effects (font (size 1.27 1.27)))
      )
      (property "Footprint" "" (id 2) (at 0 0 0)
        (effects (font (size 1.27 1.27)) hide)
      )
      (property "Datasheet" "http://www.ti.com/lit/gpn/sn74hct00" (id 3) (at 0 0 0)
        (effects (font (size 1.27 1.27)) hide)
      )
      (property "ki_locked" "" (id 4) (at 0 0 0)
        (effects (font (size 1.27 1.27)))
      )
      (property "ki_keywords" "HCTMOS nand 2-input" (id 5) (at 0 0 0)
        (effects (font (size 1.27 1.27)) hide)
      )
      (property "ki_description" "quad 2-input NAND gate" (id 6) (at 0 0 0)
        (effects (font (size 1.27 1.27)) hide)
      )
      (property "ki_fp_filters" "DIP*W7.62mm* SO14*" (id 7) (at 0 0 0)
        (effects (font (size 1.27 1.27)) hide)
      )
      (symbol "74HCT00_1_1"
        (arc (start 0 -3.81) (mid 3.81 0) (end 0 3.81)
          (stroke (width 0.254) (type default) (color 0 0 0 0))
          (fill (type background))
        )
        (polyline
          (pts
            (xy 0 3.81)
            (xy -3.81 3.81)
            (xy -3.81 -3.81)
            (xy 0 -3.81)
          )
          (stroke (width 0.254) (type default) (color 0 0 0 0))
          (fill (type background))
        )
        (pin input line (at -7.62 2.54 0) (length 3.81)
          (name "~" (effects (font (size 1.27 1.27))))
          (number "1" (effects (font (size 1.27 1.27))))
        )
        (pin input line (at -7.62 -2.54 0) (length 3.81)
          (name "~" (effects (font (size 1.27 1.27))))
          (number "2" (effects (font (size 1.27 1.27))))
        )
        (pin output inverted (at 7.62 0 180) (length 3.81)
          (name "~" (effects (font (size 1.27 1.27))))
          (number "3" (effects (font (size 1.27 1.27))))
        )
      )
      (symbol "74HCT00_1_2"
        (arc (start -3.81 -3.81) (mid -2.589 0) (end -3.81 3.81)
          (stroke (width 0.254) (type default) (color 0 0 0 0))
          (fill (type none))
        )
        (arc (start -0.6096 -3.81) (mid 2.1855 -2.584) (end 3.81 0)
          (stroke (width 0.254) (type default) (color 0 0 0 0))
          (fill (type background))
        )
        (polyline
          (pts
            (xy -3.81 -3.81)
            (xy -0.635 -3.81)
          )
          (stroke (width 0.254) (type default) (color 0 0 0 0))
          (fill (type background))
        )
        (polyline
          (pts
            (xy -3.81 3.81)
            (xy -0.635 3.81)
          )
          (stroke (width 0.254) (type default) (color 0 0 0 0))
          (fill (type background))
        )
        (polyline
          (pts
            (xy -0.635 3.81)
            (xy -3.81 3.81)
            (xy -3.81 3.81)
            (xy -3.556 3.4036)
            (xy -3.0226 2.2606)
            (xy -2.6924 1.0414)
            (xy -2.6162 -0.254)
            (xy -2.7686 -1.4986)
            (xy -3.175 -2.7178)
            (xy -3.81 -3.81)
            (xy -3.81 -3.81)
            (xy -0.635 -3.81)
          )
          (stroke (width -25.4) (type default) (color 0 0 0 0))
          (fill (type background))
        )
        (arc (start 3.81 0) (mid 2.1928 2.5925) (end -0.6096 3.81)
          (stroke (width 0.254) (type default) (color 0 0 0 0))
          (fill (type background))
        )
        (pin input inverted (at -7.62 2.54 0) (length 4.318)
          (name "~" (effects (font (size 1.27 1.27))))
          (number "1" (effects (font (size 1.27 1.27))))
        )
        (pin input inverted (at -7.62 -2.54 0) (length 4.318)
          (name "~" (effects (font (size 1.27 1.27))))
          (number "2" (effects (font (size 1.27 1.27))))
        )
        (pin output line (at 7.62 0 180) (length 3.81)
          (name "~" (effects (font (size 1.27 1.27))))
          (number "3" (effects (font (size 1.27 1.27))))
        )
      )
      (symbol "74HCT00_2_1"
        (arc (start 0 -3.81) (mid 3.81 0) (end 0 3.81)
          (stroke (width 0.254) (type default) (color 0 0 0 0))
          (fill (type background))
        )
        (polyline
          (pts
            (xy 0 3.81)
            (xy -3.81 3.81)
            (xy -3.81 -3.81)
            (xy 0 -3.81)
          )
          (stroke (width 0.254) (type default) (color 0 0 0 0))
          (fill (type background))
        )
        (pin input line (at -7.62 2.54 0) (length 3.81)
          (name "~" (effects (font (size 1.27 1.27))))
          (number "4" (effects (font (size 1.27 1.27))))
        )
        (pin input line (at -7.62 -2.54 0) (length 3.81)
          (name "~" (effects (font (size 1.27 1.27))))
          (number "5" (effects (font (size 1.27 1.27))))
        )
        (pin output inverted (at 7.62 0 180) (length 3.81)
          (name "~" (effects (font (size 1.27 1.27))))
          (number "6" (effects (font (size 1.27 1.27))))
        )
      )
      (symbol "74HCT00_2_2"
        (arc (start -3.81 -3.81) (mid -2.589 0) (end -3.81 3.81)
          (stroke (width 0.254) (type default) (color 0 0 0 0))
          (fill (type none))
        )
        (arc (start -0.6096 -3.81) (mid 2.1855 -2.584) (end 3.81 0)
          (stroke (width 0.254) (type default) (color 0 0 0 0))
          (fill (type background))
        )
        (polyline
          (pts
            (xy -3.81 -3.81)
            (xy -0.635 -3.81)
          )
          (stroke (width 0.254) (type default) (color 0 0 0 0))
          (fill (type background))
        )
        (polyline
          (pts
            (xy -3.81 3.81)
            (xy -0.635 3.81)
          )
          (stroke (width 0.254) (type default) (color 0 0 0 0))
          (fill (type background))
        )
        (polyline
          (pts
            (xy -0.635 3.81)
            (xy -3.81 3.81)
            (xy -3.81 3.81)
            (xy -3.556 3.4036)
            (xy -3.0226 2.2606)
            (xy -2.6924 1.0414)
            (xy -2.6162 -0.254)
            (xy -2.7686 -1.4986)
            (xy -3.175 -2.7178)
            (xy -3.81 -3.81)
            (xy -3.81 -3.81)
            (xy -0.635 -3.81)
          )
          (stroke (width -25.4) (type default) (color 0 0 0 0))
          (fill (type background))
        )
        (arc (start 3.81 0) (mid 2.1928 2.5925) (end -0.6096 3.81)
          (stroke (width 0.254) (type default) (color 0 0 0 0))
          (fill (type background))
        )
        (pin input inverted (at -7.62 2.54 0) (length 4.318)
          (name "~" (effects (font (size 1.27 1.27))))
          (number "4" (effects (font (size 1.27 1.27))))
        )
        (pin input inverted (at -7.62 -2.54 0) (length 4.318)
          (name "~" (effects (font (size 1.27 1.27))))
          (number "5" (effects (font (size 1.27 1.27))))
        )
        (pin output line (at 7.62 0 180) (length 3.81)
          (name "~" (effects (font (size 1.27 1.27))))
          (number "6" (effects (font (size 1.27 1.27))))
        )
      )
      (symbol "74HCT00_3_1"
        (arc (start 0 -3.81) (mid 3.81 0) (end 0 3.81)
          (stroke (width 0.254) (type default) (color 0 0 0 0))
          (fill (type background))
        )
        (polyline
          (pts
            (xy 0 3.81)
            (xy -3.81 3.81)
            (xy -3.81 -3.81)
            (xy 0 -3.81)
          )
          (stroke (width 0.254) (type default) (color 0 0 0 0))
          (fill (type background))
        )
        (pin input line (at -7.62 -2.54 0) (length 3.81)
          (name "~" (effects (font (size 1.27 1.27))))
          (number "10" (effects (font (size 1.27 1.27))))
        )
        (pin output inverted (at 7.62 0 180) (length 3.81)
          (name "~" (effects (font (size 1.27 1.27))))
          (number "8" (effects (font (size 1.27 1.27))))
        )
        (pin input line (at -7.62 2.54 0) (length 3.81)
          (name "~" (effects (font (size 1.27 1.27))))
          (number "9" (effects (font (size 1.27 1.27))))
        )
      )
      (symbol "74HCT00_3_2"
        (arc (start -3.81 -3.81) (mid -2.589 0) (end -3.81 3.81)
          (stroke (width 0.254) (type default) (color 0 0 0 0))
          (fill (type none))
        )
        (arc (start -0.6096 -3.81) (mid 2.1855 -2.584) (end 3.81 0)
          (stroke (width 0.254) (type default) (color 0 0 0 0))
          (fill (type background))
        )
        (polyline
          (pts
            (xy -3.81 -3.81)
            (xy -0.635 -3.81)
          )
          (stroke (width 0.254) (type default) (color 0 0 0 0))
          (fill (type background))
        )
        (polyline
          (pts
            (xy -3.81 3.81)
            (xy -0.635 3.81)
          )
          (stroke (width 0.254) (type default) (color 0 0 0 0))
          (fill (type background))
        )
        (polyline
          (pts
            (xy -0.635 3.81)
            (xy -3.81 3.81)
            (xy -3.81 3.81)
            (xy -3.556 3.4036)
            (xy -3.0226 2.2606)
            (xy -2.6924 1.0414)
            (xy -2.6162 -0.254)
            (xy -2.7686 -1.4986)
            (xy -3.175 -2.7178)
            (xy -3.81 -3.81)
            (xy -3.81 -3.81)
            (xy -0.635 -3.81)
          )
          (stroke (width -25.4) (type default) (color 0 0 0 0))
          (fill (type background))
        )
        (arc (start 3.81 0) (mid 2.1928 2.5925) (end -0.6096 3.81)
          (stroke (width 0.254) (type default) (color 0 0 0 0))
          (fill (type background))
        )
        (pin input inverted (at -7.62 -2.54 0) (length 4.318)
          (name "~" (effects (font (size 1.27 1.27))))
          (number "10" (effects (font (size 1.27 1.27))))
        )
        (pin output line (at 7.62 0 180) (length 3.81)
          (name "~" (effects (font (size 1.27 1.27))))
          (number "8" (effects (font (size 1.27 1.27))))
        )
        (pin input inverted (at -7.62 2.54 0) (length 4.318)
          (name "~" (effects (font (size 1.27 1.27))))
          (number "9" (effects (font (size 1.27 1.27))))
        )
      )
      (symbol "74HCT00_4_1"
        (arc (start 0 -3.81) (mid 3.81 0) (end 0 3.81)
          (stroke (width 0.254) (type default) (color 0 0 0 0))
          (fill (type background))
        )
        (polyline
          (pts
            (xy 0 3.81)
            (xy -3.81 3.81)
            (xy -3.81 -3.81)
            (xy 0 -3.81)
          )
          (stroke (width 0.254) (type default) (color 0 0 0 0))
          (fill (type background))
        )
        (pin output inverted (at 7.62 0 180) (length 3.81)
          (name "~" (effects (font (size 1.27 1.27))))
          (number "11" (effects (font (size 1.27 1.27))))
        )
        (pin input line (at -7.62 2.54 0) (length 3.81)
          (name "~" (effects (font (size 1.27 1.27))))
          (number "12" (effects (font (size 1.27 1.27))))
        )
        (pin input line (at -7.62 -2.54 0) (length 3.81)
          (name "~" (effects (font (size 1.27 1.27))))
          (number "13" (effects (font (size 1.27 1.27))))
        )
      )
      (symbol "74HCT00_4_2"
        (arc (start -3.81 -3.81) (mid -2.589 0) (end -3.81 3.81)
          (stroke (width 0.254) (type default) (color 0 0 0 0))
          (fill (type none))
        )
        (arc (start -0.6096 -3.81) (mid 2.1855 -2.584) (end 3.81 0)
          (stroke (width 0.254) (type default) (color 0 0 0 0))
          (fill (type background))
        )
        (polyline
          (pts
            (xy -3.81 -3.81)
            (xy -0.635 -3.81)
          )
          (stroke (width 0.254) (type default) (color 0 0 0 0))
          (fill (type background))
        )
        (polyline
          (pts
            (xy -3.81 3.81)
            (xy -0.635 3.81)
          )
          (stroke (width 0.254) (type default) (color 0 0 0 0))
          (fill (type background))
        )
        (polyline
          (pts
            (xy -0.635 3.81)
            (xy -3.81 3.81)
            (xy -3.81 3.81)
            (xy -3.556 3.4036)
            (xy -3.0226 2.2606)
            (xy -2.6924 1.0414)
            (xy -2.6162 -0.254)
            (xy -2.7686 -1.4986)
            (xy -3.175 -2.7178)
            (xy -3.81 -3.81)
            (xy -3.81 -3.81)
            (xy -0.635 -3.81)
          )
          (stroke (width -25.4) (type default) (color 0 0 0 0))
          (fill (type background))
        )
        (arc (start 3.81 0) (mid 2.1928 2.5925) (end -0.6096 3.81)
          (stroke (width 0.254) (type default) (color 0 0 0 0))
          (fill (type background))
        )
        (pin output line (at 7.62 0 180) (length 3.81)
          (name "~" (effects (font (size 1.27 1.27))))
          (number "11" (effects (font (size 1.27 1.27))))
        )
        (pin input inverted (at -7.62 2.54 0) (length 4.318)
          (name "~" (effects (font (size 1.27 1.27))))
          (number "12" (effects (font (size 1.27 1.27))))
        )
        (pin input inverted (at -7.62 -2.54 0) (length 4.318)
          (name "~" (effects (font (size 1.27 1.27))))
          (number "13" (effects (font (size 1.27 1.27))))
        )
      )
      (symbol "74HCT00_5_0"
        (pin power_in line (at 0 12.7 270) (length 5.08)
          (name "VCC" (effects (font (size 1.27 1.27))))
          (number "14" (effects (font (size 1.27 1.27))))
        )
        (pin power_in line (at 0 -12.7 90) (length 5.08)
          (name "GND" (effects (font (size 1.27 1.27))))
          (number "7" (effects (font (size 1.27 1.27))))
        )
      )
      (symbol "74HCT00_5_1"
        (rectangle (start -5.08 7.62) (end 5.08 -7.62)
          (stroke (width 0.254) (type default) (color 0 0 0 0))
          (fill (type background))
        )
      )
    )
    (symbol "Device:C" (pin_numbers hide) (pin_names (offset 0.254)) (in_bom yes) (on_board yes)
      (property "Reference" "C" (id 0) (at 0.635 2.54 0)
        (effects (font (size 1.27 1.27)) (justify left))
      )
      (property "Value" "C" (id 1) (at 0.635 -2.54 0)
        (effects (font (size 1.27 1.27)) (justify left))
      )
      (property "Footprint" "" (id 2) (at 0.9652 -3.81 0)
        (effects (font (size 1.27 1.27)) hide)
      )
      (property "Datasheet" "~" (id 3) (at 0 0 0)
        (effects (font (size 1.27 1.27)) hide)
      )
      (property "ki_keywords" "cap capacitor" (id 4) (at 0 0 0)
        (effects (font (size 1.27 1.27)) hide)
      )
      (property "ki_description" "Unpolarized capacitor" (id 5) (at 0 0 0)
        (effects (font (size 1.27 1.27)) hide)
      )
      (property "ki_fp_filters" "C_*" (id 6) (at 0 0 0)
        (effects (font (size 1.27 1.27)) hide)
      )
      (symbol "C_0_1"
        (polyline
          (pts
            (xy -2.032 -0.762)
            (xy 2.032 -0.762)
          )
          (stroke (width 0.508) (type default) (color 0 0 0 0))
          (fill (type none))
        )
        (polyline
          (pts
            (xy -2.032 0.762)
            (xy 2.032 0.762)
          )
          (stroke (width 0.508) (type default) (color 0 0 0 0))
          (fill (type none))
        )
      )
      (symbol "C_1_1"
        (pin passive line (at 0 3.81 270) (length 2.794)
          (name "~" (effects (font (size 1.27 1.27))))
          (number "1" (effects (font (size 1.27 1.27))))
        )
        (pin passive line (at 0 -3.81 90) (length 2.794)
          (name "~" (effects (font (size 1.27 1.27))))
          (number "2" (effects (font (size 1.27 1.27))))
        )
      )
    )
    (symbol "Device:C_Polarized" (pin_numbers hide) (pin_names (offset 0.254)) (in_bom yes) (on_board yes)
      (property "Reference" "C" (id 0) (at 0.635 2.54 0)
        (effects (font (size 1.27 1.27)) (justify left))
      )
      (property "Value" "C_Polarized" (id 1) (at 0.635 -2.54 0)
        (effects (font (size 1.27 1.27)) (justify left))
      )
      (property "Footprint" "" (id 2) (at 0.9652 -3.81 0)
        (effects (font (size 1.27 1.27)) hide)
      )
      (property "Datasheet" "~" (id 3) (at 0 0 0)
        (effects (font (size 1.27 1.27)) hide)
      )
      (property "ki_keywords" "cap capacitor" (id 4) (at 0 0 0)
        (effects (font (size 1.27 1.27)) hide)
      )
      (property "ki_description" "Polarized capacitor" (id 5) (at 0 0 0)
        (effects (font (size 1.27 1.27)) hide)
      )
      (property "ki_fp_filters" "CP_*" (id 6) (at 0 0 0)
        (effects (font (size 1.27 1.27)) hide)
      )
      (symbol "C_Polarized_0_1"
        (rectangle (start -2.286 0.508) (end 2.286 1.016)
          (stroke (width 0) (type default) (color 0 0 0 0))
          (fill (type none))
        )
        (polyline
          (pts
            (xy -1.778 2.286)
            (xy -0.762 2.286)
          )
          (stroke (width 0) (type default) (color 0 0 0 0))
          (fill (type none))
        )
        (polyline
          (pts
            (xy -1.27 2.794)
            (xy -1.27 1.778)
          )
          (stroke (width 0) (type default) (color 0 0 0 0))
          (fill (type none))
        )
        (rectangle (start 2.286 -0.508) (end -2.286 -1.016)
          (stroke (width 0) (type default) (color 0 0 0 0))
          (fill (type outline))
        )
      )
      (symbol "C_Polarized_1_1"
        (pin passive line (at 0 3.81 270) (length 2.794)
          (name "~" (effects (font (size 1.27 1.27))))
          (number "1" (effects (font (size 1.27 1.27))))
        )
        (pin passive line (at 0 -3.81 90) (length 2.794)
          (name "~" (effects (font (size 1.27 1.27))))
          (number "2" (effects (font (size 1.27 1.27))))
        )
      )
    )
    (symbol "Device:D_Schottky" (pin_numbers hide) (pin_names (offset 1.016) hide) (in_bom yes) (on_board yes)
      (property "Reference" "D" (id 0) (at 0 2.54 0)
        (effects (font (size 1.27 1.27)))
      )
      (property "Value" "D_Schottky" (id 1) (at 0 -2.54 0)
        (effects (font (size 1.27 1.27)))
      )
      (property "Footprint" "" (id 2) (at 0 0 0)
        (effects (font (size 1.27 1.27)) hide)
      )
      (property "Datasheet" "~" (id 3) (at 0 0 0)
        (effects (font (size 1.27 1.27)) hide)
      )
      (property "ki_keywords" "diode Schottky" (id 4) (at 0 0 0)
        (effects (font (size 1.27 1.27)) hide)
      )
      (property "ki_description" "Schottky diode" (id 5) (at 0 0 0)
        (effects (font (size 1.27 1.27)) hide)
      )
      (property "ki_fp_filters" "TO-???* *_Diode_* *SingleDiode* D_*" (id 6) (at 0 0 0)
        (effects (font (size 1.27 1.27)) hide)
      )
      (symbol "D_Schottky_0_1"
        (polyline
          (pts
            (xy 1.27 0)
            (xy -1.27 0)
          )
          (stroke (width 0) (type default) (color 0 0 0 0))
          (fill (type none))
        )
        (polyline
          (pts
            (xy 1.27 1.27)
            (xy 1.27 -1.27)
            (xy -1.27 0)
            (xy 1.27 1.27)
          )
          (stroke (width 0.254) (type default) (color 0 0 0 0))
          (fill (type none))
        )
        (polyline
          (pts
            (xy -1.905 0.635)
            (xy -1.905 1.27)
            (xy -1.27 1.27)
            (xy -1.27 -1.27)
            (xy -0.635 -1.27)
            (xy -0.635 -0.635)
          )
          (stroke (width 0.254) (type default) (color 0 0 0 0))
          (fill (type none))
        )
      )
      (symbol "D_Schottky_1_1"
        (pin passive line (at -3.81 0 0) (length 2.54)
          (name "K" (effects (font (size 1.27 1.27))))
          (number "1" (effects (font (size 1.27 1.27))))
        )
        (pin passive line (at 3.81 0 180) (length 2.54)
          (name "A" (effects (font (size 1.27 1.27))))
          (number "2" (effects (font (size 1.27 1.27))))
        )
      )
    )
    (symbol "Device:L_Ferrite" (pin_numbers hide) (pin_names (offset 1.016) hide) (in_bom yes) (on_board yes)
      (property "Reference" "L" (id 0) (at -1.27 0 90)
        (effects (font (size 1.27 1.27)))
      )
      (property "Value" "L_Ferrite" (id 1) (at 2.794 0 90)
        (effects (font (size 1.27 1.27)))
      )
      (property "Footprint" "" (id 2) (at 0 0 0)
        (effects (font (size 1.27 1.27)) hide)
      )
      (property "Datasheet" "~" (id 3) (at 0 0 0)
        (effects (font (size 1.27 1.27)) hide)
      )
      (property "ki_keywords" "inductor choke coil reactor magnetic" (id 4) (at 0 0 0)
        (effects (font (size 1.27 1.27)) hide)
      )
      (property "ki_description" "Inductor with ferrite core" (id 5) (at 0 0 0)
        (effects (font (size 1.27 1.27)) hide)
      )
      (property "ki_fp_filters" "Choke_* *Coil* Inductor_* L_*" (id 6) (at 0 0 0)
        (effects (font (size 1.27 1.27)) hide)
      )
      (symbol "L_Ferrite_0_1"
        (arc (start 0 -2.54) (mid 0.635 -1.905) (end 0 -1.27)
          (stroke (width 0) (type default) (color 0 0 0 0))
          (fill (type none))
        )
        (arc (start 0 -1.27) (mid 0.635 -0.635) (end 0 0)
          (stroke (width 0) (type default) (color 0 0 0 0))
          (fill (type none))
        )
        (polyline
          (pts
            (xy 1.016 -2.794)
            (xy 1.016 -2.286)
          )
          (stroke (width 0) (type default) (color 0 0 0 0))
          (fill (type none))
        )
        (polyline
          (pts
            (xy 1.016 -1.778)
            (xy 1.016 -1.27)
          )
          (stroke (width 0) (type default) (color 0 0 0 0))
          (fill (type none))
        )
        (polyline
          (pts
            (xy 1.016 -0.762)
            (xy 1.016 -0.254)
          )
          (stroke (width 0) (type default) (color 0 0 0 0))
          (fill (type none))
        )
        (polyline
          (pts
            (xy 1.016 0.254)
            (xy 1.016 0.762)
          )
          (stroke (width 0) (type default) (color 0 0 0 0))
          (fill (type none))
        )
        (polyline
          (pts
            (xy 1.016 1.27)
            (xy 1.016 1.778)
          )
          (stroke (width 0) (type default) (color 0 0 0 0))
          (fill (type none))
        )
        (polyline
          (pts
            (xy 1.016 2.286)
            (xy 1.016 2.794)
          )
          (stroke (width 0) (type default) (color 0 0 0 0))
          (fill (type none))
        )
        (polyline
          (pts
            (xy 1.524 -2.286)
            (xy 1.524 -2.794)
          )
          (stroke (width 0) (type default) (color 0 0 0 0))
          (fill (type none))
        )
        (polyline
          (pts
            (xy 1.524 -1.27)
            (xy 1.524 -1.778)
          )
          (stroke (width 0) (type default) (color 0 0 0 0))
          (fill (type none))
        )
        (polyline
          (pts
            (xy 1.524 -0.254)
            (xy 1.524 -0.762)
          )
          (stroke (width 0) (type default) (color 0 0 0 0))
          (fill (type none))
        )
        (polyline
          (pts
            (xy 1.524 0.762)
            (xy 1.524 0.254)
          )
          (stroke (width 0) (type default) (color 0 0 0 0))
          (fill (type none))
        )
        (polyline
          (pts
            (xy 1.524 1.778)
            (xy 1.524 1.27)
          )
          (stroke (width 0) (type default) (color 0 0 0 0))
          (fill (type none))
        )
        (polyline
          (pts
            (xy 1.524 2.794)
            (xy 1.524 2.286)
          )
          (stroke (width 0) (type default) (color 0 0 0 0))
          (fill (type none))
        )
        (arc (start 0 0) (mid 0.635 0.635) (end 0 1.27)
          (stroke (width 0) (type default) (color 0 0 0 0))
          (fill (type none))
        )
        (arc (start 0 1.27) (mid 0.635 1.905) (end 0 2.54)
          (stroke (width 0) (type default) (color 0 0 0 0))
          (fill (type none))
        )
      )
      (symbol "L_Ferrite_1_1"
        (pin passive line (at 0 3.81 270) (length 1.27)
          (name "1" (effects (font (size 1.27 1.27))))
          (number "1" (effects (font (size 1.27 1.27))))
        )
        (pin passive line (at 0 -3.81 90) (length 1.27)
          (name "2" (effects (font (size 1.27 1.27))))
          (number "2" (effects (font (size 1.27 1.27))))
        )
      )
    )
    (symbol "Device:Q_NMOS_GDSD" (pin_names (offset 0) hide) (in_bom yes) (on_board yes)
      (property "Reference" "Q" (id 0) (at 5.08 1.27 0)
        (effects (font (size 1.27 1.27)) (justify left))
      )
      (property "Value" "Q_NMOS_GDSD" (id 1) (at 5.08 -1.27 0)
        (effects (font (size 1.27 1.27)) (justify left))
      )
      (property "Footprint" "" (id 2) (at 5.08 2.54 0)
        (effects (font (size 1.27 1.27)) hide)
      )
      (property "Datasheet" "~" (id 3) (at 0 0 0)
        (effects (font (size 1.27 1.27)) hide)
      )
      (property "ki_keywords" "transistor NMOS N-MOS N-MOSFET" (id 4) (at 0 0 0)
        (effects (font (size 1.27 1.27)) hide)
      )
      (property "ki_description" "N-MOSFET transistor, gate/drain/source, drain connected to mounting plane" (id 5) (at 0 0 0)
        (effects (font (size 1.27 1.27)) hide)
      )
      (symbol "Q_NMOS_GDSD_0_1"
        (polyline
          (pts
            (xy 0.254 0)
            (xy -2.54 0)
          )
          (stroke (width 0) (type default) (color 0 0 0 0))
          (fill (type none))
        )
        (polyline
          (pts
            (xy 0.254 1.905)
            (xy 0.254 -1.905)
          )
          (stroke (width 0.254) (type default) (color 0 0 0 0))
          (fill (type none))
        )
        (polyline
          (pts
            (xy 0.762 -1.27)
            (xy 0.762 -2.286)
          )
          (stroke (width 0.254) (type default) (color 0 0 0 0))
          (fill (type none))
        )
        (polyline
          (pts
            (xy 0.762 0.508)
            (xy 0.762 -0.508)
          )
          (stroke (width 0.254) (type default) (color 0 0 0 0))
          (fill (type none))
        )
        (polyline
          (pts
            (xy 0.762 2.286)
            (xy 0.762 1.27)
          )
          (stroke (width 0.254) (type default) (color 0 0 0 0))
          (fill (type none))
        )
        (polyline
          (pts
            (xy 2.54 -2.54)
            (xy 2.54 0)
            (xy 0.762 0)
          )
          (stroke (width 0) (type default) (color 0 0 0 0))
          (fill (type none))
        )
        (polyline
          (pts
            (xy 5.08 2.54)
            (xy 2.54 2.54)
            (xy 2.54 1.778)
          )
          (stroke (width 0) (type default) (color 0 0 0 0))
          (fill (type none))
        )
        (polyline
          (pts
            (xy 0.762 -1.778)
            (xy 3.302 -1.778)
            (xy 3.302 1.778)
            (xy 0.762 1.778)
          )
          (stroke (width 0) (type default) (color 0 0 0 0))
          (fill (type none))
        )
        (polyline
          (pts
            (xy 1.016 0)
            (xy 2.032 0.381)
            (xy 2.032 -0.381)
            (xy 1.016 0)
          )
          (stroke (width 0) (type default) (color 0 0 0 0))
          (fill (type outline))
        )
        (polyline
          (pts
            (xy 2.794 0.508)
            (xy 2.921 0.381)
            (xy 3.683 0.381)
            (xy 3.81 0.254)
          )
          (stroke (width 0) (type default) (color 0 0 0 0))
          (fill (type none))
        )
        (polyline
          (pts
            (xy 3.302 0.381)
            (xy 2.921 -0.254)
            (xy 3.683 -0.254)
            (xy 3.302 0.381)
          )
          (stroke (width 0) (type default) (color 0 0 0 0))
          (fill (type none))
        )
        (circle (center 1.651 0) (radius 2.794)
          (stroke (width 0.254) (type default) (color 0 0 0 0))
          (fill (type none))
        )
        (circle (center 2.54 -1.778) (radius 0.254)
          (stroke (width 0) (type default) (color 0 0 0 0))
          (fill (type outline))
        )
        (circle (center 2.54 1.778) (radius 0.254)
          (stroke (width 0) (type default) (color 0 0 0 0))
          (fill (type outline))
        )
      )
      (symbol "Q_NMOS_GDSD_1_1"
        (pin input line (at -5.08 0 0) (length 2.54)
          (name "G" (effects (font (size 1.27 1.27))))
          (number "1" (effects (font (size 1.27 1.27))))
        )
        (pin passive line (at 2.54 5.08 270) (length 2.54)
          (name "D" (effects (font (size 1.27 1.27))))
          (number "2" (effects (font (size 1.27 1.27))))
        )
        (pin passive line (at 2.54 -5.08 90) (length 2.54)
          (name "S" (effects (font (size 1.27 1.27))))
          (number "3" (effects (font (size 1.27 1.27))))
        )
        (pin passive line (at 5.08 5.08 270) (length 2.54)
          (name "D" (effects (font (size 1.27 1.27))))
          (number "4" (effects (font (size 1.27 1.27))))
        )
      )
    )
    (symbol "Device:R" (pin_numbers hide) (pin_names (offset 0)) (in_bom yes) (on_board yes)
      (property "Reference" "R" (id 0) (at 2.032 0 90)
        (effects (font (size 1.27 1.27)))
      )
      (property "Value" "R" (id 1) (at 0 0 90)
        (effects (font (size 1.27 1.27)))
      )
      (property "Footprint" "" (id 2) (at -1.778 0 90)
        (effects (font (size 1.27 1.27)) hide)
      )
      (property "Datasheet" "~" (id 3) (at 0 0 0)
        (effects (font (size 1.27 1.27)) hide)
      )
      (property "ki_keywords" "R res resistor" (id 4) (at 0 0 0)
        (effects (font (size 1.27 1.27)) hide)
      )
      (property "ki_description" "Resistor" (id 5) (at 0 0 0)
        (effects (font (size 1.27 1.27)) hide)
      )
      (property "ki_fp_filters" "R_*" (id 6) (at 0 0 0)
        (effects (font (size 1.27 1.27)) hide)
      )
      (symbol "R_0_1"
        (rectangle (start -1.016 -2.54) (end 1.016 2.54)
          (stroke (width 0.254) (type default) (color 0 0 0 0))
          (fill (type none))
        )
      )
      (symbol "R_1_1"
        (pin passive line (at 0 3.81 270) (length 1.27)
          (name "~" (effects (font (size 1.27 1.27))))
          (number "1" (effects (font (size 1.27 1.27))))
        )
        (pin passive line (at 0 -3.81 90) (length 1.27)
          (name "~" (effects (font (size 1.27 1.27))))
          (number "2" (effects (font (size 1.27 1.27))))
        )
      )
    )
    (symbol "Device:Transformer_1P_SS" (pin_names (offset 1.016) hide) (in_bom yes) (on_board yes)
      (property "Reference" "T" (id 0) (at 0 6.35 0)
        (effects (font (size 1.27 1.27)))
      )
      (property "Value" "Transformer_1P_SS" (id 1) (at 0 -7.62 0)
        (effects (font (size 1.27 1.27)))
      )
      (property "Footprint" "" (id 2) (at 0 0 0)
        (effects (font (size 1.27 1.27)) hide)
      )
      (property "Datasheet" "~" (id 3) (at 0 0 0)
        (effects (font (size 1.27 1.27)) hide)
      )
      (property "ki_keywords" "transformer coil magnet" (id 4) (at 0 0 0)
        (effects (font (size 1.27 1.27)) hide)
      )
      (property "ki_description" "Transformer, single primary, split secondary" (id 5) (at 0 0 0)
        (effects (font (size 1.27 1.27)) hide)
      )
      (symbol "Transformer_1P_SS_0_1"
        (arc (start -2.54 -5.0546) (mid -1.6561 -4.6863) (end -1.27 -3.81)
          (stroke (width 0) (type default) (color 0 0 0 0))
          (fill (type none))
        )
        (arc (start -2.54 -2.5146) (mid -1.6561 -2.1463) (end -1.27 -1.27)
          (stroke (width 0) (type default) (color 0 0 0 0))
          (fill (type none))
        )
        (arc (start -2.54 0.0254) (mid -1.6561 0.3937) (end -1.27 1.27)
          (stroke (width 0) (type default) (color 0 0 0 0))
          (fill (type none))
        )
        (arc (start -2.54 2.5654) (mid -1.6561 2.9337) (end -1.27 3.81)
          (stroke (width 0) (type default) (color 0 0 0 0))
          (fill (type none))
        )
        (arc (start -1.27 -3.81) (mid -1.642 -2.912) (end -2.54 -2.54)
          (stroke (width 0) (type default) (color 0 0 0 0))
          (fill (type none))
        )
        (arc (start -1.27 -1.27) (mid -1.642 -0.372) (end -2.54 0)
          (stroke (width 0) (type default) (color 0 0 0 0))
          (fill (type none))
        )
        (arc (start -1.27 1.27) (mid -1.642 2.168) (end -2.54 2.54)
          (stroke (width 0) (type default) (color 0 0 0 0))
          (fill (type none))
        )
        (arc (start -1.27 3.81) (mid -1.642 4.708) (end -2.54 5.08)
          (stroke (width 0) (type default) (color 0 0 0 0))
          (fill (type none))
        )
        (polyline
          (pts
            (xy -0.635 5.08)
            (xy -0.635 -5.08)
          )
          (stroke (width 0) (type default) (color 0 0 0 0))
          (fill (type none))
        )
        (polyline
          (pts
            (xy 0.635 -5.08)
            (xy 0.635 5.08)
          )
          (stroke (width 0) (type default) (color 0 0 0 0))
          (fill (type none))
        )
        (arc (start 1.2954 -1.27) (mid 1.6599 -2.1501) (end 2.54 -2.5146)
          (stroke (width 0) (type default) (color 0 0 0 0))
          (fill (type none))
        )
        (arc (start 1.2954 1.27) (mid 1.6599 0.3899) (end 2.54 0.0254)
          (stroke (width 0) (type default) (color 0 0 0 0))
          (fill (type none))
        )
        (arc (start 1.2954 3.81) (mid 1.6599 2.9299) (end 2.54 2.5654)
          (stroke (width 0) (type default) (color 0 0 0 0))
          (fill (type none))
        )
        (arc (start 1.3208 -3.81) (mid 1.6853 -4.6901) (end 2.5654 -5.0546)
          (stroke (width 0) (type default) (color 0 0 0 0))
          (fill (type none))
        )
        (arc (start 2.54 0) (mid 1.6456 -0.3683) (end 1.2954 -1.27)
          (stroke (width 0) (type default) (color 0 0 0 0))
          (fill (type none))
        )
        (arc (start 2.54 2.54) (mid 1.6456 2.1717) (end 1.2954 1.27)
          (stroke (width 0) (type default) (color 0 0 0 0))
          (fill (type none))
        )
        (arc (start 2.54 5.08) (mid 1.6456 4.7117) (end 1.2954 3.81)
          (stroke (width 0) (type default) (color 0 0 0 0))
          (fill (type none))
        )
        (arc (start 2.5654 -2.54) (mid 1.671 -2.9083) (end 1.3208 -3.81)
          (stroke (width 0) (type default) (color 0 0 0 0))
          (fill (type none))
        )
      )
      (symbol "Transformer_1P_SS_1_1"
        (pin passive line (at -10.16 5.08 0) (length 7.62)
          (name "AA" (effects (font (size 1.27 1.27))))
          (number "1" (effects (font (size 1.27 1.27))))
        )
        (pin passive line (at -10.16 -5.08 0) (length 7.62)
          (name "AB" (effects (font (size 1.27 1.27))))
          (number "2" (effects (font (size 1.27 1.27))))
        )
        (pin passive line (at 10.16 -5.08 180) (length 7.62)
          (name "SA" (effects (font (size 1.27 1.27))))
          (number "3" (effects (font (size 1.27 1.27))))
        )
        (pin passive line (at 10.16 0 180) (length 7.62)
          (name "SC" (effects (font (size 1.27 1.27))))
          (number "4" (effects (font (size 1.27 1.27))))
        )
        (pin passive line (at 10.16 5.08 180) (length 7.62)
          (name "SB" (effects (font (size 1.27 1.27))))
          (number "5" (effects (font (size 1.27 1.27))))
        )
      )
    )
    (symbol "Driver_FET:IR2104" (in_bom yes) (on_board yes)
      (property "Reference" "U" (id 0) (at 1.27 13.335 0)
        (effects (font (size 1.27 1.27)) (justify left))
      )
      (property "Value" "IR2104" (id 1) (at 1.27 11.43 0)
        (effects (font (size 1.27 1.27)) (justify left))
      )
      (property "Footprint" "" (id 2) (at 0 0 0)
        (effects (font (size 1.27 1.27) italic) hide)
      )
      (property "Datasheet" "https://www.infineon.com/dgdl/ir2104.pdf?fileId=5546d462533600a4015355c7c1c31671" (id 3) (at 0 0 0)
        (effects (font (size 1.27 1.27)) hide)
      )
      (property "ki_keywords" "Gate Driver" (id 4) (at 0 0 0)
        (effects (font (size 1.27 1.27)) hide)
      )
      (property "ki_description" "Half-Bridge Driver, 600V, 210/360mA, PDIP-8/SOIC-8" (id 5) (at 0 0 0)
        (effects (font (size 1.27 1.27)) hide)
      )
      (property "ki_fp_filters" "SOIC*3.9x4.9mm*P1.27mm* DIP*W7.62mm*" (id 6) (at 0 0 0)
        (effects (font (size 1.27 1.27)) hide)
      )
      (symbol "IR2104_0_1"
        (rectangle (start -5.08 -10.16) (end 5.08 10.16)
          (stroke (width 0.254) (type default) (color 0 0 0 0))
          (fill (type background))
        )
      )
      (symbol "IR2104_1_1"
        (pin power_in line (at 0 12.7 270) (length 2.54)
          (name "VCC" (effects (font (size 1.27 1.27))))
          (number "1" (effects (font (size 1.27 1.27))))
        )
        (pin input line (at -7.62 0 0) (length 2.54)
          (name "IN" (effects (font (size 1.27 1.27))))
          (number "2" (effects (font (size 1.27 1.27))))
        )
        (pin input line (at -7.62 -2.54 0) (length 2.54)
          (name "~{SD}" (effects (font (size 1.27 1.27))))
          (number "3" (effects (font (size 1.27 1.27))))
        )
        (pin power_in line (at 0 -12.7 90) (length 2.54)
          (name "COM" (effects (font (size 1.27 1.27))))
          (number "4" (effects (font (size 1.27 1.27))))
        )
        (pin output line (at 7.62 -7.62 180) (length 2.54)
          (name "LO" (effects (font (size 1.27 1.27))))
          (number "5" (effects (font (size 1.27 1.27))))
        )
        (pin passive line (at 7.62 -5.08 180) (length 2.54)
          (name "VS" (effects (font (size 1.27 1.27))))
          (number "6" (effects (font (size 1.27 1.27))))
        )
        (pin output line (at 7.62 5.08 180) (length 2.54)
          (name "HO" (effects (font (size 1.27 1.27))))
          (number "7" (effects (font (size 1.27 1.27))))
        )
        (pin passive line (at 7.62 7.62 180) (length 2.54)
          (name "VB" (effects (font (size 1.27 1.27))))
          (number "8" (effects (font (size 1.27 1.27))))
        )
      )
    )
    (symbol "Transistor_FET:IRLML2060" (pin_names hide) (in_bom yes) (on_board yes)
      (property "Reference" "Q" (id 0) (at 5.08 1.905 0)
        (effects (font (size 1.27 1.27)) (justify left))
      )
      (property "Value" "IRLML2060" (id 1) (at 5.08 0 0)
        (effects (font (size 1.27 1.27)) (justify left))
      )
      (property "Footprint" "Package_TO_SOT_SMD:SOT-23" (id 2) (at 5.08 -1.905 0)
        (effects (font (size 1.27 1.27) italic) (justify left) hide)
      )
      (property "Datasheet" "https://www.infineon.com/dgdl/irlml2060pbf.pdf?fileId=5546d462533600a401535664b7fb25ee" (id 3) (at 0 0 0)
        (effects (font (size 1.27 1.27)) (justify left) hide)
      )
      (property "ki_keywords" "N-Channel HEXFET MOSFET" (id 4) (at 0 0 0)
        (effects (font (size 1.27 1.27)) hide)
      )
      (property "ki_description" "1.2A Id, 60V Vds, 480mOhm Rds, N-Channel HEXFET Power MOSFET, SOT-23" (id 5) (at 0 0 0)
        (effects (font (size 1.27 1.27)) hide)
      )
      (property "ki_fp_filters" "SOT?23*" (id 6) (at 0 0 0)
        (effects (font (size 1.27 1.27)) hide)
      )
      (symbol "IRLML2060_0_1"
        (polyline
          (pts
            (xy 0.254 0)
            (xy -2.54 0)
          )
          (stroke (width 0) (type default) (color 0 0 0 0))
          (fill (type none))
        )
        (polyline
          (pts
            (xy 0.254 1.905)
            (xy 0.254 -1.905)
          )
          (stroke (width 0.254) (type default) (color 0 0 0 0))
          (fill (type none))
        )
        (polyline
          (pts
            (xy 0.762 -1.27)
            (xy 0.762 -2.286)
          )
          (stroke (width 0.254) (type default) (color 0 0 0 0))
          (fill (type none))
        )
        (polyline
          (pts
            (xy 0.762 0.508)
            (xy 0.762 -0.508)
          )
          (stroke (width 0.254) (type default) (color 0 0 0 0))
          (fill (type none))
        )
        (polyline
          (pts
            (xy 0.762 2.286)
            (xy 0.762 1.27)
          )
          (stroke (width 0.254) (type default) (color 0 0 0 0))
          (fill (type none))
        )
        (polyline
          (pts
            (xy 2.54 2.54)
            (xy 2.54 1.778)
          )
          (stroke (width 0) (type default) (color 0 0 0 0))
          (fill (type none))
        )
        (polyline
          (pts
            (xy 2.54 -2.54)
            (xy 2.54 0)
            (xy 0.762 0)
          )
          (stroke (width 0) (type default) (color 0 0 0 0))
          (fill (type none))
        )
        (polyline
          (pts
            (xy 0.762 -1.778)
            (xy 3.302 -1.778)
            (xy 3.302 1.778)
            (xy 0.762 1.778)
          )
          (stroke (width 0) (type default) (color 0 0 0 0))
          (fill (type none))
        )
        (polyline
          (pts
            (xy 1.016 0)
            (xy 2.032 0.381)
            (xy 2.032 -0.381)
            (xy 1.016 0)
          )
          (stroke (width 0) (type default) (color 0 0 0 0))
          (fill (type outline))
        )
        (polyline
          (pts
            (xy 2.794 0.508)
            (xy 2.921 0.381)
            (xy 3.683 0.381)
            (xy 3.81 0.254)
          )
          (stroke (width 0) (type default) (color 0 0 0 0))
          (fill (type none))
        )
        (polyline
          (pts
            (xy 3.302 0.381)
            (xy 2.921 -0.254)
            (xy 3.683 -0.254)
            (xy 3.302 0.381)
          )
          (stroke (width 0) (type default) (color 0 0 0 0))
          (fill (type none))
        )
        (circle (center 1.651 0) (radius 2.794)
          (stroke (width 0.254) (type default) (color 0 0 0 0))
          (fill (type none))
        )
        (circle (center 2.54 -1.778) (radius 0.254)
          (stroke (width 0) (type default) (color 0 0 0 0))
          (fill (type outline))
        )
        (circle (center 2.54 1.778) (radius 0.254)
          (stroke (width 0) (type default) (color 0 0 0 0))
          (fill (type outline))
        )
      )
      (symbol "IRLML2060_1_1"
        (pin input line (at -5.08 0 0) (length 2.54)
          (name "G" (effects (font (size 1.27 1.27))))
          (number "1" (effects (font (size 1.27 1.27))))
        )
        (pin passive line (at 2.54 -5.08 90) (length 2.54)
          (name "S" (effects (font (size 1.27 1.27))))
          (number "2" (effects (font (size 1.27 1.27))))
        )
        (pin passive line (at 2.54 5.08 270) (length 2.54)
          (name "D" (effects (font (size 1.27 1.27))))
          (number "3" (effects (font (size 1.27 1.27))))
        )
      )
    )
    (symbol "power:+12V" (power) (pin_names (offset 0)) (in_bom yes) (on_board yes)
      (property "Reference" "#PWR" (id 0) (at 0 -3.81 0)
        (effects (font (size 1.27 1.27)) hide)
      )
      (property "Value" "+12V" (id 1) (at 0 3.556 0)
        (effects (font (size 1.27 1.27)))
      )
      (property "Footprint" "" (id 2) (at 0 0 0)
        (effects (font (size 1.27 1.27)) hide)
      )
      (property "Datasheet" "" (id 3) (at 0 0 0)
        (effects (font (size 1.27 1.27)) hide)
      )
      (property "ki_keywords" "power-flag" (id 4) (at 0 0 0)
        (effects (font (size 1.27 1.27)) hide)
      )
      (property "ki_description" "Power symbol creates a global label with name \"+12V\"" (id 5) (at 0 0 0)
        (effects (font (size 1.27 1.27)) hide)
      )
      (symbol "+12V_0_1"
        (polyline
          (pts
            (xy -0.762 1.27)
            (xy 0 2.54)
          )
          (stroke (width 0) (type default) (color 0 0 0 0))
          (fill (type none))
        )
        (polyline
          (pts
            (xy 0 0)
            (xy 0 2.54)
          )
          (stroke (width 0) (type default) (color 0 0 0 0))
          (fill (type none))
        )
        (polyline
          (pts
            (xy 0 2.54)
            (xy 0.762 1.27)
          )
          (stroke (width 0) (type default) (color 0 0 0 0))
          (fill (type none))
        )
      )
      (symbol "+12V_1_1"
        (pin power_in line (at 0 0 90) (length 0) hide
          (name "+12V" (effects (font (size 1.27 1.27))))
          (number "1" (effects (font (size 1.27 1.27))))
        )
      )
    )
    (symbol "power:+5V" (power) (pin_names (offset 0)) (in_bom yes) (on_board yes)
      (property "Reference" "#PWR" (id 0) (at 0 -3.81 0)
        (effects (font (size 1.27 1.27)) hide)
      )
      (property "Value" "+5V" (id 1) (at 0 3.556 0)
        (effects (font (size 1.27 1.27)))
      )
      (property "Footprint" "" (id 2) (at 0 0 0)
        (effects (font (size 1.27 1.27)) hide)
      )
      (property "Datasheet" "" (id 3) (at 0 0 0)
        (effects (font (size 1.27 1.27)) hide)
      )
      (property "ki_keywords" "power-flag" (id 4) (at 0 0 0)
        (effects (font (size 1.27 1.27)) hide)
      )
      (property "ki_description" "Power symbol creates a global label with name \"+5V\"" (id 5) (at 0 0 0)
        (effects (font (size 1.27 1.27)) hide)
      )
      (symbol "+5V_0_1"
        (polyline
          (pts
            (xy -0.762 1.27)
            (xy 0 2.54)
          )
          (stroke (width 0) (type default) (color 0 0 0 0))
          (fill (type none))
        )
        (polyline
          (pts
            (xy 0 0)
            (xy 0 2.54)
          )
          (stroke (width 0) (type default) (color 0 0 0 0))
          (fill (type none))
        )
        (polyline
          (pts
            (xy 0 2.54)
            (xy 0.762 1.27)
          )
          (stroke (width 0) (type default) (color 0 0 0 0))
          (fill (type none))
        )
      )
      (symbol "+5V_1_1"
        (pin power_in line (at 0 0 90) (length 0) hide
          (name "+5V" (effects (font (size 1.27 1.27))))
          (number "1" (effects (font (size 1.27 1.27))))
        )
      )
    )
    (symbol "power:GND" (power) (pin_names (offset 0)) (in_bom yes) (on_board yes)
      (property "Reference" "#PWR" (id 0) (at 0 -6.35 0)
        (effects (font (size 1.27 1.27)) hide)
      )
      (property "Value" "GND" (id 1) (at 0 -3.81 0)
        (effects (font (size 1.27 1.27)))
      )
      (property "Footprint" "" (id 2) (at 0 0 0)
        (effects (font (size 1.27 1.27)) hide)
      )
      (property "Datasheet" "" (id 3) (at 0 0 0)
        (effects (font (size 1.27 1.27)) hide)
      )
      (property "ki_keywords" "power-flag" (id 4) (at 0 0 0)
        (effects (font (size 1.27 1.27)) hide)
      )
      (property "ki_description" "Power symbol creates a global label with name \"GND\" , ground" (id 5) (at 0 0 0)
        (effects (font (size 1.27 1.27)) hide)
      )
      (symbol "GND_0_1"
        (polyline
          (pts
            (xy 0 0)
            (xy 0 -1.27)
            (xy 1.27 -1.27)
            (xy 0 -2.54)
            (xy -1.27 -1.27)
            (xy 0 -1.27)
          )
          (stroke (width 0) (type default) (color 0 0 0 0))
          (fill (type none))
        )
      )
      (symbol "GND_1_1"
        (pin power_in line (at 0 0 270) (length 0) hide
          (name "GND" (effects (font (size 1.27 1.27))))
          (number "1" (effects (font (size 1.27 1.27))))
        )
      )
    )
    (symbol "power:VCC" (power) (pin_names (offset 0)) (in_bom yes) (on_board yes)
      (property "Reference" "#PWR" (id 0) (at 0 -3.81 0)
        (effects (font (size 1.27 1.27)) hide)
      )
      (property "Value" "VCC" (id 1) (at 0 3.81 0)
        (effects (font (size 1.27 1.27)))
      )
      (property "Footprint" "" (id 2) (at 0 0 0)
        (effects (font (size 1.27 1.27)) hide)
      )
      (property "Datasheet" "" (id 3) (at 0 0 0)
        (effects (font (size 1.27 1.27)) hide)
      )
      (property "ki_keywords" "power-flag" (id 4) (at 0 0 0)
        (effects (font (size 1.27 1.27)) hide)
      )
      (property "ki_description" "Power symbol creates a global label with name \"VCC\"" (id 5) (at 0 0 0)
        (effects (font (size 1.27 1.27)) hide)
      )
      (symbol "VCC_0_1"
        (polyline
          (pts
            (xy -0.762 1.27)
            (xy 0 2.54)
          )
          (stroke (width 0) (type default) (color 0 0 0 0))
          (fill (type none))
        )
        (polyline
          (pts
            (xy 0 0)
            (xy 0 2.54)
          )
          (stroke (width 0) (type default) (color 0 0 0 0))
          (fill (type none))
        )
        (polyline
          (pts
            (xy 0 2.54)
            (xy 0.762 1.27)
          )
          (stroke (width 0) (type default) (color 0 0 0 0))
          (fill (type none))
        )
      )
      (symbol "VCC_1_1"
        (pin power_in line (at 0 0 90) (length 0) hide
          (name "VCC" (effects (font (size 1.27 1.27))))
          (number "1" (effects (font (size 1.27 1.27))))
        )
      )
    )
  )

  (junction (at 160.02 72.39) (diameter 0) (color 0 0 0 0)
    (uuid 03d9f775-39e1-4257-b0cd-a29e04c8317f)
  )
  (junction (at 171.45 125.73) (diameter 0) (color 0 0 0 0)
    (uuid 1578325c-f33f-4a30-8e6f-d50583c83545)
  )
  (junction (at 196.85 72.39) (diameter 0) (color 0 0 0 0)
    (uuid 24f85706-e368-46c2-98ca-1c33a96e1e50)
  )
  (junction (at 160.02 48.26) (diameter 0) (color 0 0 0 0)
    (uuid 31148407-ae20-4471-820f-d5884253d5d3)
  )
  (junction (at 160.02 58.42) (diameter 0) (color 0 0 0 0)
    (uuid 39a07b1a-8dc8-412c-9dd3-ae16efd29c10)
  )
  (junction (at 162.56 58.42) (diameter 0) (color 0 0 0 0)
    (uuid 44f53c40-3ad5-4a00-98d1-94c4b5c910be)
  )
  (junction (at 171.45 128.27) (diameter 0) (color 0 0 0 0)
    (uuid 4fd7da36-b1de-4db9-ae24-76f45e3bbbee)
  )
  (junction (at 149.86 123.19) (diameter 0) (color 0 0 0 0)
    (uuid 58bdf334-701c-45df-9297-b939df159030)
  )
  (junction (at 128.27 55.88) (diameter 0) (color 0 0 0 0)
    (uuid 77769e9f-8976-46ee-a4b8-f92353c14dd5)
  )
  (junction (at 171.45 113.03) (diameter 0) (color 0 0 0 0)
    (uuid 790e0aa4-fd45-4af7-a5f6-481cb3e53bc5)
  )
  (junction (at 149.86 125.73) (diameter 0) (color 0 0 0 0)
    (uuid 7f3ad181-27c9-4916-9b44-fe072a9d2532)
  )
  (junction (at 111.76 55.88) (diameter 0) (color 0 0 0 0)
    (uuid 8c1cda45-7467-4df9-94ef-bb2c86b1a2bc)
  )
  (junction (at 186.69 72.39) (diameter 0) (color 0 0 0 0)
    (uuid 8d502617-6466-460e-b2a8-3b6b91dc8a06)
  )
  (junction (at 171.45 138.43) (diameter 0) (color 0 0 0 0)
    (uuid abe3b18d-ba74-4c34-bbf5-6eaad4533ae7)
  )
  (junction (at 140.97 72.39) (diameter 0) (color 0 0 0 0)
    (uuid c6834945-c60c-491c-95cb-496308b2b98e)
  )
  (junction (at 162.56 72.39) (diameter 0) (color 0 0 0 0)
    (uuid cfb0f79d-be1d-4f3a-b845-337bb9f5e3a7)
  )
  (junction (at 191.77 125.73) (diameter 0) (color 0 0 0 0)
    (uuid d5872ef7-6401-43ab-96fa-72cd8b405e04)
  )
  (junction (at 121.92 105.41) (diameter 0) (color 0 0 0 0)
    (uuid db83170f-420f-4053-a0a7-ab4322e33011)
  )
  (junction (at 171.45 123.19) (diameter 0) (color 0 0 0 0)
    (uuid e63a9a01-8a7e-45a7-a6ac-d4dce5e9e21d)
  )

  (no_connect (at 226.06 98.425) (uuid 9796ca6c-3a27-4581-b3ef-a9ae9c4e6067))

  (wire (pts (xy 162.56 60.96) (xy 162.56 58.42))
    (stroke (width 0) (type default) (color 0 0 0 0))
    (uuid 0014386c-59dd-4bc7-a4f5-af2e420b3529)
  )
  (wire (pts (xy 111.76 83.82) (xy 111.76 86.36))
    (stroke (width 0) (type default) (color 0 0 0 0))
    (uuid 086a0078-dfb7-4deb-b8af-9002d63101b9)
  )
  (wire (pts (xy 149.86 48.26) (xy 147.32 48.26))
    (stroke (width 0) (type default) (color 0 0 0 0))
    (uuid 0ac7f897-2070-442e-84db-90afa53b07cb)
  )
  (wire (pts (xy 160.02 58.42) (xy 160.02 60.96))
    (stroke (width 0) (type default) (color 0 0 0 0))
    (uuid 0d52e1c1-1cdc-4a89-9e05-18934cdaa2ad)
  )
  (wire (pts (xy 205.74 103.505) (xy 205.74 120.65))
    (stroke (width 0) (type default) (color 0 0 0 0))
    (uuid 0d838d5f-0322-4364-b3b6-261decbd61d2)
  )
  (wire (pts (xy 119.38 63.5) (xy 128.27 63.5))
    (stroke (width 0) (type default) (color 0 0 0 0))
    (uuid 17554f00-e647-4acc-b02a-82ea26155735)
  )
  (wire (pts (xy 160.02 71.12) (xy 160.02 72.39))
    (stroke (width 0) (type default) (color 0 0 0 0))
    (uuid 19ab9904-8115-4a67-a0e4-001bc97f553f)
  )
  (wire (pts (xy 152.4 123.19) (xy 149.86 123.19))
    (stroke (width 0) (type default) (color 0 0 0 0))
    (uuid 1a1f7d11-eb47-4bc9-8180-9a9d16d59e5e)
  )
  (wire (pts (xy 149.86 78.74) (xy 152.4 78.74))
    (stroke (width 0) (type default) (color 0 0 0 0))
    (uuid 28012967-3240-4f09-9e91-19b7c996f819)
  )
  (wire (pts (xy 171.45 123.19) (xy 171.45 125.73))
    (stroke (width 0) (type default) (color 0 0 0 0))
    (uuid 29ac31f1-fac8-4870-a31e-508be62bcf91)
  )
  (wire (pts (xy 149.86 123.19) (xy 149.86 125.73))
    (stroke (width 0) (type default) (color 0 0 0 0))
    (uuid 32bb6d6f-6acf-4028-92dc-da48b27b2ac8)
  )
  (wire (pts (xy 125.73 76.2) (xy 125.73 72.39))
    (stroke (width 0) (type default) (color 0 0 0 0))
    (uuid 33594c17-d11f-4ce8-ae97-9aacdd2e7d5c)
  )
  (wire (pts (xy 173.99 138.43) (xy 171.45 138.43))
    (stroke (width 0) (type default) (color 0 0 0 0))
    (uuid 35c2d33d-e1c7-49e4-86ca-b7362b6bd103)
  )
  (wire (pts (xy 163.83 58.42) (xy 162.56 58.42))
    (stroke (width 0) (type default) (color 0 0 0 0))
    (uuid 382a169c-28ff-4d71-b6cf-c80059aab7d8)
  )
  (wire (pts (xy 186.69 82.55) (xy 186.69 86.36))
    (stroke (width 0) (type default) (color 0 0 0 0))
    (uuid 3862d3bd-e750-4b53-a1c2-5f205e3d7146)
  )
  (wire (pts (xy 226.06 93.345) (xy 227.965 93.345))
    (stroke (width 0) (type default) (color 0 0 0 0))
    (uuid 38b3b17e-a0a5-45cb-8bd2-74236d48873c)
  )
  (wire (pts (xy 171.45 125.73) (xy 171.45 128.27))
    (stroke (width 0) (type default) (color 0 0 0 0))
    (uuid 3cfcebf3-91b9-48cc-b380-ecd352d7d764)
  )
  (wire (pts (xy 125.73 72.39) (xy 140.97 72.39))
    (stroke (width 0) (type default) (color 0 0 0 0))
    (uuid 4113913e-f038-424a-9188-36d45b86f998)
  )
  (wire (pts (xy 99.06 73.66) (xy 104.14 73.66))
    (stroke (width 0) (type default) (color 0 0 0 0))
    (uuid 41c43872-9e0a-42fb-9de8-8c1dc07f100a)
  )
  (wire (pts (xy 149.86 120.65) (xy 149.86 123.19))
    (stroke (width 0) (type default) (color 0 0 0 0))
    (uuid 464ad810-c083-447c-a291-b0ffb02e4d6a)
  )
  (wire (pts (xy 160.02 72.39) (xy 160.02 73.66))
    (stroke (width 0) (type default) (color 0 0 0 0))
    (uuid 47544fdb-19b8-4f75-827a-5b632799d73d)
  )
  (wire (pts (xy 138.43 55.88) (xy 140.97 55.88))
    (stroke (width 0) (type default) (color 0 0 0 0))
    (uuid 49b11d0c-c2d3-4265-b7a5-506a0b490e6e)
  )
  (wire (pts (xy 186.69 72.39) (xy 186.69 74.93))
    (stroke (width 0) (type default) (color 0 0 0 0))
    (uuid 4a934af9-2070-4b96-abc3-5e447d883316)
  )
  (wire (pts (xy 167.64 125.73) (xy 171.45 125.73))
    (stroke (width 0) (type default) (color 0 0 0 0))
    (uuid 4acf643f-6276-4058-9b9c-43fbe385c4e7)
  )
  (wire (pts (xy 99.06 71.12) (xy 104.14 71.12))
    (stroke (width 0) (type default) (color 0 0 0 0))
    (uuid 4c2fff1e-d2d2-4dd9-b9da-dbf030608ebc)
  )
  (wire (pts (xy 191.77 140.97) (xy 189.23 140.97))
    (stroke (width 0) (type default) (color 0 0 0 0))
    (uuid 50bdd8b1-e63d-4795-98f9-2ace97fa0827)
  )
  (wire (pts (xy 109.22 55.88) (xy 111.76 55.88))
    (stroke (width 0) (type default) (color 0 0 0 0))
    (uuid 51ed515c-d18f-44c1-aadf-a18bf99b2ec6)
  )
  (wire (pts (xy 196.85 82.55) (xy 196.85 86.36))
    (stroke (width 0) (type default) (color 0 0 0 0))
    (uuid 52bc4fd8-74fa-4e42-ad59-8ac59ebe7534)
  )
  (wire (pts (xy 149.86 128.27) (xy 152.4 128.27))
    (stroke (width 0) (type default) (color 0 0 0 0))
    (uuid 54781ef4-d98b-4ae5-812c-5d1777c60dce)
  )
  (wire (pts (xy 147.32 125.73) (xy 149.86 125.73))
    (stroke (width 0) (type default) (color 0 0 0 0))
    (uuid 587da108-bf60-4e29-a472-40640a8160e9)
  )
  (wire (pts (xy 99.06 105.41) (xy 121.92 105.41))
    (stroke (width 0) (type default) (color 0 0 0 0))
    (uuid 594b8e81-2d6c-4577-b0f3-0b1310e0180f)
  )
  (wire (pts (xy 173.99 58.42) (xy 173.99 60.96))
    (stroke (width 0) (type default) (color 0 0 0 0))
    (uuid 5c0108ae-a553-44a8-ac9e-6b0fa2b727e9)
  )
  (wire (pts (xy 149.86 110.49) (xy 149.86 113.03))
    (stroke (width 0) (type default) (color 0 0 0 0))
    (uuid 60f1d06e-19fc-4fd5-acfc-57e6b90cc68b)
  )
  (wire (pts (xy 142.24 66.04) (xy 119.38 66.04))
    (stroke (width 0) (type default) (color 0 0 0 0))
    (uuid 6258dd11-23b5-4877-b4b6-90cb2081cfbe)
  )
  (wire (pts (xy 99.06 105.41) (xy 99.06 109.22))
    (stroke (width 0) (type default) (color 0 0 0 0))
    (uuid 62a5c96e-f55e-4df2-a7d7-a4c9910a0fcf)
  )
  (wire (pts (xy 128.27 55.88) (xy 125.73 55.88))
    (stroke (width 0) (type default) (color 0 0 0 0))
    (uuid 6863f4de-b99d-490e-aa1e-7bd8905f1c7d)
  )
  (wire (pts (xy 226.06 103.505) (xy 227.33 103.505))
    (stroke (width 0) (type default) (color 0 0 0 0))
    (uuid 69c47f22-2cbd-4be9-b195-0f45c5e0acf3)
  )
  (wire (pts (xy 173.99 107.95) (xy 171.45 107.95))
    (stroke (width 0) (type default) (color 0 0 0 0))
    (uuid 6a1b0360-80d3-433a-8020-441b743bbc07)
  )
  (wire (pts (xy 162.56 73.66) (xy 162.56 72.39))
    (stroke (width 0) (type default) (color 0 0 0 0))
    (uuid 6b75b460-9207-436a-9387-30c5455bee00)
  )
  (wire (pts (xy 121.92 105.41) (xy 121.92 107.95))
    (stroke (width 0) (type default) (color 0 0 0 0))
    (uuid 728dc686-e791-45d5-88a6-f75133804afc)
  )
  (wire (pts (xy 128.27 63.5) (xy 128.27 55.88))
    (stroke (width 0) (type default) (color 0 0 0 0))
    (uuid 75072883-b11d-4c8c-a07e-e5cec92fd8ce)
  )
  (wire (pts (xy 160.02 39.37) (xy 160.02 48.26))
    (stroke (width 0) (type default) (color 0 0 0 0))
    (uuid 75f2870c-086d-4bb5-b7c6-e85cea1de9f0)
  )
  (wire (pts (xy 196.85 72.39) (xy 196.85 74.93))
    (stroke (width 0) (type default) (color 0 0 0 0))
    (uuid 7735c12b-4c13-40f3-b38c-f412f39a810f)
  )
  (wire (pts (xy 184.15 72.39) (xy 186.69 72.39))
    (stroke (width 0) (type default) (color 0 0 0 0))
    (uuid 7ac43fb2-a2b2-43e9-a43d-9519fa9733d4)
  )
  (wire (pts (xy 118.11 55.88) (xy 111.76 55.88))
    (stroke (width 0) (type default) (color 0 0 0 0))
    (uuid 7f7c65f1-87c6-42b7-a52c-43677ff54b30)
  )
  (wire (pts (xy 163.83 48.26) (xy 160.02 48.26))
    (stroke (width 0) (type default) (color 0 0 0 0))
    (uuid 88dd1632-590c-4784-9fe6-b6549f547185)
  )
  (wire (pts (xy 171.45 138.43) (xy 171.45 143.51))
    (stroke (width 0) (type default) (color 0 0 0 0))
    (uuid 8b6616a2-0807-4a73-984d-dccb6f37bc1c)
  )
  (wire (pts (xy 99.06 116.84) (xy 99.06 135.89))
    (stroke (width 0) (type default) (color 0 0 0 0))
    (uuid 8f888b3e-763f-4f0f-84b4-173d66ed0277)
  )
  (wire (pts (xy 171.45 128.27) (xy 171.45 138.43))
    (stroke (width 0) (type default) (color 0 0 0 0))
    (uuid 94a38aa9-5f2a-4db0-944d-68160629ded9)
  )
  (wire (pts (xy 160.02 72.39) (xy 162.56 72.39))
    (stroke (width 0) (type default) (color 0 0 0 0))
    (uuid 96dcb160-b8ae-49c2-987a-ac4b690840d0)
  )
  (wire (pts (xy 171.45 48.26) (xy 173.99 48.26))
    (stroke (width 0) (type default) (color 0 0 0 0))
    (uuid 9de386f8-d845-4748-94b2-74d2838bc185)
  )
  (wire (pts (xy 119.38 76.2) (xy 125.73 76.2))
    (stroke (width 0) (type default) (color 0 0 0 0))
    (uuid a3ce8b7b-9174-40d7-9dfc-01e31559af5c)
  )
  (wire (pts (xy 140.97 72.39) (xy 160.02 72.39))
    (stroke (width 0) (type default) (color 0 0 0 0))
    (uuid a5171943-dc4f-465d-bbff-a5f6a80d7c76)
  )
  (wire (pts (xy 128.27 55.88) (xy 130.81 55.88))
    (stroke (width 0) (type default) (color 0 0 0 0))
    (uuid a7a2fd2f-2098-410d-89dc-d02e6c06261a)
  )
  (wire (pts (xy 160.02 48.26) (xy 160.02 58.42))
    (stroke (width 0) (type default) (color 0 0 0 0))
    (uuid add28b54-cd1c-45b0-9924-db4b3d5c0cae)
  )
  (wire (pts (xy 196.85 72.39) (xy 205.74 72.39))
    (stroke (width 0) (type default) (color 0 0 0 0))
    (uuid ae7f0b98-fd11-403c-bac5-c6013ed0171f)
  )
  (wire (pts (xy 189.23 125.73) (xy 191.77 125.73))
    (stroke (width 0) (type default) (color 0 0 0 0))
    (uuid aede2d0c-0336-42fe-85e2-2a1ac2113424)
  )
  (wire (pts (xy 191.77 125.73) (xy 198.12 125.73))
    (stroke (width 0) (type default) (color 0 0 0 0))
    (uuid afbafcb9-acb6-496c-84bc-cddb49ff9ba5)
  )
  (wire (pts (xy 205.74 72.39) (xy 205.74 93.345))
    (stroke (width 0) (type default) (color 0 0 0 0))
    (uuid b172801c-a9e5-476e-b7aa-639f9ef5adfe)
  )
  (wire (pts (xy 140.97 55.88) (xy 140.97 72.39))
    (stroke (width 0) (type default) (color 0 0 0 0))
    (uuid b6bca133-1ecf-4ffa-beb4-5e730564911d)
  )
  (wire (pts (xy 171.45 58.42) (xy 173.99 58.42))
    (stroke (width 0) (type default) (color 0 0 0 0))
    (uuid b82cf38d-d147-47d5-906d-d291bece282c)
  )
  (wire (pts (xy 147.32 48.26) (xy 147.32 50.8))
    (stroke (width 0) (type default) (color 0 0 0 0))
    (uuid b8565440-e06d-4d80-a82d-6dee5864731b)
  )
  (wire (pts (xy 99.06 55.88) (xy 99.06 58.42))
    (stroke (width 0) (type default) (color 0 0 0 0))
    (uuid ba54bc51-55f1-47ef-93d6-117d277379ed)
  )
  (wire (pts (xy 189.23 110.49) (xy 191.77 110.49))
    (stroke (width 0) (type default) (color 0 0 0 0))
    (uuid bb637459-41a1-407d-9a1d-dc037974c416)
  )
  (wire (pts (xy 162.56 58.42) (xy 160.02 58.42))
    (stroke (width 0) (type default) (color 0 0 0 0))
    (uuid bde63765-fe15-4b71-8ee0-98cc952b0eab)
  )
  (wire (pts (xy 162.56 72.39) (xy 176.53 72.39))
    (stroke (width 0) (type default) (color 0 0 0 0))
    (uuid c152596c-3845-4219-bdc9-7a526409cc3e)
  )
  (wire (pts (xy 101.6 55.88) (xy 99.06 55.88))
    (stroke (width 0) (type default) (color 0 0 0 0))
    (uuid c4300a57-b54a-44cb-a75c-a4b019e2bc7e)
  )
  (wire (pts (xy 149.86 125.73) (xy 149.86 128.27))
    (stroke (width 0) (type default) (color 0 0 0 0))
    (uuid c509d16f-d365-4905-b5b3-3e3aff7807f6)
  )
  (wire (pts (xy 186.69 72.39) (xy 196.85 72.39))
    (stroke (width 0) (type default) (color 0 0 0 0))
    (uuid c7d3a439-fe0c-4383-90d9-d6481c74cdb4)
  )
  (wire (pts (xy 205.74 137.16) (xy 205.74 130.81))
    (stroke (width 0) (type default) (color 0 0 0 0))
    (uuid c91cb317-9819-4ebc-8b28-d7c7935c6afc)
  )
  (wire (pts (xy 121.92 133.35) (xy 121.92 135.89))
    (stroke (width 0) (type default) (color 0 0 0 0))
    (uuid cb9e67f7-1a9c-4c1d-b1fd-54f32c699063)
  )
  (wire (pts (xy 149.86 66.04) (xy 152.4 66.04))
    (stroke (width 0) (type default) (color 0 0 0 0))
    (uuid ccb257ef-fed2-4f68-b3bb-70e316148be9)
  )
  (wire (pts (xy 160.02 83.82) (xy 160.02 86.36))
    (stroke (width 0) (type default) (color 0 0 0 0))
    (uuid cd69f76c-3471-4553-9975-a6ad8918c4b4)
  )
  (wire (pts (xy 227.33 103.505) (xy 227.33 106.045))
    (stroke (width 0) (type default) (color 0 0 0 0))
    (uuid d0c904f7-5cfb-49fa-9662-a0a54cf43896)
  )
  (wire (pts (xy 171.45 143.51) (xy 173.99 143.51))
    (stroke (width 0) (type default) (color 0 0 0 0))
    (uuid d0e2f0c9-cd5f-4dae-b8b4-ad7cd136c653)
  )
  (wire (pts (xy 173.99 128.27) (xy 171.45 128.27))
    (stroke (width 0) (type default) (color 0 0 0 0))
    (uuid d224aa1d-9267-4eee-90f5-d8a4d94d52b4)
  )
  (wire (pts (xy 171.45 107.95) (xy 171.45 113.03))
    (stroke (width 0) (type default) (color 0 0 0 0))
    (uuid d91e1c00-233c-4ad4-8e55-9d55fac8f242)
  )
  (wire (pts (xy 171.45 113.03) (xy 171.45 123.19))
    (stroke (width 0) (type default) (color 0 0 0 0))
    (uuid deabe8f2-44d5-4290-9e34-87ee3479bbde)
  )
  (wire (pts (xy 119.38 78.74) (xy 142.24 78.74))
    (stroke (width 0) (type default) (color 0 0 0 0))
    (uuid e40fdd39-3982-40f8-b207-aaf361c670da)
  )
  (wire (pts (xy 191.77 125.73) (xy 191.77 140.97))
    (stroke (width 0) (type default) (color 0 0 0 0))
    (uuid e62868a4-8389-46c4-ad4c-bb51e21ee462)
  )
  (wire (pts (xy 111.76 55.88) (xy 111.76 58.42))
    (stroke (width 0) (type default) (color 0 0 0 0))
    (uuid e66b560b-fc95-4819-9774-149e2145130c)
  )
  (wire (pts (xy 173.99 48.26) (xy 173.99 50.8))
    (stroke (width 0) (type default) (color 0 0 0 0))
    (uuid eb1dbc0f-8843-4c4b-baa4-304d9534ce8c)
  )
  (wire (pts (xy 121.92 102.87) (xy 121.92 105.41))
    (stroke (width 0) (type default) (color 0 0 0 0))
    (uuid ec02339e-41f6-4d4d-b5a5-3b5ed5da5126)
  )
  (wire (pts (xy 173.99 113.03) (xy 171.45 113.03))
    (stroke (width 0) (type default) (color 0 0 0 0))
    (uuid ed3352d7-8836-44f7-97cf-4232c98d3328)
  )
  (wire (pts (xy 173.99 123.19) (xy 171.45 123.19))
    (stroke (width 0) (type default) (color 0 0 0 0))
    (uuid f41fab38-0d23-4920-8bb1-84a792f8fc44)
  )
  (wire (pts (xy 157.48 48.26) (xy 160.02 48.26))
    (stroke (width 0) (type default) (color 0 0 0 0))
    (uuid fbcaee3e-6f13-4a63-98cd-7a269fef564b)
  )
  (wire (pts (xy 191.77 110.49) (xy 191.77 125.73))
    (stroke (width 0) (type default) (color 0 0 0 0))
    (uuid fdcbe7cc-6d52-40b8-befd-df882b8e059b)
  )
  (wire (pts (xy 111.76 53.34) (xy 111.76 55.88))
    (stroke (width 0) (type default) (color 0 0 0 0))
    (uuid ff1ae2bc-2c31-4f28-8548-351bdd3fc5c2)
  )

  (hierarchical_label "RX3V" (shape input) (at 99.06 73.66 180)
    (effects (font (size 1.27 1.27)) (justify right))
    (uuid 1bd25e72-95e0-4490-9ede-e0f0d01a60c6)
  )
  (hierarchical_label "CLK" (shape input) (at 147.32 125.73 180)
    (effects (font (size 1.27 1.27)) (justify right))
    (uuid 57181ed3-f9da-459d-9a58-39936f5f0e87)
  )
  (hierarchical_label "OUT" (shape output) (at 227.965 93.345 0)
    (effects (font (size 1.27 1.27)) (justify left))
    (uuid 696ed5c2-48ea-41c0-a4a9-c365c8457aec)
  )
  (hierarchical_label "PWM" (shape input) (at 99.06 71.12 180)
    (effects (font (size 1.27 1.27)) (justify right))
    (uuid e1f04dff-72b1-4d21-af5e-0b080387872a)
  )

  (symbol (lib_id "Device:C") (at 134.62 55.88 90) (unit 1)
    (in_bom yes) (on_board yes)
    (uuid 00000000-0000-0000-0000-00005fc9081f)
    (property "Reference" "C204" (id 0) (at 134.62 49.4792 90))
    (property "Value" "1u" (id 1) (at 134.62 51.7906 90))
    (property "Footprint" "Capacitor_SMD:C_1206_3216Metric_Pad1.33x1.80mm_HandSolder" (id 2) (at 138.43 54.9148 0)
      (effects (font (size 1.27 1.27)) hide)
    )
    (property "Datasheet" "~" (id 3) (at 134.62 55.88 0)
      (effects (font (size 1.27 1.27)) hide)
    )
    (pin "1" (uuid 65b55936-87a9-4205-9167-dd36df4c497f))
    (pin "2" (uuid d60c8ff1-7b61-4a73-9bc0-042389ade691))
  )

  (symbol (lib_id "Device:R") (at 146.05 66.04 270) (unit 1)
    (in_bom yes) (on_board yes)
    (uuid 00000000-0000-0000-0000-00005fc9c617)
    (property "Reference" "R201" (id 0) (at 146.05 60.7822 90))
    (property "Value" "33" (id 1) (at 146.05 63.0936 90))
    (property "Footprint" "Resistor_SMD:R_1206_3216Metric_Pad1.30x1.75mm_HandSolder" (id 2) (at 146.05 64.262 90)
      (effects (font (size 1.27 1.27)) hide)
    )
    (property "Datasheet" "~" (id 3) (at 146.05 66.04 0)
      (effects (font (size 1.27 1.27)) hide)
    )
    (pin "1" (uuid c96c3f7c-7ad3-4d54-bdb9-bab35c170c41))
    (pin "2" (uuid eb993c97-7355-4de4-a9db-eb29ed617c16))
  )

  (symbol (lib_id "Device:R") (at 146.05 78.74 270) (unit 1)
    (in_bom yes) (on_board yes)
    (uuid 00000000-0000-0000-0000-00005fc9cc9a)
    (property "Reference" "R202" (id 0) (at 146.05 73.4822 90))
    (property "Value" "33" (id 1) (at 146.05 75.7936 90))
    (property "Footprint" "Resistor_SMD:R_1206_3216Metric_Pad1.30x1.75mm_HandSolder" (id 2) (at 146.05 76.962 90)
      (effects (font (size 1.27 1.27)) hide)
    )
    (property "Datasheet" "~" (id 3) (at 146.05 78.74 0)
      (effects (font (size 1.27 1.27)) hide)
    )
    (pin "1" (uuid 46247f9c-1d4c-4056-9b7c-a5c52a95b71d))
    (pin "2" (uuid 3b0a218b-5a32-4119-9c4d-3dbea4707bc3))
  )

  (symbol (lib_id "power:GND") (at 160.02 86.36 0) (unit 1)
    (in_bom yes) (on_board yes)
    (uuid 00000000-0000-0000-0000-00005fc9f0dc)
    (property "Reference" "#PWR0210" (id 0) (at 160.02 92.71 0)
      (effects (font (size 1.27 1.27)) hide)
    )
    (property "Value" "GND" (id 1) (at 160.147 90.7542 0))
    (property "Footprint" "" (id 2) (at 160.02 86.36 0)
      (effects (font (size 1.27 1.27)) hide)
    )
    (property "Datasheet" "" (id 3) (at 160.02 86.36 0)
      (effects (font (size 1.27 1.27)) hide)
    )
    (pin "1" (uuid e5b04f48-644a-4512-bb71-692d4144aa98))
  )

  (symbol (lib_id "Device:C") (at 186.69 78.74 0) (unit 1)
    (in_bom yes) (on_board yes)
    (uuid 00000000-0000-0000-0000-00005fca13b9)
    (property "Reference" "C208" (id 0) (at 189.611 77.5716 0)
      (effects (font (size 1.27 1.27)) (justify left))
    )
    (property "Value" "680n" (id 1) (at 189.611 79.883 0)
      (effects (font (size 1.27 1.27)) (justify left))
    )
    (property "Footprint" "Capacitor_SMD:C_1206_3216Metric_Pad1.33x1.80mm_HandSolder" (id 2) (at 187.6552 82.55 0)
      (effects (font (size 1.27 1.27)) hide)
    )
    (property "Datasheet" "~" (id 3) (at 186.69 78.74 0)
      (effects (font (size 1.27 1.27)) hide)
    )
    (pin "1" (uuid fd24ebf2-3a63-403e-bff6-e621e006744a))
    (pin "2" (uuid 4eb4219c-52c0-4e7f-b545-e71d5149becb))
  )

  (symbol (lib_id "power:GND") (at 186.69 86.36 0) (unit 1)
    (in_bom yes) (on_board yes)
    (uuid 00000000-0000-0000-0000-00005fca7e53)
    (property "Reference" "#PWR0214" (id 0) (at 186.69 92.71 0)
      (effects (font (size 1.27 1.27)) hide)
    )
    (property "Value" "GND" (id 1) (at 186.817 90.7542 0))
    (property "Footprint" "" (id 2) (at 186.69 86.36 0)
      (effects (font (size 1.27 1.27)) hide)
    )
    (property "Datasheet" "" (id 3) (at 186.69 86.36 0)
      (effects (font (size 1.27 1.27)) hide)
    )
    (pin "1" (uuid 8b595a7b-c90b-4006-a279-5ac04b15b757))
  )

  (symbol (lib_id "power:GND") (at 173.99 60.96 0) (unit 1)
    (in_bom yes) (on_board yes)
    (uuid 00000000-0000-0000-0000-00005fcb1605)
    (property "Reference" "#PWR0213" (id 0) (at 173.99 67.31 0)
      (effects (font (size 1.27 1.27)) hide)
    )
    (property "Value" "GND" (id 1) (at 174.117 65.3542 0))
    (property "Footprint" "" (id 2) (at 173.99 60.96 0)
      (effects (font (size 1.27 1.27)) hide)
    )
    (property "Datasheet" "" (id 3) (at 173.99 60.96 0)
      (effects (font (size 1.27 1.27)) hide)
    )
    (pin "1" (uuid fb098ab0-cc1b-49f6-b75c-fd3771e8e4ce))
  )

  (symbol (lib_id "Device:C") (at 196.85 78.74 0) (unit 1)
    (in_bom yes) (on_board yes)
    (uuid 00000000-0000-0000-0000-00005fcb419e)
    (property "Reference" "C209" (id 0) (at 199.771 77.5716 0)
      (effects (font (size 1.27 1.27)) (justify left))
    )
    (property "Value" "100p" (id 1) (at 199.771 79.883 0)
      (effects (font (size 1.27 1.27)) (justify left))
    )
    (property "Footprint" "Capacitor_SMD:C_1206_3216Metric_Pad1.33x1.80mm_HandSolder" (id 2) (at 197.8152 82.55 0)
      (effects (font (size 1.27 1.27)) hide)
    )
    (property "Datasheet" "~" (id 3) (at 196.85 78.74 0)
      (effects (font (size 1.27 1.27)) hide)
    )
    (pin "1" (uuid cddfe375-da78-4242-bcc5-b4230a4c10a0))
    (pin "2" (uuid e805073e-6250-4592-90ba-425ea70d91c5))
  )

  (symbol (lib_id "power:GND") (at 196.85 86.36 0) (unit 1)
    (in_bom yes) (on_board yes)
    (uuid 00000000-0000-0000-0000-00005fcb6c0b)
    (property "Reference" "#PWR0215" (id 0) (at 196.85 92.71 0)
      (effects (font (size 1.27 1.27)) hide)
    )
    (property "Value" "GND" (id 1) (at 196.977 90.7542 0))
    (property "Footprint" "" (id 2) (at 196.85 86.36 0)
      (effects (font (size 1.27 1.27)) hide)
    )
    (property "Datasheet" "" (id 3) (at 196.85 86.36 0)
      (effects (font (size 1.27 1.27)) hide)
    )
    (pin "1" (uuid f3f0c6fd-ba4f-49ef-af99-fd4d69b174d6))
  )

  (symbol (lib_id "power:GND") (at 205.74 137.16 0) (unit 1)
    (in_bom yes) (on_board yes)
    (uuid 00000000-0000-0000-0000-00005fcca9fe)
    (property "Reference" "#PWR0216" (id 0) (at 205.74 143.51 0)
      (effects (font (size 1.27 1.27)) hide)
    )
    (property "Value" "GND" (id 1) (at 205.867 141.5542 0))
    (property "Footprint" "" (id 2) (at 205.74 137.16 0)
      (effects (font (size 1.27 1.27)) hide)
    )
    (property "Datasheet" "" (id 3) (at 205.74 137.16 0)
      (effects (font (size 1.27 1.27)) hide)
    )
    (pin "1" (uuid feb625c2-0cf4-4af6-9ec1-da7c82d030f9))
  )

  (symbol (lib_id "Device:C") (at 167.64 48.26 270) (unit 1)
    (in_bom yes) (on_board yes)
    (uuid 00000000-0000-0000-0000-00005fd36afe)
    (property "Reference" "C206" (id 0) (at 167.64 41.8592 90))
    (property "Value" "100n" (id 1) (at 167.64 44.1706 90))
    (property "Footprint" "Capacitor_SMD:C_1206_3216Metric_Pad1.33x1.80mm_HandSolder" (id 2) (at 163.83 49.2252 0)
      (effects (font (size 1.27 1.27)) hide)
    )
    (property "Datasheet" "~" (id 3) (at 167.64 48.26 0)
      (effects (font (size 1.27 1.27)) hide)
    )
    (pin "1" (uuid 19685f81-5f21-4e59-a27e-c934c719c643))
    (pin "2" (uuid 2167bc5d-b2ea-459d-8f6c-6a9901d13526))
  )

  (symbol (lib_id "power:GND") (at 173.99 50.8 0) (unit 1)
    (in_bom yes) (on_board yes)
    (uuid 00000000-0000-0000-0000-00005fd375f5)
    (property "Reference" "#PWR0212" (id 0) (at 173.99 57.15 0)
      (effects (font (size 1.27 1.27)) hide)
    )
    (property "Value" "GND" (id 1) (at 174.117 55.1942 0))
    (property "Footprint" "" (id 2) (at 173.99 50.8 0)
      (effects (font (size 1.27 1.27)) hide)
    )
    (property "Datasheet" "" (id 3) (at 173.99 50.8 0)
      (effects (font (size 1.27 1.27)) hide)
    )
    (pin "1" (uuid 1f7ded4d-0ef6-4aa5-b044-70651547d028))
  )

  (symbol (lib_id "power:GND") (at 111.76 86.36 0) (unit 1)
    (in_bom yes) (on_board yes)
    (uuid 00000000-0000-0000-0000-00005fd50f6e)
    (property "Reference" "#PWR0205" (id 0) (at 111.76 92.71 0)
      (effects (font (size 1.27 1.27)) hide)
    )
    (property "Value" "GND" (id 1) (at 111.887 90.7542 0))
    (property "Footprint" "" (id 2) (at 111.76 86.36 0)
      (effects (font (size 1.27 1.27)) hide)
    )
    (property "Datasheet" "" (id 3) (at 111.76 86.36 0)
      (effects (font (size 1.27 1.27)) hide)
    )
    (pin "1" (uuid 084b1aed-1522-4b3d-9acc-109529f442be))
  )

  (symbol (lib_id "Driver_FET:IR2104") (at 111.76 71.12 0) (unit 1)
    (in_bom yes) (on_board yes)
    (uuid 00000000-0000-0000-0000-000060426193)
    (property "Reference" "U201" (id 0) (at 120.65 68.58 0))
    (property "Value" "IR2104" (id 1) (at 120.65 71.12 0))
    (property "Footprint" "Package_SO:SO-8_3.9x4.9mm_P1.27mm" (id 2) (at 111.76 71.12 0)
      (effects (font (size 1.27 1.27) italic) hide)
    )
    (property "Datasheet" "https://www.infineon.com/dgdl/ir2104.pdf?fileId=5546d462533600a4015355c7c1c31671" (id 3) (at 111.76 71.12 0)
      (effects (font (size 1.27 1.27)) hide)
    )
    (pin "1" (uuid 5d60ec06-4c03-47cd-a08d-40e1cf251b6a))
    (pin "2" (uuid bff94494-5c19-4359-86b9-dcbe5d84cd71))
    (pin "3" (uuid 511b93ed-f28c-44e2-a4b1-e9e519dd74f2))
    (pin "4" (uuid 0a2529a4-907d-492c-8e31-11879ac0a66f))
    (pin "5" (uuid 220d1745-badb-4de5-ab85-35c2ce393ecb))
    (pin "6" (uuid 3c2efb14-cb50-444a-b482-6157cd5577ff))
    (pin "7" (uuid 11e838b1-b029-46ef-9fd4-346e830bfc1b))
    (pin "8" (uuid 12885849-3a5b-4358-bdbe-c6c36c0793ca))
  )

  (symbol (lib_id "Device:C") (at 153.67 48.26 270) (unit 1)
    (in_bom yes) (on_board yes)
    (uuid 00000000-0000-0000-0000-00006043754c)
    (property "Reference" "C205" (id 0) (at 153.67 41.8592 90))
    (property "Value" "1n" (id 1) (at 153.67 44.1706 90))
    (property "Footprint" "Capacitor_SMD:C_1206_3216Metric_Pad1.33x1.80mm_HandSolder" (id 2) (at 149.86 49.2252 0)
      (effects (font (size 1.27 1.27)) hide)
    )
    (property "Datasheet" "~" (id 3) (at 153.67 48.26 0)
      (effects (font (size 1.27 1.27)) hide)
    )
    (pin "1" (uuid c74e94dc-7623-4e93-b77e-20b16617d5ee))
    (pin "2" (uuid e30e37c4-856b-4345-aee8-f30b69a29ba1))
  )

  (symbol (lib_id "power:GND") (at 147.32 50.8 0) (unit 1)
    (in_bom yes) (on_board yes)
    (uuid 00000000-0000-0000-0000-0000604380b3)
    (property "Reference" "#PWR0208" (id 0) (at 147.32 57.15 0)
      (effects (font (size 1.27 1.27)) hide)
    )
    (property "Value" "GND" (id 1) (at 147.447 55.1942 0))
    (property "Footprint" "" (id 2) (at 147.32 50.8 0)
      (effects (font (size 1.27 1.27)) hide)
    )
    (property "Datasheet" "" (id 3) (at 147.32 50.8 0)
      (effects (font (size 1.27 1.27)) hide)
    )
    (pin "1" (uuid 6fdc0156-c6ca-4b1b-b874-42247e150d7d))
  )

  (symbol (lib_id "power:+12V") (at 111.76 53.34 0) (unit 1)
    (in_bom yes) (on_board yes)
    (uuid 00000000-0000-0000-0000-00006043f550)
    (property "Reference" "#PWR0204" (id 0) (at 111.76 57.15 0)
      (effects (font (size 1.27 1.27)) hide)
    )
    (property "Value" "+12V" (id 1) (at 112.141 48.9458 0))
    (property "Footprint" "" (id 2) (at 111.76 53.34 0)
      (effects (font (size 1.27 1.27)) hide)
    )
    (property "Datasheet" "" (id 3) (at 111.76 53.34 0)
      (effects (font (size 1.27 1.27)) hide)
    )
    (pin "1" (uuid 04711892-aec9-4f35-9d8a-3bd7dd6c9ed4))
  )

  (symbol (lib_id "Device:C") (at 105.41 55.88 270) (unit 1)
    (in_bom yes) (on_board yes)
    (uuid 00000000-0000-0000-0000-000060443893)
    (property "Reference" "C202" (id 0) (at 105.41 49.4792 90))
    (property "Value" "100n" (id 1) (at 105.41 51.7906 90))
    (property "Footprint" "Capacitor_SMD:C_1206_3216Metric_Pad1.33x1.80mm_HandSolder" (id 2) (at 101.6 56.8452 0)
      (effects (font (size 1.27 1.27)) hide)
    )
    (property "Datasheet" "~" (id 3) (at 105.41 55.88 0)
      (effects (font (size 1.27 1.27)) hide)
    )
    (pin "1" (uuid 0a468735-63d4-4e30-a2a2-6a6745c78416))
    (pin "2" (uuid 94fd1f74-d65f-4867-99b9-45c8691b542a))
  )

  (symbol (lib_id "power:GND") (at 99.06 58.42 0) (unit 1)
    (in_bom yes) (on_board yes)
    (uuid 00000000-0000-0000-0000-000060443df9)
    (property "Reference" "#PWR0201" (id 0) (at 99.06 64.77 0)
      (effects (font (size 1.27 1.27)) hide)
    )
    (property "Value" "GND" (id 1) (at 99.187 62.8142 0))
    (property "Footprint" "" (id 2) (at 99.06 58.42 0)
      (effects (font (size 1.27 1.27)) hide)
    )
    (property "Datasheet" "" (id 3) (at 99.06 58.42 0)
      (effects (font (size 1.27 1.27)) hide)
    )
    (pin "1" (uuid 93dce23f-1bf6-4b37-bf3f-a197d9db7c25))
  )

  (symbol (lib_id "Device:Q_NMOS_GDSD") (at 157.48 66.04 0) (unit 1)
    (in_bom yes) (on_board yes)
    (uuid 00000000-0000-0000-0000-000060457b37)
    (property "Reference" "Q201" (id 0) (at 164.7952 64.8716 0)
      (effects (font (size 1.27 1.27)) (justify left))
    )
    (property "Value" "IRFL110" (id 1) (at 164.7952 67.183 0)
      (effects (font (size 1.27 1.27)) (justify left))
    )
    (property "Footprint" "Package_TO_SOT_SMD:SOT-223-3_TabPin2" (id 2) (at 162.56 63.5 0)
      (effects (font (size 1.27 1.27)) hide)
    )
    (property "Datasheet" "~" (id 3) (at 157.48 66.04 0)
      (effects (font (size 1.27 1.27)) hide)
    )
    (pin "1" (uuid d616f66e-45d2-4b17-8f96-622a4902c999))
    (pin "2" (uuid e3a430e6-9432-407c-b496-db8bd65368c8))
    (pin "3" (uuid e08b015f-c58a-412f-a287-830ddd1dade3))
    (pin "4" (uuid ff06acb3-81ff-4561-b7e3-3b9aa0875d41))
  )

  (symbol (lib_id "Device:Q_NMOS_GDSD") (at 157.48 78.74 0) (unit 1)
    (in_bom yes) (on_board yes)
    (uuid 00000000-0000-0000-0000-0000604586da)
    (property "Reference" "Q202" (id 0) (at 164.7952 77.5716 0)
      (effects (font (size 1.27 1.27)) (justify left))
    )
    (property "Value" "IRFL110" (id 1) (at 164.7952 79.883 0)
      (effects (font (size 1.27 1.27)) (justify left))
    )
    (property "Footprint" "Package_TO_SOT_SMD:SOT-223-3_TabPin2" (id 2) (at 162.56 76.2 0)
      (effects (font (size 1.27 1.27)) hide)
    )
    (property "Datasheet" "~" (id 3) (at 157.48 78.74 0)
      (effects (font (size 1.27 1.27)) hide)
    )
    (pin "1" (uuid c3597ef2-d127-48ff-b925-4b81153b6f4c))
    (pin "2" (uuid 1f99ab6e-d34d-43b3-a158-808e98bc9e85))
    (pin "3" (uuid b7bce8f7-87af-4c66-bc5e-d7d21c5bd443))
    (pin "4" (uuid de96760b-a375-45d1-ad4f-cabc2d38a69c))
  )

  (symbol (lib_id "74xx:74HCT00") (at 181.61 110.49 0) (unit 1)
    (in_bom yes) (on_board yes)
    (uuid 00000000-0000-0000-0000-0000604b13ba)
    (property "Reference" "U202" (id 0) (at 181.61 102.235 0))
    (property "Value" "74HCT00" (id 1) (at 181.61 104.5464 0))
    (property "Footprint" "Package_SO:SOIC-14_3.9x8.7mm_P1.27mm" (id 2) (at 181.61 110.49 0)
      (effects (font (size 1.27 1.27)) hide)
    )
    (property "Datasheet" "http://www.ti.com/lit/gpn/sn74hct00" (id 3) (at 181.61 110.49 0)
      (effects (font (size 1.27 1.27)) hide)
    )
    (pin "1" (uuid fe03da22-39f0-413b-8fb9-ccdf8546fa7c))
    (pin "2" (uuid b3303035-fde0-436d-84e9-699a65dab0f8))
    (pin "3" (uuid e9c20614-454c-483d-a00c-b5b9fd74a7e5))
  )

  (symbol (lib_id "74xx:74HCT00") (at 181.61 125.73 0) (unit 2)
    (in_bom yes) (on_board yes)
    (uuid 00000000-0000-0000-0000-0000604ba0aa)
    (property "Reference" "U202" (id 0) (at 181.61 117.475 0))
    (property "Value" "74HCT00" (id 1) (at 181.61 119.7864 0))
    (property "Footprint" "Package_SO:SOIC-14_3.9x8.7mm_P1.27mm" (id 2) (at 181.61 125.73 0)
      (effects (font (size 1.27 1.27)) hide)
    )
    (property "Datasheet" "http://www.ti.com/lit/gpn/sn74hct00" (id 3) (at 181.61 125.73 0)
      (effects (font (size 1.27 1.27)) hide)
    )
    (pin "4" (uuid 7837896d-682e-4118-8800-06cffc472b3b))
    (pin "5" (uuid cad75c88-1662-4ffe-80d2-7302cd92fc82))
    (pin "6" (uuid 9e06b5ff-f58c-462b-80fb-0a5e8f51a6ee))
  )

  (symbol (lib_id "74xx:74HCT00") (at 181.61 140.97 0) (unit 3)
    (in_bom yes) (on_board yes)
    (uuid 00000000-0000-0000-0000-0000604bb7b0)
    (property "Reference" "U202" (id 0) (at 181.61 132.715 0))
    (property "Value" "74HCT00" (id 1) (at 181.61 135.0264 0))
    (property "Footprint" "Package_SO:SOIC-14_3.9x8.7mm_P1.27mm" (id 2) (at 181.61 140.97 0)
      (effects (font (size 1.27 1.27)) hide)
    )
    (property "Datasheet" "http://www.ti.com/lit/gpn/sn74hct00" (id 3) (at 181.61 140.97 0)
      (effects (font (size 1.27 1.27)) hide)
    )
    (pin "10" (uuid 9d5ecfbf-8bb6-40b7-9fb3-d18dd779b816))
    (pin "8" (uuid 613ce330-7cc0-4d9b-8a02-86adfe4e0ec2))
    (pin "9" (uuid 180f3360-14fa-4c56-bcb3-a8d2e39e8b14))
  )

  (symbol (lib_id "74xx:74HCT00") (at 160.02 125.73 0) (unit 4)
    (in_bom yes) (on_board yes)
    (uuid 00000000-0000-0000-0000-0000604bd4c6)
    (property "Reference" "U202" (id 0) (at 160.02 117.475 0))
    (property "Value" "74HCT00" (id 1) (at 160.02 119.7864 0))
    (property "Footprint" "Package_SO:SOIC-14_3.9x8.7mm_P1.27mm" (id 2) (at 160.02 125.73 0)
      (effects (font (size 1.27 1.27)) hide)
    )
    (property "Datasheet" "http://www.ti.com/lit/gpn/sn74hct00" (id 3) (at 160.02 125.73 0)
      (effects (font (size 1.27 1.27)) hide)
    )
    (pin "11" (uuid 1785199d-fa08-4967-ac55-7a642cb4ebb0))
    (pin "12" (uuid 40cb2244-aa79-463e-9505-e1e627ad26d1))
    (pin "13" (uuid 48ff315a-abf3-4bfb-b72a-81ea55e980b3))
  )

  (symbol (lib_id "74xx:74HCT00") (at 121.92 120.65 0) (unit 5)
    (in_bom yes) (on_board yes)
    (uuid 00000000-0000-0000-0000-0000611bac73)
    (property "Reference" "U202" (id 0) (at 127.762 119.4816 0)
      (effects (font (size 1.27 1.27)) (justify left))
    )
    (property "Value" "74HCT00" (id 1) (at 127.762 121.793 0)
      (effects (font (size 1.27 1.27)) (justify left))
    )
    (property "Footprint" "Package_SO:SOIC-14_3.9x8.7mm_P1.27mm" (id 2) (at 121.92 120.65 0)
      (effects (font (size 1.27 1.27)) hide)
    )
    (property "Datasheet" "http://www.ti.com/lit/gpn/sn74hct00" (id 3) (at 121.92 120.65 0)
      (effects (font (size 1.27 1.27)) hide)
    )
    (pin "14" (uuid c63b4145-50b0-4d24-bdad-6b641461fdf3))
    (pin "7" (uuid 58763f54-0229-43de-bf65-57830ca10078))
  )

  (symbol (lib_id "power:GND") (at 121.92 135.89 0) (unit 1)
    (in_bom yes) (on_board yes)
    (uuid 00000000-0000-0000-0000-0000611bac79)
    (property "Reference" "#PWR0207" (id 0) (at 121.92 142.24 0)
      (effects (font (size 1.27 1.27)) hide)
    )
    (property "Value" "GND" (id 1) (at 122.047 140.2842 0))
    (property "Footprint" "" (id 2) (at 121.92 135.89 0)
      (effects (font (size 1.27 1.27)) hide)
    )
    (property "Datasheet" "" (id 3) (at 121.92 135.89 0)
      (effects (font (size 1.27 1.27)) hide)
    )
    (pin "1" (uuid 6c5661c2-3583-47dc-b641-6f356d3a07f9))
  )

  (symbol (lib_id "Device:C") (at 99.06 113.03 0) (unit 1)
    (in_bom yes) (on_board yes)
    (uuid 00000000-0000-0000-0000-0000611d0414)
    (property "Reference" "C201" (id 0) (at 101.981 111.8616 0)
      (effects (font (size 1.27 1.27)) (justify left))
    )
    (property "Value" "100p" (id 1) (at 101.981 114.173 0)
      (effects (font (size 1.27 1.27)) (justify left))
    )
    (property "Footprint" "Capacitor_SMD:C_1206_3216Metric_Pad1.33x1.80mm_HandSolder" (id 2) (at 100.0252 116.84 0)
      (effects (font (size 1.27 1.27)) hide)
    )
    (property "Datasheet" "~" (id 3) (at 99.06 113.03 0)
      (effects (font (size 1.27 1.27)) hide)
    )
    (pin "1" (uuid 540d03e0-7f1c-417f-8c2e-f9ff78937a08))
    (pin "2" (uuid 3b5f8db3-9f39-47bf-9784-676a808e8edc))
  )

  (symbol (lib_id "power:GND") (at 99.06 135.89 0) (unit 1)
    (in_bom yes) (on_board yes)
    (uuid 00000000-0000-0000-0000-0000611d124b)
    (property "Reference" "#PWR0202" (id 0) (at 99.06 142.24 0)
      (effects (font (size 1.27 1.27)) hide)
    )
    (property "Value" "GND" (id 1) (at 99.187 140.2842 0))
    (property "Footprint" "" (id 2) (at 99.06 135.89 0)
      (effects (font (size 1.27 1.27)) hide)
    )
    (property "Datasheet" "" (id 3) (at 99.06 135.89 0)
      (effects (font (size 1.27 1.27)) hide)
    )
    (pin "1" (uuid 75f538cb-e26e-4bbc-84cc-0161d0e15aa6))
  )

  (symbol (lib_id "power:+5V") (at 121.92 102.87 0) (unit 1)
    (in_bom yes) (on_board yes)
    (uuid 00000000-0000-0000-0000-0000611e2489)
    (property "Reference" "#PWR0206" (id 0) (at 121.92 106.68 0)
      (effects (font (size 1.27 1.27)) hide)
    )
    (property "Value" "+5V" (id 1) (at 122.301 98.4758 0))
    (property "Footprint" "" (id 2) (at 121.92 102.87 0)
      (effects (font (size 1.27 1.27)) hide)
    )
    (property "Datasheet" "" (id 3) (at 121.92 102.87 0)
      (effects (font (size 1.27 1.27)) hide)
    )
    (pin "1" (uuid 64cd8657-2394-4828-a7e4-bc1235e91870))
  )

  (symbol (lib_id "Device:R") (at 149.86 116.84 0) (unit 1)
    (in_bom yes) (on_board yes)
    (uuid 00000000-0000-0000-0000-0000611eaad8)
    (property "Reference" "R203" (id 0) (at 151.638 115.6716 0)
      (effects (font (size 1.27 1.27)) (justify left))
    )
    (property "Value" "4.7k" (id 1) (at 151.638 117.983 0)
      (effects (font (size 1.27 1.27)) (justify left))
    )
    (property "Footprint" "Resistor_SMD:R_1206_3216Metric_Pad1.30x1.75mm_HandSolder" (id 2) (at 148.082 116.84 90)
      (effects (font (size 1.27 1.27)) hide)
    )
    (property "Datasheet" "~" (id 3) (at 149.86 116.84 0)
      (effects (font (size 1.27 1.27)) hide)
    )
    (pin "1" (uuid 3e849e4d-202d-4ec9-a232-2894d5fe3ae6))
    (pin "2" (uuid 77102f02-35fe-4aad-9920-b909e48a47af))
  )

  (symbol (lib_id "power:+5V") (at 149.86 110.49 0) (unit 1)
    (in_bom yes) (on_board yes)
    (uuid 00000000-0000-0000-0000-0000611eba96)
    (property "Reference" "#PWR0209" (id 0) (at 149.86 114.3 0)
      (effects (font (size 1.27 1.27)) hide)
    )
    (property "Value" "+5V" (id 1) (at 150.241 106.0958 0))
    (property "Footprint" "" (id 2) (at 149.86 110.49 0)
      (effects (font (size 1.27 1.27)) hide)
    )
    (property "Datasheet" "" (id 3) (at 149.86 110.49 0)
      (effects (font (size 1.27 1.27)) hide)
    )
    (pin "1" (uuid bdef026f-c62a-47ad-a8fc-622de1495af4))
  )

  (symbol (lib_id "Device:D_Schottky") (at 121.92 55.88 180) (unit 1)
    (in_bom yes) (on_board yes)
    (uuid 00000000-0000-0000-0000-00006121fcb2)
    (property "Reference" "D201" (id 0) (at 121.92 50.3936 0))
    (property "Value" "MBRS360T3G" (id 1) (at 121.92 52.705 0))
    (property "Footprint" "Diode_SMD:D_SMB_Handsoldering" (id 2) (at 121.92 55.88 0)
      (effects (font (size 1.27 1.27)) hide)
    )
    (property "Datasheet" "~" (id 3) (at 121.92 55.88 0)
      (effects (font (size 1.27 1.27)) hide)
    )
    (pin "1" (uuid 72fccb14-0920-4b63-b83e-df6dc943b427))
    (pin "2" (uuid 2a821dbd-4ed0-4509-95e3-b85dd2f05530))
  )

  (symbol (lib_id "power:GND") (at 227.33 106.045 0) (unit 1)
    (in_bom yes) (on_board yes)
    (uuid 0c274db7-e9b2-46f5-a2f7-6c16f7c12d3a)
    (property "Reference" "#PWR0217" (id 0) (at 227.33 112.395 0)
      (effects (font (size 1.27 1.27)) hide)
    )
    (property "Value" "GND" (id 1) (at 227.457 110.4392 0))
    (property "Footprint" "" (id 2) (at 227.33 106.045 0)
      (effects (font (size 1.27 1.27)) hide)
    )
    (property "Datasheet" "" (id 3) (at 227.33 106.045 0)
      (effects (font (size 1.27 1.27)) hide)
    )
    (pin "1" (uuid 60c345ef-c94c-426b-bdc8-20c3bfd87892))
  )

  (symbol (lib_id "Transistor_FET:IRLML2060") (at 203.2 125.73 0) (unit 1)
    (in_bom yes) (on_board yes) (fields_autoplaced)
    (uuid 1c1e0d5c-830f-474f-a81a-b4415ae4489e)
    (property "Reference" "Q203" (id 0) (at 209.55 124.4599 0)
      (effects (font (size 1.27 1.27)) (justify left))
    )
    (property "Value" "IRLML2060" (id 1) (at 209.55 126.9999 0)
      (effects (font (size 1.27 1.27)) (justify left))
    )
    (property "Footprint" "Package_TO_SOT_SMD:SOT-23" (id 2) (at 208.28 127.635 0)
      (effects (font (size 1.27 1.27) italic) (justify left) hide)
    )
    (property "Datasheet" "https://www.infineon.com/dgdl/irlml2060pbf.pdf?fileId=5546d462533600a401535664b7fb25ee" (id 3) (at 203.2 125.73 0)
      (effects (font (size 1.27 1.27)) (justify left) hide)
    )
    (pin "1" (uuid fe4d8876-60e7-4775-ae99-d0fe865aab07))
    (pin "2" (uuid 99a80dcc-7091-4caa-96b2-082794e71108))
    (pin "3" (uuid ace78d53-3987-4f19-aa52-97764186c5b1))
  )

  (symbol (lib_id "Device:Transformer_1P_SS") (at 215.9 98.425 0) (unit 1)
    (in_bom yes) (on_board yes) (fields_autoplaced)
    (uuid 422f0e87-ee6d-4e21-827c-ffdc46263471)
    (property "Reference" "T201" (id 0) (at 215.9127 87.63 0))
    (property "Value" "ECT4-1-2" (id 1) (at 215.9127 90.17 0))
    (property "Footprint" "elements:ETC4-1-2" (id 2) (at 215.9 98.425 0)
      (effects (font (size 1.27 1.27)) hide)
    )
    (property "Datasheet" "~" (id 3) (at 215.9 98.425 0)
      (effects (font (size 1.27 1.27)) hide)
    )
    (pin "1" (uuid 2f7fcb1c-3197-40b1-bbc1-17d3b943aa7d))
    (pin "2" (uuid dae662bd-3130-4b02-9d4a-363f376f480f))
    (pin "3" (uuid f59f1afa-9285-4898-bdb5-dcaae4e101d4))
    (pin "4" (uuid 49a54aea-f7fa-4839-8602-6d5b494359ac))
    (pin "5" (uuid c13a456b-6f92-45f9-9362-a5d7b8efe9a9))
  )

  (symbol (lib_id "Device:C_Polarized") (at 167.64 58.42 90) (unit 1)
    (in_bom yes) (on_board yes)
    (uuid b8be7d38-a474-420b-97f3-f713b524e263)
    (property "Reference" "C207" (id 0) (at 167.64 52.705 90))
    (property "Value" "10u" (id 1) (at 167.64 54.61 90))
    (property "Footprint" "Capacitor_SMD:CP_Elec_4x5.4" (id 2) (at 171.45 57.4548 0)
      (effects (font (size 1.27 1.27)) hide)
    )
    (property "Datasheet" "~" (id 3) (at 167.64 58.42 0)
      (effects (font (size 1.27 1.27)) hide)
    )
    (pin "1" (uuid 602c5469-dbdd-462b-b8a9-809134f69468))
    (pin "2" (uuid 9b547084-c7e0-40c4-9e5b-1b70bd77fc6f))
  )

  (symbol (lib_id "Device:L_Ferrite") (at 180.34 72.39 90) (unit 1)
    (in_bom yes) (on_board yes) (fields_autoplaced)
    (uuid d02320ec-89c1-46de-b378-843ac7a32598)
    (property "Reference" "L202" (id 0) (at 180.34 66.04 90))
    (property "Value" "27u" (id 1) (at 180.34 68.58 90))
    (property "Footprint" "elements:L_Fastron_PIS4720" (id 2) (at 180.34 72.39 0)
      (effects (font (size 1.27 1.27)) hide)
    )
    (property "Datasheet" "~" (id 3) (at 180.34 72.39 0)
      (effects (font (size 1.27 1.27)) hide)
    )
    (pin "1" (uuid cdd7b559-b19d-4818-bfb3-406681a3b3fe))
    (pin "2" (uuid 81530d4e-6dd6-4235-a89f-45f641b6f7b6))
  )

  (symbol (lib_id "power:VCC") (at 160.02 39.37 0) (unit 1)
    (in_bom yes) (on_board yes) (fields_autoplaced)
    (uuid e4aeb7b8-62e7-4ee8-b2a8-bbc9f74c434d)
    (property "Reference" "#PWR0211" (id 0) (at 160.02 43.18 0)
      (effects (font (size 1.27 1.27)) hide)
    )
    (property "Value" "VCC" (id 1) (at 160.02 33.655 0))
    (property "Footprint" "" (id 2) (at 160.02 39.37 0)
      (effects (font (size 1.27 1.27)) hide)
    )
    (property "Datasheet" "" (id 3) (at 160.02 39.37 0)
      (effects (font (size 1.27 1.27)) hide)
    )
    (pin "1" (uuid 5d92586c-cbb9-4955-939c-4878b886b8ea))
  )
)
