(kicad_sch (version 20211123) (generator eeschema)

  (uuid eeb90561-d8e5-4bee-b133-a2115735c904)

  (paper "A4")

  (title_block
    (title "QRP SDR TRX Prototype")
    (date "2021-07-28")
    (rev "0")
    (company "DM3MAT")
  )

  (lib_symbols
    (symbol "Connector:AudioJack2_Ground_Switch" (in_bom yes) (on_board yes)
      (property "Reference" "J" (id 0) (at 0 11.43 0)
        (effects (font (size 1.27 1.27)))
      )
      (property "Value" "AudioJack2_Ground_Switch" (id 1) (at 0 8.89 0)
        (effects (font (size 1.27 1.27)))
      )
      (property "Footprint" "" (id 2) (at 0 5.08 0)
        (effects (font (size 1.27 1.27)) hide)
      )
      (property "Datasheet" "~" (id 3) (at 0 5.08 0)
        (effects (font (size 1.27 1.27)) hide)
      )
      (property "ki_keywords" "audio jack receptacle mono headphones phone TS connector" (id 4) (at 0 0 0)
        (effects (font (size 1.27 1.27)) hide)
      )
      (property "ki_description" "Audio Jack, 2 Poles (Mono / TS), Grounded Sleeve, Switched Pole (Normalling)" (id 5) (at 0 0 0)
        (effects (font (size 1.27 1.27)) hide)
      )
      (property "ki_fp_filters" "Jack*" (id 6) (at 0 0 0)
        (effects (font (size 1.27 1.27)) hide)
      )
      (symbol "AudioJack2_Ground_Switch_0_1"
        (rectangle (start -2.54 -2.54) (end -3.81 0)
          (stroke (width 0.254) (type default) (color 0 0 0 0))
          (fill (type outline))
        )
        (rectangle (start 2.54 6.35) (end -2.54 -5.08)
          (stroke (width 0.254) (type default) (color 0 0 0 0))
          (fill (type background))
        )
      )
      (symbol "AudioJack2_Ground_Switch_1_1"
        (polyline
          (pts
            (xy 0.635 4.826)
            (xy 0.889 4.318)
          )
          (stroke (width 0) (type default) (color 0 0 0 0))
          (fill (type none))
        )
        (polyline
          (pts
            (xy 1.778 -0.254)
            (xy 2.032 -0.762)
          )
          (stroke (width 0) (type default) (color 0 0 0 0))
          (fill (type none))
        )
        (polyline
          (pts
            (xy 0 0)
            (xy 0.635 -0.635)
            (xy 1.27 0)
            (xy 2.54 0)
          )
          (stroke (width 0.254) (type default) (color 0 0 0 0))
          (fill (type none))
        )
        (polyline
          (pts
            (xy 2.54 -2.54)
            (xy 1.778 -2.54)
            (xy 1.778 -0.254)
            (xy 1.524 -0.762)
          )
          (stroke (width 0) (type default) (color 0 0 0 0))
          (fill (type none))
        )
        (polyline
          (pts
            (xy 2.54 2.54)
            (xy 0.635 2.54)
            (xy 0.635 4.826)
            (xy 0.381 4.318)
          )
          (stroke (width 0) (type default) (color 0 0 0 0))
          (fill (type none))
        )
        (polyline
          (pts
            (xy 2.54 5.08)
            (xy -0.635 5.08)
            (xy -0.635 0)
            (xy -1.27 -0.635)
            (xy -1.905 0)
          )
          (stroke (width 0.254) (type default) (color 0 0 0 0))
          (fill (type none))
        )
        (pin passive line (at 0 -7.62 90) (length 2.54)
          (name "~" (effects (font (size 1.27 1.27))))
          (number "G" (effects (font (size 1.27 1.27))))
        )
        (pin passive line (at 5.08 5.08 180) (length 2.54)
          (name "~" (effects (font (size 1.27 1.27))))
          (number "S" (effects (font (size 1.27 1.27))))
        )
        (pin passive line (at 5.08 2.54 180) (length 2.54)
          (name "~" (effects (font (size 1.27 1.27))))
          (number "SN" (effects (font (size 1.27 1.27))))
        )
        (pin passive line (at 5.08 0 180) (length 2.54)
          (name "~" (effects (font (size 1.27 1.27))))
          (number "T" (effects (font (size 1.27 1.27))))
        )
        (pin passive line (at 5.08 -2.54 180) (length 2.54)
          (name "~" (effects (font (size 1.27 1.27))))
          (number "TN" (effects (font (size 1.27 1.27))))
        )
      )
    )
    (symbol "Connector:Conn_Coaxial" (pin_names (offset 1.016) hide) (in_bom yes) (on_board yes)
      (property "Reference" "J" (id 0) (at 0.254 3.048 0)
        (effects (font (size 1.27 1.27)))
      )
      (property "Value" "Conn_Coaxial" (id 1) (at 2.921 0 90)
        (effects (font (size 1.27 1.27)))
      )
      (property "Footprint" "" (id 2) (at 0 0 0)
        (effects (font (size 1.27 1.27)) hide)
      )
      (property "Datasheet" " ~" (id 3) (at 0 0 0)
        (effects (font (size 1.27 1.27)) hide)
      )
      (property "ki_keywords" "BNC SMA SMB SMC LEMO coaxial connector CINCH RCA" (id 4) (at 0 0 0)
        (effects (font (size 1.27 1.27)) hide)
      )
      (property "ki_description" "coaxial connector (BNC, SMA, SMB, SMC, Cinch/RCA, LEMO, ...)" (id 5) (at 0 0 0)
        (effects (font (size 1.27 1.27)) hide)
      )
      (property "ki_fp_filters" "*BNC* *SMA* *SMB* *SMC* *Cinch* *LEMO*" (id 6) (at 0 0 0)
        (effects (font (size 1.27 1.27)) hide)
      )
      (symbol "Conn_Coaxial_0_1"
        (arc (start -1.778 -0.508) (mid 0.222 -1.808) (end 1.778 0)
          (stroke (width 0.254) (type default) (color 0 0 0 0))
          (fill (type none))
        )
        (polyline
          (pts
            (xy -2.54 0)
            (xy -0.508 0)
          )
          (stroke (width 0) (type default) (color 0 0 0 0))
          (fill (type none))
        )
        (polyline
          (pts
            (xy 0 -2.54)
            (xy 0 -1.778)
          )
          (stroke (width 0) (type default) (color 0 0 0 0))
          (fill (type none))
        )
        (circle (center 0 0) (radius 0.508)
          (stroke (width 0.2032) (type default) (color 0 0 0 0))
          (fill (type none))
        )
        (arc (start 1.778 0) (mid 0.222 1.8083) (end -1.778 0.508)
          (stroke (width 0.254) (type default) (color 0 0 0 0))
          (fill (type none))
        )
      )
      (symbol "Conn_Coaxial_1_1"
        (pin passive line (at -5.08 0 0) (length 2.54)
          (name "In" (effects (font (size 1.27 1.27))))
          (number "1" (effects (font (size 1.27 1.27))))
        )
        (pin passive line (at 0 -5.08 90) (length 2.54)
          (name "Ext" (effects (font (size 1.27 1.27))))
          (number "2" (effects (font (size 1.27 1.27))))
        )
      )
    )
    (symbol "Connector_Generic:Conn_01x02" (pin_names (offset 1.016) hide) (in_bom yes) (on_board yes)
      (property "Reference" "J" (id 0) (at 0 2.54 0)
        (effects (font (size 1.27 1.27)))
      )
      (property "Value" "Conn_01x02" (id 1) (at 0 -5.08 0)
        (effects (font (size 1.27 1.27)))
      )
      (property "Footprint" "" (id 2) (at 0 0 0)
        (effects (font (size 1.27 1.27)) hide)
      )
      (property "Datasheet" "~" (id 3) (at 0 0 0)
        (effects (font (size 1.27 1.27)) hide)
      )
      (property "ki_keywords" "connector" (id 4) (at 0 0 0)
        (effects (font (size 1.27 1.27)) hide)
      )
      (property "ki_description" "Generic connector, single row, 01x02, script generated (kicad-library-utils/schlib/autogen/connector/)" (id 5) (at 0 0 0)
        (effects (font (size 1.27 1.27)) hide)
      )
      (property "ki_fp_filters" "Connector*:*_1x??_*" (id 6) (at 0 0 0)
        (effects (font (size 1.27 1.27)) hide)
      )
      (symbol "Conn_01x02_1_1"
        (rectangle (start -1.27 -2.413) (end 0 -2.667)
          (stroke (width 0.1524) (type default) (color 0 0 0 0))
          (fill (type none))
        )
        (rectangle (start -1.27 0.127) (end 0 -0.127)
          (stroke (width 0.1524) (type default) (color 0 0 0 0))
          (fill (type none))
        )
        (rectangle (start -1.27 1.27) (end 1.27 -3.81)
          (stroke (width 0.254) (type default) (color 0 0 0 0))
          (fill (type background))
        )
        (pin passive line (at -5.08 0 0) (length 3.81)
          (name "Pin_1" (effects (font (size 1.27 1.27))))
          (number "1" (effects (font (size 1.27 1.27))))
        )
        (pin passive line (at -5.08 -2.54 0) (length 3.81)
          (name "Pin_2" (effects (font (size 1.27 1.27))))
          (number "2" (effects (font (size 1.27 1.27))))
        )
      )
    )
    (symbol "power:+5V" (power) (pin_names (offset 0)) (in_bom yes) (on_board yes)
      (property "Reference" "#PWR" (id 0) (at 0 -3.81 0)
        (effects (font (size 1.27 1.27)) hide)
      )
      (property "Value" "+5V" (id 1) (at 0 3.556 0)
        (effects (font (size 1.27 1.27)))
      )
      (property "Footprint" "" (id 2) (at 0 0 0)
        (effects (font (size 1.27 1.27)) hide)
      )
      (property "Datasheet" "" (id 3) (at 0 0 0)
        (effects (font (size 1.27 1.27)) hide)
      )
      (property "ki_keywords" "power-flag" (id 4) (at 0 0 0)
        (effects (font (size 1.27 1.27)) hide)
      )
      (property "ki_description" "Power symbol creates a global label with name \"+5V\"" (id 5) (at 0 0 0)
        (effects (font (size 1.27 1.27)) hide)
      )
      (symbol "+5V_0_1"
        (polyline
          (pts
            (xy -0.762 1.27)
            (xy 0 2.54)
          )
          (stroke (width 0) (type default) (color 0 0 0 0))
          (fill (type none))
        )
        (polyline
          (pts
            (xy 0 0)
            (xy 0 2.54)
          )
          (stroke (width 0) (type default) (color 0 0 0 0))
          (fill (type none))
        )
        (polyline
          (pts
            (xy 0 2.54)
            (xy 0.762 1.27)
          )
          (stroke (width 0) (type default) (color 0 0 0 0))
          (fill (type none))
        )
      )
      (symbol "+5V_1_1"
        (pin power_in line (at 0 0 90) (length 0) hide
          (name "+5V" (effects (font (size 1.27 1.27))))
          (number "1" (effects (font (size 1.27 1.27))))
        )
      )
    )
    (symbol "power:GND" (power) (pin_names (offset 0)) (in_bom yes) (on_board yes)
      (property "Reference" "#PWR" (id 0) (at 0 -6.35 0)
        (effects (font (size 1.27 1.27)) hide)
      )
      (property "Value" "GND" (id 1) (at 0 -3.81 0)
        (effects (font (size 1.27 1.27)))
      )
      (property "Footprint" "" (id 2) (at 0 0 0)
        (effects (font (size 1.27 1.27)) hide)
      )
      (property "Datasheet" "" (id 3) (at 0 0 0)
        (effects (font (size 1.27 1.27)) hide)
      )
      (property "ki_keywords" "power-flag" (id 4) (at 0 0 0)
        (effects (font (size 1.27 1.27)) hide)
      )
      (property "ki_description" "Power symbol creates a global label with name \"GND\" , ground" (id 5) (at 0 0 0)
        (effects (font (size 1.27 1.27)) hide)
      )
      (symbol "GND_0_1"
        (polyline
          (pts
            (xy 0 0)
            (xy 0 -1.27)
            (xy 1.27 -1.27)
            (xy 0 -2.54)
            (xy -1.27 -1.27)
            (xy 0 -1.27)
          )
          (stroke (width 0) (type default) (color 0 0 0 0))
          (fill (type none))
        )
      )
      (symbol "GND_1_1"
        (pin power_in line (at 0 0 270) (length 0) hide
          (name "GND" (effects (font (size 1.27 1.27))))
          (number "1" (effects (font (size 1.27 1.27))))
        )
      )
    )
  )


  (no_connect (at 174.625 76.2) (uuid 0f8d3350-4c07-458c-9ece-bdcefcd971b1))
  (no_connect (at 174.625 71.12) (uuid 18238b8e-9790-4f3f-96cf-ea1452ba4299))

  (wire (pts (xy 158.115 73.66) (xy 174.625 73.66))
    (stroke (width 0) (type default) (color 0 0 0 0))
    (uuid 17f99bb3-be98-4753-8c6d-96c6d3d80937)
  )
  (wire (pts (xy 158.115 80.01) (xy 160.655 80.01))
    (stroke (width 0) (type default) (color 0 0 0 0))
    (uuid 319bb77c-ef3e-4386-8198-ba19e26fe0ca)
  )
  (wire (pts (xy 208.915 76.2) (xy 206.375 76.2))
    (stroke (width 0) (type default) (color 0 0 0 0))
    (uuid 31fdd73c-4758-44ac-9907-15ff390b6c5b)
  )
  (wire (pts (xy 179.705 81.28) (xy 179.705 87.63))
    (stroke (width 0) (type default) (color 0 0 0 0))
    (uuid 45156162-a780-4b2b-86d6-ff7540507c2d)
  )
  (wire (pts (xy 206.375 73.66) (xy 206.375 70.485))
    (stroke (width 0) (type default) (color 0 0 0 0))
    (uuid 768311ea-8d7d-406d-bb57-9887a4a14a1e)
  )
  (wire (pts (xy 206.375 76.2) (xy 206.375 87.63))
    (stroke (width 0) (type default) (color 0 0 0 0))
    (uuid b4dd8b89-a915-4f2a-a687-e282063148d5)
  )
  (wire (pts (xy 158.115 68.58) (xy 174.625 68.58))
    (stroke (width 0) (type default) (color 0 0 0 0))
    (uuid b8e29c0d-c126-462d-9795-cacf7cd5b46f)
  )
  (wire (pts (xy 165.735 85.09) (xy 165.735 87.63))
    (stroke (width 0) (type default) (color 0 0 0 0))
    (uuid d0b4ca7d-3164-4b5c-b03c-65f30902dadd)
  )
  (wire (pts (xy 208.915 73.66) (xy 206.375 73.66))
    (stroke (width 0) (type default) (color 0 0 0 0))
    (uuid e518ccda-59c8-442d-bf0f-da1af9ec9ebb)
  )
  (wire (pts (xy 115.57 77.47) (xy 115.57 79.375))
    (stroke (width 0) (type default) (color 0 0 0 0))
    (uuid f49470b4-a6aa-405f-a994-9d4a79e4128b)
  )
  (wire (pts (xy 120.65 72.39) (xy 122.555 72.39))
    (stroke (width 0) (type default) (color 0 0 0 0))
    (uuid f4bd5585-ed5b-476b-ba33-b686b4b7ca0c)
  )

  (symbol (lib_id "power:GND") (at 165.735 87.63 0) (unit 1)
    (in_bom yes) (on_board yes)
    (uuid 0b731732-2b45-49ae-a3af-4458dbd29aa7)
    (property "Reference" "#PWR0102" (id 0) (at 165.735 93.98 0)
      (effects (font (size 1.27 1.27)) hide)
    )
    (property "Value" "GND" (id 1) (at 165.862 92.0242 0))
    (property "Footprint" "" (id 2) (at 165.735 87.63 0)
      (effects (font (size 1.27 1.27)) hide)
    )
    (property "Datasheet" "" (id 3) (at 165.735 87.63 0)
      (effects (font (size 1.27 1.27)) hide)
    )
    (pin "1" (uuid b0ddc1b3-5b62-412d-a8b0-6e4af226aff4))
  )

  (symbol (lib_id "power:GND") (at 115.57 79.375 0) (unit 1)
    (in_bom yes) (on_board yes)
    (uuid 185e4d76-9de6-4c23-a729-b77b841ed400)
    (property "Reference" "#PWR0101" (id 0) (at 115.57 85.725 0)
      (effects (font (size 1.27 1.27)) hide)
    )
    (property "Value" "GND" (id 1) (at 115.697 83.7692 0))
    (property "Footprint" "" (id 2) (at 115.57 79.375 0)
      (effects (font (size 1.27 1.27)) hide)
    )
    (property "Datasheet" "" (id 3) (at 115.57 79.375 0)
      (effects (font (size 1.27 1.27)) hide)
    )
    (pin "1" (uuid e6e68043-a375-4b27-b821-f871a2c209f6))
  )

  (symbol (lib_id "power:GND") (at 206.375 87.63 0) (unit 1)
    (in_bom yes) (on_board yes)
    (uuid 2ce5ace0-b82b-49de-9a49-6fb8dceaac38)
    (property "Reference" "#PWR0105" (id 0) (at 206.375 93.98 0)
      (effects (font (size 1.27 1.27)) hide)
    )
    (property "Value" "GND" (id 1) (at 206.502 92.0242 0))
    (property "Footprint" "" (id 2) (at 206.375 87.63 0)
      (effects (font (size 1.27 1.27)) hide)
    )
    (property "Datasheet" "" (id 3) (at 206.375 87.63 0)
      (effects (font (size 1.27 1.27)) hide)
    )
    (pin "1" (uuid eefb90d5-75c0-406f-9578-745a50282c35))
  )

  (symbol (lib_id "power:GND") (at 179.705 87.63 0) (unit 1)
    (in_bom yes) (on_board yes)
    (uuid 473fe26e-3508-4fcd-8099-026d2891577e)
    (property "Reference" "#PWR0103" (id 0) (at 179.705 93.98 0)
      (effects (font (size 1.27 1.27)) hide)
    )
    (property "Value" "GND" (id 1) (at 179.832 92.0242 0))
    (property "Footprint" "" (id 2) (at 179.705 87.63 0)
      (effects (font (size 1.27 1.27)) hide)
    )
    (property "Datasheet" "" (id 3) (at 179.705 87.63 0)
      (effects (font (size 1.27 1.27)) hide)
    )
    (pin "1" (uuid 6174b230-202a-4544-ac7f-e496c309c9b4))
  )

  (symbol (lib_id "power:+5V") (at 206.375 70.485 0) (unit 1)
    (in_bom yes) (on_board yes) (fields_autoplaced)
    (uuid 49241f13-44d7-49ed-b5af-6ca6fdc2c8d6)
    (property "Reference" "#PWR0104" (id 0) (at 206.375 74.295 0)
      (effects (font (size 1.27 1.27)) hide)
    )
    (property "Value" "+5V" (id 1) (at 206.375 64.77 0))
    (property "Footprint" "" (id 2) (at 206.375 70.485 0)
      (effects (font (size 1.27 1.27)) hide)
    )
    (property "Datasheet" "" (id 3) (at 206.375 70.485 0)
      (effects (font (size 1.27 1.27)) hide)
    )
    (pin "1" (uuid ea5f7788-17a2-4f58-beed-e0959b1403ef))
  )

  (symbol (lib_id "Connector_Generic:Conn_01x02") (at 213.995 73.66 0) (unit 1)
    (in_bom yes) (on_board yes) (fields_autoplaced)
    (uuid 888b0bfc-b30b-45dd-8652-f7d998a8d1a0)
    (property "Reference" "J104" (id 0) (at 217.17 73.6599 0)
      (effects (font (size 1.27 1.27)) (justify left))
    )
    (property "Value" "5V" (id 1) (at 217.17 76.1999 0)
      (effects (font (size 1.27 1.27)) (justify left))
    )
    (property "Footprint" "Connector_PinHeader_2.54mm:PinHeader_1x02_P2.54mm_Vertical" (id 2) (at 213.995 73.66 0)
      (effects (font (size 1.27 1.27)) hide)
    )
    (property "Datasheet" "~" (id 3) (at 213.995 73.66 0)
      (effects (font (size 1.27 1.27)) hide)
    )
    (pin "1" (uuid e1412294-e873-4290-8fa2-390cea8f2804))
    (pin "2" (uuid ca67c761-9567-44d7-8d5b-526d0974d221))
  )

  (symbol (lib_id "Connector:AudioJack2_Ground_Switch") (at 179.705 73.66 0) (mirror y) (unit 1)
    (in_bom yes) (on_board yes) (fields_autoplaced)
    (uuid a62bfad0-133d-428e-957a-40c0f3a1435c)
    (property "Reference" "J103" (id 0) (at 184.785 71.7549 0)
      (effects (font (size 1.27 1.27)) (justify right))
    )
    (property "Value" "I/Q" (id 1) (at 184.785 74.2949 0)
      (effects (font (size 1.27 1.27)) (justify right))
    )
    (property "Footprint" "elements:Jack_3.5mm_Ledino_KB3SPRS_Horizontal" (id 2) (at 179.705 68.58 0)
      (effects (font (size 1.27 1.27)) hide)
    )
    (property "Datasheet" "~" (id 3) (at 179.705 68.58 0)
      (effects (font (size 1.27 1.27)) hide)
    )
    (pin "G" (uuid 6d8591ed-fde9-4272-bc4b-e5a90fc31fd1))
    (pin "S" (uuid db848236-7b89-49ae-9e1b-b7a0e3dca7d4))
    (pin "SN" (uuid 9686b94c-6a94-4aa4-8c1b-091b9251d23b))
    (pin "T" (uuid 9c7bfe46-202e-484c-88ce-6fd588999dba))
    (pin "TN" (uuid 17d68607-2f98-41eb-adab-36bfccf6c4ed))
  )

  (symbol (lib_id "Connector:Conn_Coaxial") (at 115.57 72.39 0) (mirror y) (unit 1)
    (in_bom yes) (on_board yes) (fields_autoplaced)
    (uuid bd4eb4bb-3f22-498d-b682-3a6dc2c7e728)
    (property "Reference" "J101" (id 0) (at 115.8874 65.405 0))
    (property "Value" "RF" (id 1) (at 115.8874 67.945 0))
    (property "Footprint" "Connector_Coaxial:SMA_Amphenol_132289_EdgeMount" (id 2) (at 115.57 72.39 0)
      (effects (font (size 1.27 1.27)) hide)
    )
    (property "Datasheet" " ~" (id 3) (at 115.57 72.39 0)
      (effects (font (size 1.27 1.27)) hide)
    )
    (pin "1" (uuid a73a5b92-acfc-4e6a-91e0-e0e88b69f08a))
    (pin "2" (uuid 94a90fb5-9df7-468b-971b-4dde4da694c8))
  )

  (symbol (lib_id "Connector:Conn_Coaxial") (at 165.735 80.01 0) (unit 1)
    (in_bom yes) (on_board yes) (fields_autoplaced)
    (uuid d8788ff6-715d-42aa-ac97-2735cb63b005)
    (property "Reference" "J102" (id 0) (at 168.275 79.0331 0)
      (effects (font (size 1.27 1.27)) (justify left))
    )
    (property "Value" "VFO" (id 1) (at 168.275 81.5731 0)
      (effects (font (size 1.27 1.27)) (justify left))
    )
    (property "Footprint" "Connector_Coaxial:SMA_Amphenol_132289_EdgeMount" (id 2) (at 165.735 80.01 0)
      (effects (font (size 1.27 1.27)) hide)
    )
    (property "Datasheet" " ~" (id 3) (at 165.735 80.01 0)
      (effects (font (size 1.27 1.27)) hide)
    )
    (pin "1" (uuid 852110af-be4f-4e36-88d3-1d008183d09f))
    (pin "2" (uuid 6741e6e7-c347-44bb-b5e2-68d3011f17f3))
  )

  (sheet (at 122.555 64.77) (size 35.56 25.4) (fields_autoplaced)
    (stroke (width 0) (type solid) (color 0 0 0 0))
    (fill (color 0 0 0 0.0000))
    (uuid 00000000-0000-0000-0000-00005fc0f1cd)
    (property "Sheet name" "RX" (id 0) (at 122.555 64.0584 0)
      (effects (font (size 1.27 1.27)) (justify left bottom))
    )
    (property "Sheet file" "RX.kicad_sch" (id 1) (at 122.555 90.7546 0)
      (effects (font (size 1.27 1.27)) (justify left top))
    )
    (pin "RX-RF" input (at 122.555 72.39 180)
      (effects (font (size 1.27 1.27)) (justify left))
      (uuid 2ae3f4d3-6e2e-42f4-88dc-a1f9b3227e0d)
    )
    (pin "AF-Q-LL" output (at 158.115 68.58 0)
      (effects (font (size 1.27 1.27)) (justify right))
      (uuid 22d4c0ad-2651-46b5-b3bb-5a75ca1ebf00)
    )
    (pin "AF-I-LL" output (at 158.115 73.66 0)
      (effects (font (size 1.27 1.27)) (justify right))
      (uuid 8f02a347-4c9b-4f51-b553-8b2c4f08e181)
    )
    (pin "VFO" input (at 158.115 80.01 0)
      (effects (font (size 1.27 1.27)) (justify right))
      (uuid d7db691a-e943-439a-94b5-646219e2917a)
    )
  )

  (sheet_instances
    (path "/" (page "1"))
    (path "/00000000-0000-0000-0000-00005fc0f1cd" (page "2"))
  )

  (symbol_instances
    (path "/185e4d76-9de6-4c23-a729-b77b841ed400"
      (reference "#PWR0101") (unit 1) (value "GND") (footprint "")
    )
    (path "/0b731732-2b45-49ae-a3af-4458dbd29aa7"
      (reference "#PWR0102") (unit 1) (value "GND") (footprint "")
    )
    (path "/473fe26e-3508-4fcd-8099-026d2891577e"
      (reference "#PWR0103") (unit 1) (value "GND") (footprint "")
    )
    (path "/49241f13-44d7-49ed-b5af-6ca6fdc2c8d6"
      (reference "#PWR0104") (unit 1) (value "+5V") (footprint "")
    )
    (path "/2ce5ace0-b82b-49de-9a49-6fb8dceaac38"
      (reference "#PWR0105") (unit 1) (value "GND") (footprint "")
    )
    (path "/00000000-0000-0000-0000-00005fc0f1cd/00000000-0000-0000-0000-000060d10ab1"
      (reference "#PWR0201") (unit 1) (value "+5V") (footprint "")
    )
    (path "/00000000-0000-0000-0000-00005fc0f1cd/00000000-0000-0000-0000-00006094206c"
      (reference "#PWR0202") (unit 1) (value "GND") (footprint "")
    )
    (path "/00000000-0000-0000-0000-00005fc0f1cd/00000000-0000-0000-0000-000060940cc1"
      (reference "#PWR0203") (unit 1) (value "+2V5") (footprint "")
    )
    (path "/00000000-0000-0000-0000-00005fc0f1cd/45b28cff-fe46-480c-9f23-7532b940aabb"
      (reference "#PWR0204") (unit 1) (value "GND") (footprint "")
    )
    (path "/00000000-0000-0000-0000-00005fc0f1cd/9690787c-8520-4338-9168-63fdb115f3e1"
      (reference "#PWR0205") (unit 1) (value "+5V") (footprint "")
    )
    (path "/00000000-0000-0000-0000-00005fc0f1cd/00000000-0000-0000-0000-00006014d32e"
      (reference "#PWR0206") (unit 1) (value "GND") (footprint "")
    )
    (path "/00000000-0000-0000-0000-00005fc0f1cd/00000000-0000-0000-0000-00006014d71c"
      (reference "#PWR0207") (unit 1) (value "GND") (footprint "")
    )
    (path "/00000000-0000-0000-0000-00005fc0f1cd/afd77fb8-5dbc-4c8b-9232-63c10eb71a67"
      (reference "#PWR0208") (unit 1) (value "+5V") (footprint "")
    )
    (path "/00000000-0000-0000-0000-00005fc0f1cd/c9c1d609-4e40-466e-bba9-9e06461af7c6"
      (reference "#PWR0209") (unit 1) (value "GND") (footprint "")
    )
    (path "/00000000-0000-0000-0000-00005fc0f1cd/03726cbb-29bb-4e5e-b737-eb52a4fe9014"
      (reference "#PWR0210") (unit 1) (value "GND") (footprint "")
    )
    (path "/00000000-0000-0000-0000-00005fc0f1cd/fe414e42-db4c-4b92-8b18-1afdedb9f06f"
      (reference "#PWR0211") (unit 1) (value "GND") (footprint "")
    )
    (path "/00000000-0000-0000-0000-00005fc0f1cd/30331609-b4bd-47ef-a102-d7859d155057"
      (reference "#PWR0212") (unit 1) (value "GND") (footprint "")
    )
    (path "/00000000-0000-0000-0000-00005fc0f1cd/b80a8617-320c-4d97-b840-0358a23b4f3e"
      (reference "#PWR0213") (unit 1) (value "+2V5") (footprint "")
    )
    (path "/00000000-0000-0000-0000-00005fc0f1cd/f7c0c63d-81e9-4005-8b33-54202ec1cbf1"
      (reference "#PWR0214") (unit 1) (value "+2V5") (footprint "")
    )
    (path "/00000000-0000-0000-0000-00005fc0f1cd/decfec9e-69d8-45ef-a743-24ea13e79ca5"
      (reference "#PWR0215") (unit 1) (value "+2V5") (footprint "")
    )
    (path "/00000000-0000-0000-0000-00005fc0f1cd/6d2742c3-ce5c-48cf-af0c-a636a42cb1f2"
      (reference "#PWR0216") (unit 1) (value "+2V5") (footprint "")
    )
    (path "/00000000-0000-0000-0000-00005fc0f1cd/ebf44143-2e36-4a17-90b9-61540dc49999"
      (reference "#PWR0217") (unit 1) (value "GND") (footprint "")
    )
    (path "/00000000-0000-0000-0000-00005fc0f1cd/63c9f4e4-b751-43e6-a525-f31eff185771"
      (reference "#PWR0218") (unit 1) (value "GND") (footprint "")
    )
    (path "/00000000-0000-0000-0000-00005fc0f1cd/c46ba216-273e-4524-a30d-767504fe3bef"
      (reference "#PWR0219") (unit 1) (value "GND") (footprint "")
    )
    (path "/00000000-0000-0000-0000-00005fc0f1cd/d4f6aba8-e7cf-42fd-a411-6d4e3593654d"
      (reference "#PWR0220") (unit 1) (value "GND") (footprint "")
    )
    (path "/00000000-0000-0000-0000-00005fc0f1cd/8cab5e80-3e97-4803-bf4b-e45dd6bf6d7e"
      (reference "C201") (unit 1) (value "4.7u") (footprint "Capacitor_SMD:C_0805_2012Metric_Pad1.18x1.45mm_HandSolder")
    )
    (path "/00000000-0000-0000-0000-00005fc0f1cd/00000000-0000-0000-0000-00006013cd34"
      (reference "C202") (unit 1) (value "100n") (footprint "Capacitor_SMD:C_0805_2012Metric_Pad1.18x1.45mm_HandSolder")
    )
    (path "/00000000-0000-0000-0000-00005fc0f1cd/6450abf4-9620-4a27-b6a0-167c1e19cc7a"
      (reference "C203") (unit 1) (value "100n") (footprint "Capacitor_SMD:C_0805_2012Metric_Pad1.18x1.45mm_HandSolder")
    )
    (path "/00000000-0000-0000-0000-00005fc0f1cd/b16c4f2b-0c0e-43b2-8a75-657a16cf2e32"
      (reference "C204") (unit 1) (value "4.7u") (footprint "Capacitor_SMD:C_0805_2012Metric_Pad1.18x1.45mm_HandSolder")
    )
    (path "/00000000-0000-0000-0000-00005fc0f1cd/8a17213c-be9e-4344-90e7-4fd8e8b31c5e"
      (reference "C205") (unit 1) (value "4.7u") (footprint "Capacitor_SMD:C_0805_2012Metric_Pad1.18x1.45mm_HandSolder")
    )
    (path "/00000000-0000-0000-0000-00005fc0f1cd/00000000-0000-0000-0000-0000601e6cff"
      (reference "C206") (unit 1) (value "10n") (footprint "Capacitor_SMD:C_0805_2012Metric_Pad1.18x1.45mm_HandSolder")
    )
    (path "/00000000-0000-0000-0000-00005fc0f1cd/00000000-0000-0000-0000-00006027713f"
      (reference "C207") (unit 1) (value "10n") (footprint "Capacitor_SMD:C_0805_2012Metric_Pad1.18x1.45mm_HandSolder")
    )
    (path "/00000000-0000-0000-0000-00005fc0f1cd/cb42552c-4a3e-430c-b7e2-9898f292302e"
      (reference "C208") (unit 1) (value "33p") (footprint "Capacitor_SMD:C_0805_2012Metric_Pad1.18x1.45mm_HandSolder")
    )
    (path "/00000000-0000-0000-0000-00005fc0f1cd/a4045e01-9deb-4c27-84bd-e737e73ec374"
      (reference "C209") (unit 1) (value "22p") (footprint "Capacitor_SMD:C_0805_2012Metric_Pad1.18x1.45mm_HandSolder")
    )
    (path "/00000000-0000-0000-0000-00005fc0f1cd/d555f874-5320-46d4-8509-8b2da02bd9fb"
      (reference "C210") (unit 1) (value "4-10pF") (footprint "elements:C_TRIM_MCT_4_10")
    )
    (path "/00000000-0000-0000-0000-00005fc0f1cd/00000000-0000-0000-0000-0000605b6a52"
      (reference "C211") (unit 1) (value "4.7u") (footprint "Capacitor_SMD:C_0805_2012Metric_Pad1.18x1.45mm_HandSolder")
    )
    (path "/00000000-0000-0000-0000-00005fc0f1cd/00000000-0000-0000-0000-0000605bbb8f"
      (reference "C212") (unit 1) (value "4.7u") (footprint "Capacitor_SMD:C_0805_2012Metric_Pad1.18x1.45mm_HandSolder")
    )
    (path "/00000000-0000-0000-0000-00005fc0f1cd/a4198779-2784-4e36-9bd6-3b4b1e88fab2"
      (reference "C213") (unit 1) (value "22p") (footprint "Capacitor_SMD:C_0805_2012Metric_Pad1.18x1.45mm_HandSolder")
    )
    (path "/00000000-0000-0000-0000-00005fc0f1cd/d49ed5c0-a5df-4b5d-896a-3b77c5368e14"
      (reference "C214") (unit 1) (value "39p") (footprint "Capacitor_SMD:C_0805_2012Metric_Pad1.18x1.45mm_HandSolder")
    )
    (path "/00000000-0000-0000-0000-00005fc0f1cd/6e2e3e86-2ccf-4431-8216-87d30fc68efe"
      (reference "C215") (unit 1) (value "1n") (footprint "Capacitor_SMD:C_0805_2012Metric_Pad1.18x1.45mm_HandSolder")
    )
    (path "/00000000-0000-0000-0000-00005fc0f1cd/018b494e-74e4-46fc-b66a-d78ddca14d94"
      (reference "D201") (unit 1) (value "BAT54S") (footprint "Package_TO_SOT_SMD:SOT-23")
    )
    (path "/00000000-0000-0000-0000-00005fc0f1cd/b60abda6-f0f0-48af-9157-531692fdb408"
      (reference "D202") (unit 1) (value "BAT54S") (footprint "Package_TO_SOT_SMD:SOT-23")
    )
    (path "/bd4eb4bb-3f22-498d-b682-3a6dc2c7e728"
      (reference "J101") (unit 1) (value "RF") (footprint "Connector_Coaxial:SMA_Amphenol_132289_EdgeMount")
    )
    (path "/d8788ff6-715d-42aa-ac97-2735cb63b005"
      (reference "J102") (unit 1) (value "VFO") (footprint "Connector_Coaxial:SMA_Amphenol_132289_EdgeMount")
    )
    (path "/a62bfad0-133d-428e-957a-40c0f3a1435c"
      (reference "J103") (unit 1) (value "I/Q") (footprint "elements:Jack_3.5mm_Ledino_KB3SPRS_Horizontal")
    )
    (path "/888b0bfc-b30b-45dd-8652-f7d998a8d1a0"
      (reference "J104") (unit 1) (value "5V") (footprint "Connector_PinHeader_2.54mm:PinHeader_1x02_P2.54mm_Vertical")
    )
    (path "/00000000-0000-0000-0000-00005fc0f1cd/1b881555-36a0-4fa4-8fb7-4703dbea4cde"
      (reference "L201") (unit 1) (value "47n") (footprint "Inductor_SMD:L_0603_1608Metric_Pad1.05x0.95mm_HandSolder")
    )
    (path "/00000000-0000-0000-0000-00005fc0f1cd/032a1bed-7924-4a2e-8e1e-bd27e706e740"
      (reference "L202") (unit 1) (value "33n") (footprint "Inductor_SMD:L_0603_1608Metric_Pad1.05x0.95mm_HandSolder")
    )
    (path "/00000000-0000-0000-0000-00005fc0f1cd/9fb3c755-8c22-4290-98d8-79b510709e1a"
      (reference "L203") (unit 1) (value "47n") (footprint "Inductor_SMD:L_0603_1608Metric_Pad1.05x0.95mm_HandSolder")
    )
    (path "/00000000-0000-0000-0000-00005fc0f1cd/05977c14-c3de-4814-9787-a97802d23897"
      (reference "L204") (unit 1) (value "47n") (footprint "Inductor_SMD:L_0603_1608Metric_Pad1.05x0.95mm_HandSolder")
    )
    (path "/00000000-0000-0000-0000-00005fc0f1cd/e4195b8f-3996-4a59-b6a1-76534a4e174b"
      (reference "L205") (unit 1) (value "47n") (footprint "Inductor_SMD:L_0603_1608Metric_Pad1.05x0.95mm_HandSolder")
    )
    (path "/00000000-0000-0000-0000-00005fc0f1cd/00000000-0000-0000-0000-00006093fde2"
      (reference "R201") (unit 1) (value "10k") (footprint "Resistor_SMD:R_0805_2012Metric_Pad1.20x1.40mm_HandSolder")
    )
    (path "/00000000-0000-0000-0000-00005fc0f1cd/00000000-0000-0000-0000-000060940581"
      (reference "R202") (unit 1) (value "10k") (footprint "Resistor_SMD:R_0805_2012Metric_Pad1.20x1.40mm_HandSolder")
    )
    (path "/00000000-0000-0000-0000-00005fc0f1cd/30a69842-f020-451e-84c6-c9facde54431"
      (reference "R203") (unit 1) (value "18") (footprint "Resistor_SMD:R_0805_2012Metric_Pad1.20x1.40mm_HandSolder")
    )
    (path "/00000000-0000-0000-0000-00005fc0f1cd/c2d5842f-85a0-468a-8cc5-d2ab1d5f7796"
      (reference "R204") (unit 1) (value "18") (footprint "Resistor_SMD:R_0805_2012Metric_Pad1.20x1.40mm_HandSolder")
    )
    (path "/00000000-0000-0000-0000-00005fc0f1cd/b065149d-87ee-44d9-90ab-0d5ae60b862e"
      (reference "R205") (unit 1) (value "18") (footprint "Resistor_SMD:R_0805_2012Metric_Pad1.20x1.40mm_HandSolder")
    )
    (path "/00000000-0000-0000-0000-00005fc0f1cd/00000000-0000-0000-0000-00005fd2bdfc"
      (reference "R206") (unit 1) (value "100") (footprint "Resistor_SMD:R_0805_2012Metric_Pad1.20x1.40mm_HandSolder")
    )
    (path "/00000000-0000-0000-0000-00005fc0f1cd/00000000-0000-0000-0000-00005fd2dbcf"
      (reference "R207") (unit 1) (value "100") (footprint "Resistor_SMD:R_0805_2012Metric_Pad1.20x1.40mm_HandSolder")
    )
    (path "/00000000-0000-0000-0000-00005fc0f1cd/00000000-0000-0000-0000-0000601e651f"
      (reference "R208") (unit 1) (value "10k") (footprint "Resistor_SMD:R_0805_2012Metric_Pad1.20x1.40mm_HandSolder")
    )
    (path "/00000000-0000-0000-0000-00005fc0f1cd/00000000-0000-0000-0000-000060276a2e"
      (reference "R209") (unit 1) (value "10k") (footprint "Resistor_SMD:R_0805_2012Metric_Pad1.20x1.40mm_HandSolder")
    )
    (path "/00000000-0000-0000-0000-00005fc0f1cd/86e51c38-df30-4e18-ab72-29b0f148a628"
      (reference "R210") (unit 1) (value "100") (footprint "Resistor_SMD:R_0805_2012Metric_Pad1.20x1.40mm_HandSolder")
    )
    (path "/00000000-0000-0000-0000-00005fc0f1cd/defeb512-faf3-46c5-896b-2158ce679948"
      (reference "R211") (unit 1) (value "100") (footprint "Resistor_SMD:R_0805_2012Metric_Pad1.20x1.40mm_HandSolder")
    )
    (path "/00000000-0000-0000-0000-00005fc0f1cd/ddbd9504-1f1b-48dc-9500-c82abf0a954f"
      (reference "R212") (unit 1) (value "10k") (footprint "Resistor_SMD:R_0805_2012Metric_Pad1.20x1.40mm_HandSolder")
    )
    (path "/00000000-0000-0000-0000-00005fc0f1cd/dd098daa-7728-4f60-b6a3-464bc239201d"
      (reference "R213") (unit 1) (value "10k") (footprint "Resistor_SMD:R_0805_2012Metric_Pad1.20x1.40mm_HandSolder")
    )
    (path "/00000000-0000-0000-0000-00005fc0f1cd/faa6c4fc-c35d-4d9a-81b8-3eea7fdb67ad"
      (reference "R214") (unit 1) (value "18") (footprint "Resistor_SMD:R_0805_2012Metric_Pad1.20x1.40mm_HandSolder")
    )
    (path "/00000000-0000-0000-0000-00005fc0f1cd/6837edd1-0808-44ba-871a-f13c8040a564"
      (reference "R215") (unit 1) (value "18") (footprint "Resistor_SMD:R_0805_2012Metric_Pad1.20x1.40mm_HandSolder")
    )
    (path "/00000000-0000-0000-0000-00005fc0f1cd/fa10ffe0-dcd1-4783-ae56-8cd1f42e797d"
      (reference "R216") (unit 1) (value "18") (footprint "Resistor_SMD:R_0805_2012Metric_Pad1.20x1.40mm_HandSolder")
    )
    (path "/00000000-0000-0000-0000-00005fc0f1cd/ec3fdd05-e13e-4990-a2e2-d860e9dc6510"
      (reference "T201") (unit 1) (value "ETC4-1-2") (footprint "elements:ETC4-1-2")
    )
    (path "/00000000-0000-0000-0000-00005fc0f1cd/5aa96efb-68cd-4cff-b257-4c30b526f646"
      (reference "T202") (unit 1) (value "ETC4-1-2") (footprint "elements:ETC4-1-2")
    )
    (path "/00000000-0000-0000-0000-00005fc0f1cd/00000000-0000-0000-0000-0000603d949b"
      (reference "U201") (unit 1) (value "LM358") (footprint "Package_SO:SOIC-8_3.9x4.9mm_P1.27mm")
    )
    (path "/00000000-0000-0000-0000-00005fc0f1cd/00000000-0000-0000-0000-0000603de242"
      (reference "U201") (unit 2) (value "LM358") (footprint "Package_SO:SOIC-8_3.9x4.9mm_P1.27mm")
    )
    (path "/00000000-0000-0000-0000-00005fc0f1cd/00000000-0000-0000-0000-0000603e5031"
      (reference "U201") (unit 3) (value "LM358") (footprint "Package_SO:SOIC-8_3.9x4.9mm_P1.27mm")
    )
    (path "/00000000-0000-0000-0000-00005fc0f1cd/407ef8ef-9ad4-4c68-980b-5cd5528c5fae"
      (reference "U202") (unit 1) (value "LM358") (footprint "Package_SO:SOIC-8_3.9x4.9mm_P1.27mm")
    )
    (path "/00000000-0000-0000-0000-00005fc0f1cd/6fcd1816-28f7-44b6-8235-00fb1ba7e30c"
      (reference "U202") (unit 2) (value "LM358") (footprint "Package_SO:SOIC-8_3.9x4.9mm_P1.27mm")
    )
    (path "/00000000-0000-0000-0000-00005fc0f1cd/e4732545-8554-4464-9f6f-9daa27a29eae"
      (reference "U202") (unit 3) (value "LM358") (footprint "Package_SO:SOIC-8_3.9x4.9mm_P1.27mm")
    )
  )
)
