EESchema Schematic File Version 4
EELAYER 30 0
EELAYER END
$Descr A4 11693 8268
encoding utf-8
Sheet 1 7
Title "QRP SDR TRX Prototype"
Date "2021-07-28"
Rev "0"
Comp "DM3MAT"
Comment1 ""
Comment2 ""
Comment3 ""
Comment4 ""
$EndDescr
$Sheet
S 1200 1250 1400 1000
U 5FC0F1CD
F0 "RX" 50
F1 "RX.sch" 50
F2 "AF-I" O R 2600 1450 50 
F3 "AF-Q" O R 2600 1550 50 
F4 "RX-RF" I L 1200 1550 50 
F5 "RX3V" I R 2600 2150 50 
F6 "VFO-I" I R 2600 1850 50 
F7 "VFO-Q" I R 2600 1950 50 
$EndSheet
$Sheet
S 3450 1250 1400 1000
U 60895AA7
F0 "IQAmp" 50
F1 "IQAMP.sch" 50
F2 "AF-I+60" O R 4850 1450 50 
F3 "AF-Q+60" O R 4850 1550 50 
F4 "AF-I+80" O R 4850 1750 50 
F5 "AF-Q+80" O R 4850 1850 50 
F6 "AF-I+100" O R 4850 2050 50 
F7 "AF-Q+100" O R 4850 2150 50 
F8 "AF-I-LL" I L 3450 1450 50 
F9 "AF-Q-LL" I L 3450 1550 50 
$EndSheet
$Sheet
S 1200 2500 1400 1000
U 60D53731
F0 "MicAmp" 50
F1 "MicAmp.sch" 50
F2 "MIC+20" O R 2600 2750 50 
F3 "MIC-IN" I L 1200 2750 50 
$EndSheet
$Sheet
S 6800 1250 1400 1000
U 6118DFCE
F0 "Audio PA" 50
F1 "AudioPA.sch" 50
F2 "HP-IN" I L 6800 1450 50 
F3 "HP-OUT" O R 8200 1450 50 
F4 "LO-In" I L 6800 1750 50 
F5 "LO-Out" O R 8200 1750 50 
F6 "LI-In" I L 6800 1850 50 
F7 "LI-Out" O R 8200 1850 50 
$EndSheet
$Comp
L Connector:Conn_Coaxial J3
U 1 1 60FFED21
P 2650 5150
F 0 "J3" H 2578 5388 50  0000 C CNN
F 1 "RF" H 2578 5297 50  0000 C CNN
F 2 "Connector_Coaxial:SMA_Amphenol_132289_EdgeMount" H 2650 5150 50  0001 C CNN
F 3 " ~" H 2650 5150 50  0001 C CNN
	1    2650 5150
	-1   0    0    -1  
$EndComp
$Comp
L Connector_Generic:Conn_01x07 J1
U 1 1 6100278C
P 1600 4300
F 0 "J1" H 1518 4817 50  0000 C CNN
F 1 "Si5351" H 1518 4726 50  0000 C CNN
F 2 "DM3MAT:Adafruit_SI5351_Module" H 1600 4300 50  0001 C CNN
F 3 "~" H 1600 4300 50  0001 C CNN
	1    1600 4300
	-1   0    0    -1  
$EndComp
$Comp
L power:+3.3V #PWR0101
U 1 1 6101031D
P 1900 3900
F 0 "#PWR0101" H 1900 3750 50  0001 C CNN
F 1 "+3.3V" H 1915 4073 50  0000 C CNN
F 2 "" H 1900 3900 50  0001 C CNN
F 3 "" H 1900 3900 50  0001 C CNN
	1    1900 3900
	1    0    0    -1  
$EndComp
Wire Wire Line
	1800 4000 1900 4000
Wire Wire Line
	1900 4000 1900 3900
$Comp
L power:GND #PWR0102
U 1 1 61010B80
P 1900 4700
F 0 "#PWR0102" H 1900 4450 50  0001 C CNN
F 1 "GND" H 1905 4527 50  0000 C CNN
F 2 "" H 1900 4700 50  0001 C CNN
F 3 "" H 1900 4700 50  0001 C CNN
	1    1900 4700
	1    0    0    -1  
$EndComp
Wire Wire Line
	1800 4100 1900 4100
Wire Wire Line
	1900 4100 1900 4700
Text GLabel 2000 4200 2    50   Input ~ 0
SDA
Wire Wire Line
	1800 4200 2000 4200
Text GLabel 2000 4300 2    50   Input ~ 0
SCL
Wire Wire Line
	2000 4300 1800 4300
Text GLabel 2000 4400 2    50   Output ~ 0
CLK2
Text GLabel 2000 4500 2    50   Output ~ 0
CLK1
Text GLabel 2000 4600 2    50   Output ~ 0
CLK0
Wire Wire Line
	2000 4600 1800 4600
Wire Wire Line
	1800 4500 2000 4500
Wire Wire Line
	1800 4400 2000 4400
$Comp
L Connector_Generic:Conn_01x03 J2
U 1 1 6101278B
P 1600 5250
F 0 "J2" H 1518 5567 50  0000 C CNN
F 1 "MIC" H 1518 5476 50  0000 C CNN
F 2 "Connector_Molex:Molex_KK-254_AE-6410-03A_1x03_P2.54mm_Vertical" H 1600 5250 50  0001 C CNN
F 3 "~" H 1600 5250 50  0001 C CNN
	1    1600 5250
	-1   0    0    -1  
$EndComp
Text GLabel 1900 5150 2    50   Output ~ 0
PTT
Text GLabel 1900 5250 2    50   Output ~ 0
MIC
$Comp
L power:GND #PWR0103
U 1 1 610134F2
P 1900 5450
F 0 "#PWR0103" H 1900 5200 50  0001 C CNN
F 1 "GND" H 1905 5277 50  0000 C CNN
F 2 "" H 1900 5450 50  0001 C CNN
F 3 "" H 1900 5450 50  0001 C CNN
	1    1900 5450
	1    0    0    -1  
$EndComp
Wire Wire Line
	1800 5350 1900 5350
Wire Wire Line
	1900 5350 1900 5450
Wire Wire Line
	1800 5250 1900 5250
Wire Wire Line
	1800 5150 1900 5150
$Comp
L Connector:AudioJack2_Ground_Switch J5
U 1 1 61018573
P 9950 1550
F 0 "J5" H 9770 1568 50  0000 R CNN
F 1 "AudioJack2_Ground_Switch" H 9770 1477 50  0000 R CNN
F 2 "DM3MAT:Jack_3.5mm_Ledino_KB3SPRS_Horizontal" H 9950 1750 50  0001 C CNN
F 3 "~" H 9950 1750 50  0001 C CNN
	1    9950 1550
	-1   0    0    -1  
$EndComp
$Comp
L Connector:AudioJack2_Ground_Switch J6
U 1 1 61019DF3
P 9950 2550
F 0 "J6" H 9770 2568 50  0000 R CNN
F 1 "AudioJack2_Ground_Switch" H 9770 2477 50  0000 R CNN
F 2 "DM3MAT:Jack_3.5mm_Ledino_KB3SPRS_Horizontal" H 9950 2750 50  0001 C CNN
F 3 "~" H 9950 2750 50  0001 C CNN
	1    9950 2550
	-1   0    0    -1  
$EndComp
Text GLabel 1100 2750 0    50   Input ~ 0
MIC
Wire Wire Line
	1100 2750 1200 2750
Text GLabel 9650 1350 0    50   Input ~ 0
HP
NoConn ~ 9750 1450
NoConn ~ 9750 1650
Text GLabel 8300 1450 2    50   Input ~ 0
HP
Text GLabel 9650 1550 0    50   Input ~ 0
HP
Wire Wire Line
	9650 1550 9750 1550
Wire Wire Line
	9650 1350 9750 1350
Wire Wire Line
	8200 1450 8300 1450
Text GLabel 6700 1850 0    50   Input ~ 0
LineIn
Text GLabel 8300 1750 2    50   Output ~ 0
LineOut
Wire Wire Line
	8300 1750 8200 1750
Wire Wire Line
	6700 1850 6800 1850
Text GLabel 9650 2350 0    50   Input ~ 0
LineOut
Text GLabel 9650 2550 0    50   Output ~ 0
LineIn
NoConn ~ 9750 2450
NoConn ~ 9750 2650
Wire Wire Line
	9650 2550 9750 2550
Wire Wire Line
	9650 2350 9750 2350
$Comp
L power:GND #PWR0104
U 1 1 610223A3
P 9950 1950
F 0 "#PWR0104" H 9950 1700 50  0001 C CNN
F 1 "GND" H 9955 1777 50  0000 C CNN
F 2 "" H 9950 1950 50  0001 C CNN
F 3 "" H 9950 1950 50  0001 C CNN
	1    9950 1950
	1    0    0    -1  
$EndComp
$Comp
L power:GND #PWR0105
U 1 1 61023C8C
P 9950 2950
F 0 "#PWR0105" H 9950 2700 50  0001 C CNN
F 1 "GND" H 9955 2777 50  0000 C CNN
F 2 "" H 9950 2950 50  0001 C CNN
F 3 "" H 9950 2950 50  0001 C CNN
	1    9950 2950
	1    0    0    -1  
$EndComp
Wire Wire Line
	9950 2950 9950 2850
Wire Wire Line
	9950 1850 9950 1950
$Sheet
S 3600 2650 1400 1000
U 61029C06
F0 "ClkPhase" 50
F1 "phase.sch" 50
F2 "I+" O R 5000 2850 50 
F3 "Q+" O R 5000 3150 50 
F4 "CLK" I L 3600 2850 50 
$EndSheet
$Comp
L Jumper:SolderJumper_3_Bridged12 JP2
U 1 1 610646C8
P 5700 2850
F 0 "JP2" H 5700 2963 50  0000 C CNN
F 1 "I-SEL" H 5700 3054 50  0000 C CNN
F 2 "Jumper:SolderJumper-3_P1.3mm_Bridged12_RoundedPad1.0x1.5mm" H 5700 2850 50  0001 C CNN
F 3 "~" H 5700 2850 50  0001 C CNN
	1    5700 2850
	1    0    0    1   
$EndComp
$Comp
L Jumper:SolderJumper_3_Bridged12 JP1
U 1 1 61064C00
P 5300 3150
F 0 "JP1" H 5300 3263 50  0000 C CNN
F 1 "Q-SEL" H 5300 3354 50  0000 C CNN
F 2 "Jumper:SolderJumper-3_P1.3mm_Bridged12_RoundedPad1.0x1.5mm" H 5300 3150 50  0001 C CNN
F 3 "~" H 5300 3150 50  0001 C CNN
	1    5300 3150
	1    0    0    1   
$EndComp
Text GLabel 3500 2850 0    50   Input ~ 0
CLK0
Text GLabel 6000 2850 2    50   Input ~ 0
CLK0
Text GLabel 5600 3150 2    50   Input ~ 0
CLK1
Wire Wire Line
	5000 2850 5500 2850
Wire Wire Line
	5000 3150 5100 3150
Wire Wire Line
	5500 3150 5600 3150
Wire Wire Line
	5900 2850 6000 2850
Wire Wire Line
	3500 2850 3600 2850
Wire Wire Line
	2600 1850 3350 1850
Wire Wire Line
	3350 1850 3350 2400
Wire Wire Line
	3350 2400 5700 2400
Wire Wire Line
	5700 2400 5700 2700
Wire Wire Line
	2600 1950 3250 1950
Wire Wire Line
	3250 1950 3250 2500
Wire Wire Line
	3250 2500 5300 2500
Wire Wire Line
	5300 2500 5300 3000
$Sheet
S 6800 2700 1400 1000
U 61097E0D
F0 "PA" 50
F1 "PA.sch" 50
F2 "B+" U L 6800 2850 50 
F3 "RX3V" I L 6800 3550 50 
F4 "PWM" I L 6800 3400 50 
F5 "OUT" O R 8200 3150 50 
F6 "CLK" I L 6800 3150 50 
$EndSheet
$Comp
L power:+12V #PWR?
U 1 1 611B370D
P 4900 6150
AR Path="/61097E0D/611B370D" Ref="#PWR?"  Part="1" 
AR Path="/611B370D" Ref="#PWR0106"  Part="1" 
F 0 "#PWR0106" H 4900 6000 50  0001 C CNN
F 1 "+12V" H 4915 6323 50  0000 C CNN
F 2 "" H 4900 6150 50  0001 C CNN
F 3 "" H 4900 6150 50  0001 C CNN
	1    4900 6150
	1    0    0    -1  
$EndComp
$Comp
L Device:C C?
U 1 1 611B3713
P 5300 6500
AR Path="/61097E0D/611B3713" Ref="C?"  Part="1" 
AR Path="/611B3713" Ref="C9"  Part="1" 
F 0 "C9" H 5185 6546 50  0000 R CNN
F 1 "100n" H 5185 6455 50  0000 R CNN
F 2 "Capacitor_SMD:C_1206_3216Metric_Pad1.42x1.75mm_HandSolder" H 5338 6350 50  0001 C CNN
F 3 "~" H 5300 6500 50  0001 C CNN
	1    5300 6500
	-1   0    0    -1  
$EndComp
$Comp
L Device:C C?
U 1 1 611B3719
P 6150 6500
AR Path="/61097E0D/611B3719" Ref="C?"  Part="1" 
AR Path="/611B3719" Ref="C10"  Part="1" 
F 0 "C10" H 6265 6546 50  0000 L CNN
F 1 "100n" H 6265 6455 50  0000 L CNN
F 2 "Capacitor_SMD:C_1206_3216Metric_Pad1.42x1.75mm_HandSolder" H 6188 6350 50  0001 C CNN
F 3 "~" H 6150 6500 50  0001 C CNN
	1    6150 6500
	1    0    0    -1  
$EndComp
$Comp
L power:GND #PWR?
U 1 1 611B3725
P 6150 7450
AR Path="/61097E0D/611B3725" Ref="#PWR?"  Part="1" 
AR Path="/611B3725" Ref="#PWR0107"  Part="1" 
F 0 "#PWR0107" H 6150 7200 50  0001 C CNN
F 1 "GND" H 6155 7277 50  0000 C CNN
F 2 "" H 6150 7450 50  0001 C CNN
F 3 "" H 6150 7450 50  0001 C CNN
	1    6150 7450
	1    0    0    -1  
$EndComp
$Comp
L power:GND #PWR?
U 1 1 611B372B
P 5300 7450
AR Path="/61097E0D/611B372B" Ref="#PWR?"  Part="1" 
AR Path="/611B372B" Ref="#PWR0108"  Part="1" 
F 0 "#PWR0108" H 5300 7200 50  0001 C CNN
F 1 "GND" H 5305 7277 50  0000 C CNN
F 2 "" H 5300 7450 50  0001 C CNN
F 3 "" H 5300 7450 50  0001 C CNN
	1    5300 7450
	1    0    0    -1  
$EndComp
$Comp
L Device:CP C?
U 1 1 611B3731
P 4900 6500
AR Path="/61097E0D/611B3731" Ref="C?"  Part="1" 
AR Path="/611B3731" Ref="C8"  Part="1" 
F 0 "C8" V 5155 6500 50  0000 C CNN
F 1 "100u" V 5064 6500 50  0000 C CNN
F 2 "Capacitor_SMD:CP_Elec_6.3x3.9" H 4938 6350 50  0001 C CNN
F 3 "~" H 4900 6500 50  0001 C CNN
	1    4900 6500
	1    0    0    -1  
$EndComp
Wire Wire Line
	4900 6150 4900 6250
Wire Wire Line
	4900 6250 5300 6250
Connection ~ 4900 6250
Wire Wire Line
	4900 6250 4900 6350
Wire Wire Line
	5300 6250 5300 6350
Connection ~ 5300 6250
Wire Wire Line
	5300 6250 5450 6250
Wire Wire Line
	6050 6250 6150 6250
Wire Wire Line
	6150 6350 6150 6250
Wire Wire Line
	6150 6650 6150 7450
Wire Wire Line
	5300 7450 5300 6650
$Comp
L power:GND #PWR?
U 1 1 611B3746
P 4900 7450
AR Path="/61097E0D/611B3746" Ref="#PWR?"  Part="1" 
AR Path="/611B3746" Ref="#PWR0109"  Part="1" 
F 0 "#PWR0109" H 4900 7200 50  0001 C CNN
F 1 "GND" H 4905 7277 50  0000 C CNN
F 2 "" H 4900 7450 50  0001 C CNN
F 3 "" H 4900 7450 50  0001 C CNN
	1    4900 7450
	1    0    0    -1  
$EndComp
Wire Wire Line
	4900 6650 4900 7450
$Comp
L power:GND #PWR?
U 1 1 611B374D
P 5750 7450
AR Path="/61097E0D/611B374D" Ref="#PWR?"  Part="1" 
AR Path="/611B374D" Ref="#PWR0110"  Part="1" 
F 0 "#PWR0110" H 5750 7200 50  0001 C CNN
F 1 "GND" H 5755 7277 50  0000 C CNN
F 2 "" H 5750 7450 50  0001 C CNN
F 3 "" H 5750 7450 50  0001 C CNN
	1    5750 7450
	1    0    0    -1  
$EndComp
Wire Wire Line
	5750 7450 5750 6550
$Comp
L Device:R R1
U 1 1 61239023
P 3350 4400
F 0 "R1" H 3420 4446 50  0000 L CNN
F 1 "10k" H 3420 4355 50  0000 L CNN
F 2 "Resistor_SMD:R_1206_3216Metric_Pad1.42x1.75mm_HandSolder" V 3280 4400 50  0001 C CNN
F 3 "~" H 3350 4400 50  0001 C CNN
	1    3350 4400
	1    0    0    -1  
$EndComp
$Comp
L power:+12V #PWR?
U 1 1 61254798
P 3350 3950
AR Path="/61097E0D/61254798" Ref="#PWR?"  Part="1" 
AR Path="/61254798" Ref="#PWR0111"  Part="1" 
F 0 "#PWR0111" H 3350 3800 50  0001 C CNN
F 1 "+12V" H 3365 4123 50  0000 C CNN
F 2 "" H 3350 3950 50  0001 C CNN
F 3 "" H 3350 3950 50  0001 C CNN
	1    3350 3950
	1    0    0    -1  
$EndComp
$Comp
L Device:C C3
U 1 1 612550E4
P 3100 4100
F 0 "C3" V 2848 4100 50  0000 C CNN
F 1 "100n" V 2939 4100 50  0000 C CNN
F 2 "Capacitor_SMD:C_1206_3216Metric_Pad1.42x1.75mm_HandSolder" H 3138 3950 50  0001 C CNN
F 3 "~" H 3100 4100 50  0001 C CNN
	1    3100 4100
	0    1    1    0   
$EndComp
$Comp
L power:GND #PWR0112
U 1 1 61257AF2
P 2850 4200
F 0 "#PWR0112" H 2850 3950 50  0001 C CNN
F 1 "GND" H 2855 4027 50  0000 C CNN
F 2 "" H 2850 4200 50  0001 C CNN
F 3 "" H 2850 4200 50  0001 C CNN
	1    2850 4200
	1    0    0    -1  
$EndComp
Wire Wire Line
	2950 4100 2850 4100
Wire Wire Line
	2850 4100 2850 4200
Wire Wire Line
	3250 4100 3350 4100
Wire Wire Line
	3350 4100 3350 4250
Wire Wire Line
	3350 3950 3350 4100
Connection ~ 3350 4100
$Comp
L power:GND #PWR0113
U 1 1 6125C41C
P 2650 5450
F 0 "#PWR0113" H 2650 5200 50  0001 C CNN
F 1 "GND" H 2655 5277 50  0000 C CNN
F 2 "" H 2650 5450 50  0001 C CNN
F 3 "" H 2650 5450 50  0001 C CNN
	1    2650 5450
	1    0    0    -1  
$EndComp
Wire Wire Line
	2650 5350 2650 5450
$Comp
L Device:R R2
U 1 1 61264A21
P 4350 4600
F 0 "R2" H 4420 4646 50  0000 L CNN
F 1 "10k" H 4420 4555 50  0000 L CNN
F 2 "Resistor_SMD:R_1206_3216Metric_Pad1.42x1.75mm_HandSolder" V 4280 4600 50  0001 C CNN
F 3 "~" H 4350 4600 50  0001 C CNN
	1    4350 4600
	1    0    0    -1  
$EndComp
$Comp
L power:GND #PWR0114
U 1 1 61264DCB
P 4350 4850
F 0 "#PWR0114" H 4350 4600 50  0001 C CNN
F 1 "GND" H 4355 4677 50  0000 C CNN
F 2 "" H 4350 4850 50  0001 C CNN
F 3 "" H 4350 4850 50  0001 C CNN
	1    4350 4850
	1    0    0    -1  
$EndComp
$Comp
L Device:R R3
U 1 1 6126F488
P 4600 4350
F 0 "R3" V 4393 4350 50  0000 C CNN
F 1 "100" V 4484 4350 50  0000 C CNN
F 2 "Resistor_SMD:R_1206_3216Metric_Pad1.42x1.75mm_HandSolder" V 4530 4350 50  0001 C CNN
F 3 "~" H 4600 4350 50  0001 C CNN
	1    4600 4350
	0    1    1    0   
$EndComp
Wire Wire Line
	4250 4350 4350 4350
Wire Wire Line
	4350 4350 4350 4450
Connection ~ 4350 4350
Wire Wire Line
	4350 4350 4450 4350
Wire Wire Line
	4350 4750 4350 4850
Text GLabel 4850 5150 2    50   Input ~ 0
TX-OUT
Text GLabel 4850 4000 2    50   Output ~ 0
RX
Wire Wire Line
	4750 4350 4850 4350
Wire Wire Line
	4850 4000 3950 4000
Wire Wire Line
	3950 4000 3950 4150
Wire Wire Line
	3350 4550 3350 4650
Wire Wire Line
	3350 4650 3950 4650
Wire Wire Line
	3950 4650 3950 4550
$Comp
L Device:C C6
U 1 1 61288DB0
P 3950 4900
F 0 "C6" H 3835 4854 50  0000 R CNN
F 1 "1n" H 3835 4945 50  0000 R CNN
F 2 "Capacitor_SMD:C_1206_3216Metric_Pad1.42x1.75mm_HandSolder" H 3988 4750 50  0001 C CNN
F 3 "~" H 3950 4900 50  0001 C CNN
	1    3950 4900
	-1   0    0    1   
$EndComp
Wire Wire Line
	3950 4750 3950 4650
Connection ~ 3950 4650
Wire Wire Line
	3950 5050 3950 5150
Connection ~ 3950 5150
Wire Wire Line
	3950 5150 4850 5150
Wire Wire Line
	2850 5150 3950 5150
Text GLabel 4850 4350 2    50   Input ~ 0
RX3V
$Comp
L Transistor_FET:BSS123 Q1
U 1 1 61296F60
P 4050 4350
F 0 "Q1" H 4255 4304 50  0000 L CNN
F 1 "BSS123" H 4255 4395 50  0000 L CNN
F 2 "Package_TO_SOT_SMD:SOT-23" H 4250 4275 50  0001 L CIN
F 3 "http://www.diodes.com/assets/Datasheets/ds30366.pdf" H 4050 4350 50  0001 L CNN
	1    4050 4350
	-1   0    0    1   
$EndComp
$Comp
L power:+5V #PWR0115
U 1 1 6103F4BC
P 6150 6150
F 0 "#PWR0115" H 6150 6000 50  0001 C CNN
F 1 "+5V" H 6165 6323 50  0000 C CNN
F 2 "" H 6150 6150 50  0001 C CNN
F 3 "" H 6150 6150 50  0001 C CNN
	1    6150 6150
	1    0    0    -1  
$EndComp
Wire Wire Line
	6150 6150 6150 6250
Connection ~ 6150 6250
$Comp
L Regulator_Linear:MCP1703A-5002_SOT89 U2
U 1 1 6105127D
P 5750 6250
F 0 "U2" H 5750 6492 50  0000 C CNN
F 1 "MCP1703A-5002" H 5750 6401 50  0000 C CNN
F 2 "Package_TO_SOT_SMD:SOT-89-3" H 5750 6450 50  0001 C CNN
F 3 "http://ww1.microchip.com/downloads/en/DeviceDoc/20005122B.pdf" H 5750 6200 50  0001 C CNN
	1    5750 6250
	1    0    0    -1  
$EndComp
$Comp
L power:+12V #PWR?
U 1 1 61056557
P 2100 6150
AR Path="/61097E0D/61056557" Ref="#PWR?"  Part="1" 
AR Path="/61056557" Ref="#PWR0116"  Part="1" 
F 0 "#PWR0116" H 2100 6000 50  0001 C CNN
F 1 "+12V" H 2115 6323 50  0000 C CNN
F 2 "" H 2100 6150 50  0001 C CNN
F 3 "" H 2100 6150 50  0001 C CNN
	1    2100 6150
	1    0    0    -1  
$EndComp
$Comp
L Device:C C?
U 1 1 61056561
P 2500 6500
AR Path="/61097E0D/61056561" Ref="C?"  Part="1" 
AR Path="/61056561" Ref="C2"  Part="1" 
F 0 "C2" H 2385 6546 50  0000 R CNN
F 1 "100n" H 2385 6455 50  0000 R CNN
F 2 "Capacitor_SMD:C_1206_3216Metric_Pad1.42x1.75mm_HandSolder" H 2538 6350 50  0001 C CNN
F 3 "~" H 2500 6500 50  0001 C CNN
	1    2500 6500
	-1   0    0    -1  
$EndComp
$Comp
L Device:C C?
U 1 1 6105656B
P 3350 6500
AR Path="/61097E0D/6105656B" Ref="C?"  Part="1" 
AR Path="/6105656B" Ref="C4"  Part="1" 
F 0 "C4" H 3465 6546 50  0000 L CNN
F 1 "100n" H 3465 6455 50  0000 L CNN
F 2 "Capacitor_SMD:C_1206_3216Metric_Pad1.42x1.75mm_HandSolder" H 3388 6350 50  0001 C CNN
F 3 "~" H 3350 6500 50  0001 C CNN
	1    3350 6500
	1    0    0    -1  
$EndComp
$Comp
L power:GND #PWR?
U 1 1 61056575
P 3350 7450
AR Path="/61097E0D/61056575" Ref="#PWR?"  Part="1" 
AR Path="/61056575" Ref="#PWR0117"  Part="1" 
F 0 "#PWR0117" H 3350 7200 50  0001 C CNN
F 1 "GND" H 3355 7277 50  0000 C CNN
F 2 "" H 3350 7450 50  0001 C CNN
F 3 "" H 3350 7450 50  0001 C CNN
	1    3350 7450
	1    0    0    -1  
$EndComp
$Comp
L power:GND #PWR?
U 1 1 6105657F
P 2500 7450
AR Path="/61097E0D/6105657F" Ref="#PWR?"  Part="1" 
AR Path="/6105657F" Ref="#PWR0118"  Part="1" 
F 0 "#PWR0118" H 2500 7200 50  0001 C CNN
F 1 "GND" H 2505 7277 50  0000 C CNN
F 2 "" H 2500 7450 50  0001 C CNN
F 3 "" H 2500 7450 50  0001 C CNN
	1    2500 7450
	1    0    0    -1  
$EndComp
$Comp
L Device:CP C?
U 1 1 61056589
P 2100 6500
AR Path="/61097E0D/61056589" Ref="C?"  Part="1" 
AR Path="/61056589" Ref="C1"  Part="1" 
F 0 "C1" V 2355 6500 50  0000 C CNN
F 1 "100u" V 2264 6500 50  0000 C CNN
F 2 "Capacitor_SMD:CP_Elec_6.3x3.9" H 2138 6350 50  0001 C CNN
F 3 "~" H 2100 6500 50  0001 C CNN
	1    2100 6500
	1    0    0    -1  
$EndComp
Wire Wire Line
	2100 6150 2100 6250
Wire Wire Line
	2100 6250 2500 6250
Connection ~ 2100 6250
Wire Wire Line
	2100 6250 2100 6350
Wire Wire Line
	2500 6250 2500 6350
Connection ~ 2500 6250
Wire Wire Line
	2500 6250 2650 6250
Wire Wire Line
	3350 6650 3350 7450
Wire Wire Line
	2500 7450 2500 6650
$Comp
L power:GND #PWR?
U 1 1 6105659E
P 2100 7450
AR Path="/61097E0D/6105659E" Ref="#PWR?"  Part="1" 
AR Path="/6105659E" Ref="#PWR0119"  Part="1" 
F 0 "#PWR0119" H 2100 7200 50  0001 C CNN
F 1 "GND" H 2105 7277 50  0000 C CNN
F 2 "" H 2100 7450 50  0001 C CNN
F 3 "" H 2100 7450 50  0001 C CNN
	1    2100 7450
	1    0    0    -1  
$EndComp
Wire Wire Line
	2100 6650 2100 7450
$Comp
L power:GND #PWR?
U 1 1 610565A9
P 2950 7450
AR Path="/61097E0D/610565A9" Ref="#PWR?"  Part="1" 
AR Path="/610565A9" Ref="#PWR0120"  Part="1" 
F 0 "#PWR0120" H 2950 7200 50  0001 C CNN
F 1 "GND" H 2955 7277 50  0000 C CNN
F 2 "" H 2950 7450 50  0001 C CNN
F 3 "" H 2950 7450 50  0001 C CNN
	1    2950 7450
	1    0    0    -1  
$EndComp
Wire Wire Line
	2950 7450 2950 6550
$Comp
L Regulator_Linear:MCP1703A-3302_SOT89 U1
U 1 1 61062F91
P 2950 6250
F 0 "U1" H 2950 6492 50  0000 C CNN
F 1 "MCP1703A-3302" H 2950 6401 50  0000 C CNN
F 2 "Package_TO_SOT_SMD:SOT-89-3" H 2950 6450 50  0001 C CNN
F 3 "http://ww1.microchip.com/downloads/en/DeviceDoc/20005122B.pdf" H 2950 6200 50  0001 C CNN
	1    2950 6250
	1    0    0    -1  
$EndComp
Wire Wire Line
	3250 6250 3350 6250
Wire Wire Line
	3350 6250 3350 6350
$Comp
L power:+3.3V #PWR0121
U 1 1 61065DCE
P 3350 6150
F 0 "#PWR0121" H 3350 6000 50  0001 C CNN
F 1 "+3.3V" H 3365 6323 50  0000 C CNN
F 2 "" H 3350 6150 50  0001 C CNN
F 3 "" H 3350 6150 50  0001 C CNN
	1    3350 6150
	1    0    0    -1  
$EndComp
Wire Wire Line
	3350 6150 3350 6250
Connection ~ 3350 6250
$Comp
L Device:C C?
U 1 1 61071DA8
P 3850 6500
AR Path="/5FC0F1CD/61071DA8" Ref="C?"  Part="1" 
AR Path="/61071DA8" Ref="C5"  Part="1" 
F 0 "C5" H 3965 6546 50  0000 L CNN
F 1 "4.7u" H 3965 6455 50  0000 L CNN
F 2 "Capacitor_SMD:C_1206_3216Metric_Pad1.42x1.75mm_HandSolder" H 3888 6350 50  0001 C CNN
F 3 "~" H 3850 6500 50  0001 C CNN
	1    3850 6500
	1    0    0    -1  
$EndComp
$Comp
L power:GND #PWR?
U 1 1 61071DAE
P 3850 7450
AR Path="/5FC0F1CD/61071DAE" Ref="#PWR?"  Part="1" 
AR Path="/61071DAE" Ref="#PWR0122"  Part="1" 
F 0 "#PWR0122" H 3850 7200 50  0001 C CNN
F 1 "GND" H 3855 7277 50  0000 C CNN
F 2 "" H 3850 7450 50  0001 C CNN
F 3 "" H 3850 7450 50  0001 C CNN
	1    3850 7450
	1    0    0    -1  
$EndComp
Wire Wire Line
	3850 6650 3850 7450
$Comp
L Device:C C?
U 1 1 61071DB5
P 4250 6850
AR Path="/5FC0F1CD/61071DB5" Ref="C?"  Part="1" 
AR Path="/61071DB5" Ref="C7"  Part="1" 
F 0 "C7" H 4365 6896 50  0000 L CNN
F 1 "100n" H 4365 6805 50  0000 L CNN
F 2 "Capacitor_SMD:C_1206_3216Metric_Pad1.42x1.75mm_HandSolder" H 4288 6700 50  0001 C CNN
F 3 "~" H 4250 6850 50  0001 C CNN
	1    4250 6850
	1    0    0    -1  
$EndComp
$Comp
L power:GND #PWR?
U 1 1 61071DBE
P 4250 7450
AR Path="/5FC0F1CD/61071DBE" Ref="#PWR?"  Part="1" 
AR Path="/61071DBE" Ref="#PWR0123"  Part="1" 
F 0 "#PWR0123" H 4250 7200 50  0001 C CNN
F 1 "GND" H 4255 7277 50  0000 C CNN
F 2 "" H 4250 7450 50  0001 C CNN
F 3 "" H 4250 7450 50  0001 C CNN
	1    4250 7450
	1    0    0    -1  
$EndComp
Wire Wire Line
	4250 7000 4250 7450
$Comp
L Device:L_Core_Ferrite L?
U 1 1 61071DC5
P 3600 6250
AR Path="/5FC0F1CD/61071DC5" Ref="L?"  Part="1" 
AR Path="/61071DC5" Ref="L2"  Part="1" 
F 0 "L2" V 3825 6250 50  0000 C CNN
F 1 "100u" V 3734 6250 50  0000 C CNN
F 2 "Inductor_SMD:L_1812_4532Metric_Pad1.30x3.40mm_HandSolder" H 3600 6250 50  0001 C CNN
F 3 "~" H 3600 6250 50  0001 C CNN
	1    3600 6250
	0    -1   -1   0   
$EndComp
Wire Wire Line
	3350 6250 3450 6250
Wire Wire Line
	3750 6250 3850 6250
Wire Wire Line
	4250 6250 4250 6700
Wire Wire Line
	3850 6350 3850 6250
Connection ~ 3850 6250
Wire Wire Line
	3850 6250 4250 6250
$Comp
L power:+3.3VA #PWR0124
U 1 1 610975E8
P 4250 6150
F 0 "#PWR0124" H 4250 6000 50  0001 C CNN
F 1 "+3.3VA" H 4265 6323 50  0000 C CNN
F 2 "" H 4250 6150 50  0001 C CNN
F 3 "" H 4250 6150 50  0001 C CNN
	1    4250 6150
	1    0    0    -1  
$EndComp
Wire Wire Line
	4250 6150 4250 6250
Connection ~ 4250 6250
Text GLabel 2700 2750 2    50   Output ~ 0
MIC-MCU
Wire Wire Line
	2700 2750 2600 2750
Text GLabel 1100 1550 0    50   Input ~ 0
RX
Wire Wire Line
	1100 1550 1200 1550
Text GLabel 8300 3150 2    50   Output ~ 0
TX-OUT
Wire Wire Line
	8200 3150 8300 3150
$Comp
L Device:L_Core_Ferrite L?
U 1 1 610F9230
P 1850 6250
AR Path="/5FC0F1CD/610F9230" Ref="L?"  Part="1" 
AR Path="/610F9230" Ref="L1"  Part="1" 
F 0 "L1" V 2075 6250 50  0000 C CNN
F 1 "100u" V 1984 6250 50  0000 C CNN
F 2 "Inductor_SMD:L_1812_4532Metric_Pad1.30x3.40mm_HandSolder" H 1850 6250 50  0001 C CNN
F 3 "~" H 1850 6250 50  0001 C CNN
	1    1850 6250
	0    -1   -1   0   
$EndComp
Wire Wire Line
	2000 6250 2100 6250
$Comp
L power:VCC #PWR0125
U 1 1 610FCE28
P 1600 6150
F 0 "#PWR0125" H 1600 6000 50  0001 C CNN
F 1 "VCC" H 1617 6323 50  0000 C CNN
F 2 "" H 1600 6150 50  0001 C CNN
F 3 "" H 1600 6150 50  0001 C CNN
	1    1600 6150
	1    0    0    -1  
$EndComp
Wire Wire Line
	1600 6150 1600 6250
Wire Wire Line
	1600 6250 1700 6250
$Comp
L power:VCC #PWR0126
U 1 1 6110096D
P 6650 2750
F 0 "#PWR0126" H 6650 2600 50  0001 C CNN
F 1 "VCC" H 6667 2923 50  0000 C CNN
F 2 "" H 6650 2750 50  0001 C CNN
F 3 "" H 6650 2750 50  0001 C CNN
	1    6650 2750
	1    0    0    -1  
$EndComp
Wire Wire Line
	6650 2750 6650 2850
Wire Wire Line
	6650 2850 6800 2850
Text GLabel 6700 3550 0    50   Input ~ 0
RX3V
Text GLabel 6700 3400 0    50   Input ~ 0
PWM
Wire Wire Line
	6700 3400 6800 3400
Wire Wire Line
	6700 3550 6800 3550
Text GLabel 2700 2150 2    50   Input ~ 0
RX3V
Wire Wire Line
	2700 2150 2600 2150
Text GLabel 5000 1450 2    50   Output ~ 0
I+60_MCU
Text GLabel 5000 1550 2    50   Output ~ 0
Q+60_MCU
Text GLabel 5000 1750 2    50   Output ~ 0
I+80_MCU
Text GLabel 5000 1850 2    50   Output ~ 0
Q+80_MCU
Text GLabel 5000 2050 2    50   Output ~ 0
I+100_MCU
Text GLabel 5000 2150 2    50   Output ~ 0
Q+100MCU
Text GLabel 6700 1450 0    50   Input ~ 0
HP_MCU
Wire Wire Line
	6700 1450 6800 1450
Text GLabel 6700 1750 0    50   Input ~ 0
LO_MCU
Text GLabel 8300 1850 2    50   Output ~ 0
LI_MCU
Wire Wire Line
	8200 1850 8300 1850
Wire Wire Line
	6700 1750 6800 1750
Wire Wire Line
	4850 1450 5000 1450
Wire Wire Line
	4850 1550 5000 1550
Wire Wire Line
	4850 1750 5000 1750
Wire Wire Line
	4850 1850 5000 1850
Wire Wire Line
	4850 2050 5000 2050
Wire Wire Line
	5000 2150 4850 2150
Text GLabel 6750 4150 0    50   Input ~ 0
MIC-MCU
Text GLabel 6750 4250 0    50   Input ~ 0
LI_MCU
Text GLabel 6750 4350 0    50   Input ~ 0
I+60_MCU
Text GLabel 6750 4450 0    50   Input ~ 0
Q+60_MCU
Text GLabel 6750 4550 0    50   Input ~ 0
I+80_MCU
Text GLabel 6750 4650 0    50   Input ~ 0
Q+80_MCU
Text GLabel 6750 4750 0    50   Input ~ 0
I+100_MCU
Text GLabel 6750 4850 0    50   Input ~ 0
Q+100MCU
Text GLabel 6750 5650 0    50   Output ~ 0
PTT
Text GLabel 6750 4950 0    50   Output ~ 0
HP_MCU
Text GLabel 6750 5050 0    50   Output ~ 0
LO_MCU
Text GLabel 6750 5550 0    50   Output ~ 0
PWM
Text GLabel 6750 5450 0    50   Output ~ 0
RX3V
Text GLabel 6750 5350 0    50   Output ~ 0
SDA
Text GLabel 6750 5250 0    50   Output ~ 0
SCL
Wire Wire Line
	6750 4150 6950 4150
Wire Wire Line
	6750 4250 6950 4250
Wire Wire Line
	6750 4350 6950 4350
Wire Wire Line
	6750 4450 6950 4450
Wire Wire Line
	6750 4550 6950 4550
Wire Wire Line
	6750 4650 6950 4650
Wire Wire Line
	6750 4750 6950 4750
Wire Wire Line
	6750 4850 6950 4850
Wire Wire Line
	6750 5250 6950 5250
Wire Wire Line
	6750 5350 6950 5350
Wire Wire Line
	6950 5450 6750 5450
Wire Wire Line
	6750 5550 6950 5550
Wire Wire Line
	6950 5650 6750 5650
$Comp
L power:GND #PWR0127
U 1 1 611ED287
P 7550 5750
F 0 "#PWR0127" H 7550 5500 50  0001 C CNN
F 1 "GND" H 7555 5577 50  0000 C CNN
F 2 "" H 7550 5750 50  0001 C CNN
F 3 "" H 7550 5750 50  0001 C CNN
	1    7550 5750
	1    0    0    -1  
$EndComp
$Comp
L power:GND #PWR0128
U 1 1 611ED79A
P 6850 5750
F 0 "#PWR0128" H 6850 5500 50  0001 C CNN
F 1 "GND" H 6855 5577 50  0000 C CNN
F 2 "" H 6850 5750 50  0001 C CNN
F 3 "" H 6850 5750 50  0001 C CNN
	1    6850 5750
	1    0    0    -1  
$EndComp
Wire Wire Line
	6950 4950 6750 4950
Wire Wire Line
	6950 5050 6750 5050
Wire Wire Line
	6950 5150 6850 5150
Wire Wire Line
	6850 5150 6850 5750
Wire Wire Line
	7450 4150 7550 4150
Wire Wire Line
	7550 4150 7550 4250
Wire Wire Line
	7450 5650 7550 5650
Connection ~ 7550 5650
Wire Wire Line
	7550 5650 7550 5750
Wire Wire Line
	7450 5550 7550 5550
Connection ~ 7550 5550
Wire Wire Line
	7550 5550 7550 5650
Wire Wire Line
	7450 5450 7550 5450
Connection ~ 7550 5450
Wire Wire Line
	7550 5450 7550 5550
Wire Wire Line
	7450 5350 7550 5350
Connection ~ 7550 5350
Wire Wire Line
	7550 5350 7550 5450
Wire Wire Line
	7450 5250 7550 5250
Connection ~ 7550 5250
Wire Wire Line
	7550 5250 7550 5350
Wire Wire Line
	7450 5150 7550 5150
Connection ~ 7550 5150
Wire Wire Line
	7550 5150 7550 5250
Wire Wire Line
	7450 5050 7550 5050
Connection ~ 7550 5050
Wire Wire Line
	7550 5050 7550 5150
Wire Wire Line
	7450 4950 7550 4950
Connection ~ 7550 4950
Wire Wire Line
	7550 4950 7550 5050
Wire Wire Line
	7450 4850 7550 4850
Connection ~ 7550 4850
Wire Wire Line
	7550 4850 7550 4950
Wire Wire Line
	7450 4750 7550 4750
Connection ~ 7550 4750
Wire Wire Line
	7550 4750 7550 4850
Wire Wire Line
	7450 4650 7550 4650
Connection ~ 7550 4650
Wire Wire Line
	7550 4650 7550 4750
Wire Wire Line
	7450 4550 7550 4550
Connection ~ 7550 4550
Wire Wire Line
	7550 4550 7550 4650
Wire Wire Line
	7450 4450 7550 4450
Connection ~ 7550 4450
Wire Wire Line
	7550 4450 7550 4550
Wire Wire Line
	7450 4350 7550 4350
Connection ~ 7550 4350
Wire Wire Line
	7550 4350 7550 4450
Wire Wire Line
	7450 4250 7550 4250
Connection ~ 7550 4250
Wire Wire Line
	7550 4250 7550 4350
$Comp
L Connector:Barrel_Jack_Switch J7
U 1 1 6126476C
P 9850 3650
F 0 "J7" H 9620 3692 50  0000 R CNN
F 1 "12V" H 9620 3601 50  0000 R CNN
F 2 "Connector_BarrelJack:BarrelJack_Horizontal" H 9900 3610 50  0001 C CNN
F 3 "~" H 9900 3610 50  0001 C CNN
	1    9850 3650
	-1   0    0    -1  
$EndComp
$Comp
L power:GND #PWR02
U 1 1 61265BFE
P 9450 3850
F 0 "#PWR02" H 9450 3600 50  0001 C CNN
F 1 "GND" H 9455 3677 50  0000 C CNN
F 2 "" H 9450 3850 50  0001 C CNN
F 3 "" H 9450 3850 50  0001 C CNN
	1    9450 3850
	1    0    0    -1  
$EndComp
Wire Wire Line
	9550 3750 9450 3750
Wire Wire Line
	9450 3750 9450 3850
$Comp
L power:VCC #PWR01
U 1 1 61275E2E
P 9450 3450
F 0 "#PWR01" H 9450 3300 50  0001 C CNN
F 1 "VCC" H 9467 3623 50  0000 C CNN
F 2 "" H 9450 3450 50  0001 C CNN
F 3 "" H 9450 3450 50  0001 C CNN
	1    9450 3450
	1    0    0    -1  
$EndComp
Wire Wire Line
	9550 3550 9450 3550
Wire Wire Line
	9450 3550 9450 3450
Wire Wire Line
	2600 1450 3450 1450
Wire Wire Line
	2600 1550 3450 1550
NoConn ~ 9550 3650
Text GLabel 6700 3150 0    50   Input ~ 0
CLK2
Wire Wire Line
	6700 3150 6800 3150
$Comp
L Connector_Generic:Conn_02x16_Odd_Even J4
U 1 1 61134BF7
P 7150 4850
F 0 "J4" H 7200 5767 50  0000 C CNN
F 1 "MCU" H 7200 5676 50  0000 C CNN
F 2 "Connector_PinHeader_2.54mm:PinHeader_2x16_P2.54mm_Vertical" H 7150 4850 50  0001 C CNN
F 3 "~" H 7150 4850 50  0001 C CNN
	1    7150 4850
	1    0    0    -1  
$EndComp
$EndSCHEMATC
