(kicad_sch (version 20211123) (generator eeschema)

  (uuid 77da2cca-802e-41d0-b76d-7e6565304ae6)

  (paper "A4")

  (lib_symbols
    (symbol "Device:C" (pin_numbers hide) (pin_names (offset 0.254)) (in_bom yes) (on_board yes)
      (property "Reference" "C" (id 0) (at 0.635 2.54 0)
        (effects (font (size 1.27 1.27)) (justify left))
      )
      (property "Value" "C" (id 1) (at 0.635 -2.54 0)
        (effects (font (size 1.27 1.27)) (justify left))
      )
      (property "Footprint" "" (id 2) (at 0.9652 -3.81 0)
        (effects (font (size 1.27 1.27)) hide)
      )
      (property "Datasheet" "~" (id 3) (at 0 0 0)
        (effects (font (size 1.27 1.27)) hide)
      )
      (property "ki_keywords" "cap capacitor" (id 4) (at 0 0 0)
        (effects (font (size 1.27 1.27)) hide)
      )
      (property "ki_description" "Unpolarized capacitor" (id 5) (at 0 0 0)
        (effects (font (size 1.27 1.27)) hide)
      )
      (property "ki_fp_filters" "C_*" (id 6) (at 0 0 0)
        (effects (font (size 1.27 1.27)) hide)
      )
      (symbol "C_0_1"
        (polyline
          (pts
            (xy -2.032 -0.762)
            (xy 2.032 -0.762)
          )
          (stroke (width 0.508) (type default) (color 0 0 0 0))
          (fill (type none))
        )
        (polyline
          (pts
            (xy -2.032 0.762)
            (xy 2.032 0.762)
          )
          (stroke (width 0.508) (type default) (color 0 0 0 0))
          (fill (type none))
        )
      )
      (symbol "C_1_1"
        (pin passive line (at 0 3.81 270) (length 2.794)
          (name "~" (effects (font (size 1.27 1.27))))
          (number "1" (effects (font (size 1.27 1.27))))
        )
        (pin passive line (at 0 -3.81 90) (length 2.794)
          (name "~" (effects (font (size 1.27 1.27))))
          (number "2" (effects (font (size 1.27 1.27))))
        )
      )
    )
    (symbol "Device:R" (pin_numbers hide) (pin_names (offset 0)) (in_bom yes) (on_board yes)
      (property "Reference" "R" (id 0) (at 2.032 0 90)
        (effects (font (size 1.27 1.27)))
      )
      (property "Value" "R" (id 1) (at 0 0 90)
        (effects (font (size 1.27 1.27)))
      )
      (property "Footprint" "" (id 2) (at -1.778 0 90)
        (effects (font (size 1.27 1.27)) hide)
      )
      (property "Datasheet" "~" (id 3) (at 0 0 0)
        (effects (font (size 1.27 1.27)) hide)
      )
      (property "ki_keywords" "R res resistor" (id 4) (at 0 0 0)
        (effects (font (size 1.27 1.27)) hide)
      )
      (property "ki_description" "Resistor" (id 5) (at 0 0 0)
        (effects (font (size 1.27 1.27)) hide)
      )
      (property "ki_fp_filters" "R_*" (id 6) (at 0 0 0)
        (effects (font (size 1.27 1.27)) hide)
      )
      (symbol "R_0_1"
        (rectangle (start -1.016 -2.54) (end 1.016 2.54)
          (stroke (width 0.254) (type default) (color 0 0 0 0))
          (fill (type none))
        )
      )
      (symbol "R_1_1"
        (pin passive line (at 0 3.81 270) (length 1.27)
          (name "~" (effects (font (size 1.27 1.27))))
          (number "1" (effects (font (size 1.27 1.27))))
        )
        (pin passive line (at 0 -3.81 90) (length 1.27)
          (name "~" (effects (font (size 1.27 1.27))))
          (number "2" (effects (font (size 1.27 1.27))))
        )
      )
    )
    (symbol "Transistor_FET:BSS123" (pin_names hide) (in_bom yes) (on_board yes)
      (property "Reference" "Q" (id 0) (at 5.08 1.905 0)
        (effects (font (size 1.27 1.27)) (justify left))
      )
      (property "Value" "BSS123" (id 1) (at 5.08 0 0)
        (effects (font (size 1.27 1.27)) (justify left))
      )
      (property "Footprint" "Package_TO_SOT_SMD:SOT-23" (id 2) (at 5.08 -1.905 0)
        (effects (font (size 1.27 1.27) italic) (justify left) hide)
      )
      (property "Datasheet" "http://www.diodes.com/assets/Datasheets/ds30366.pdf" (id 3) (at 0 0 0)
        (effects (font (size 1.27 1.27)) (justify left) hide)
      )
      (property "ki_keywords" "N-Channel MOSFET" (id 4) (at 0 0 0)
        (effects (font (size 1.27 1.27)) hide)
      )
      (property "ki_description" "0.17A Id, 100V Vds, N-Channel MOSFET, SOT-23" (id 5) (at 0 0 0)
        (effects (font (size 1.27 1.27)) hide)
      )
      (property "ki_fp_filters" "SOT?23*" (id 6) (at 0 0 0)
        (effects (font (size 1.27 1.27)) hide)
      )
      (symbol "BSS123_0_1"
        (polyline
          (pts
            (xy 0.254 0)
            (xy -2.54 0)
          )
          (stroke (width 0) (type default) (color 0 0 0 0))
          (fill (type none))
        )
        (polyline
          (pts
            (xy 0.254 1.905)
            (xy 0.254 -1.905)
          )
          (stroke (width 0.254) (type default) (color 0 0 0 0))
          (fill (type none))
        )
        (polyline
          (pts
            (xy 0.762 -1.27)
            (xy 0.762 -2.286)
          )
          (stroke (width 0.254) (type default) (color 0 0 0 0))
          (fill (type none))
        )
        (polyline
          (pts
            (xy 0.762 0.508)
            (xy 0.762 -0.508)
          )
          (stroke (width 0.254) (type default) (color 0 0 0 0))
          (fill (type none))
        )
        (polyline
          (pts
            (xy 0.762 2.286)
            (xy 0.762 1.27)
          )
          (stroke (width 0.254) (type default) (color 0 0 0 0))
          (fill (type none))
        )
        (polyline
          (pts
            (xy 2.54 2.54)
            (xy 2.54 1.778)
          )
          (stroke (width 0) (type default) (color 0 0 0 0))
          (fill (type none))
        )
        (polyline
          (pts
            (xy 2.54 -2.54)
            (xy 2.54 0)
            (xy 0.762 0)
          )
          (stroke (width 0) (type default) (color 0 0 0 0))
          (fill (type none))
        )
        (polyline
          (pts
            (xy 0.762 -1.778)
            (xy 3.302 -1.778)
            (xy 3.302 1.778)
            (xy 0.762 1.778)
          )
          (stroke (width 0) (type default) (color 0 0 0 0))
          (fill (type none))
        )
        (polyline
          (pts
            (xy 1.016 0)
            (xy 2.032 0.381)
            (xy 2.032 -0.381)
            (xy 1.016 0)
          )
          (stroke (width 0) (type default) (color 0 0 0 0))
          (fill (type outline))
        )
        (polyline
          (pts
            (xy 2.794 0.508)
            (xy 2.921 0.381)
            (xy 3.683 0.381)
            (xy 3.81 0.254)
          )
          (stroke (width 0) (type default) (color 0 0 0 0))
          (fill (type none))
        )
        (polyline
          (pts
            (xy 3.302 0.381)
            (xy 2.921 -0.254)
            (xy 3.683 -0.254)
            (xy 3.302 0.381)
          )
          (stroke (width 0) (type default) (color 0 0 0 0))
          (fill (type none))
        )
        (circle (center 1.651 0) (radius 2.794)
          (stroke (width 0.254) (type default) (color 0 0 0 0))
          (fill (type none))
        )
        (circle (center 2.54 -1.778) (radius 0.254)
          (stroke (width 0) (type default) (color 0 0 0 0))
          (fill (type outline))
        )
        (circle (center 2.54 1.778) (radius 0.254)
          (stroke (width 0) (type default) (color 0 0 0 0))
          (fill (type outline))
        )
      )
      (symbol "BSS123_1_1"
        (pin input line (at -5.08 0 0) (length 2.54)
          (name "G" (effects (font (size 1.27 1.27))))
          (number "1" (effects (font (size 1.27 1.27))))
        )
        (pin passive line (at 2.54 -5.08 90) (length 2.54)
          (name "S" (effects (font (size 1.27 1.27))))
          (number "2" (effects (font (size 1.27 1.27))))
        )
        (pin passive line (at 2.54 5.08 270) (length 2.54)
          (name "D" (effects (font (size 1.27 1.27))))
          (number "3" (effects (font (size 1.27 1.27))))
        )
      )
    )
    (symbol "power:+12V" (power) (pin_names (offset 0)) (in_bom yes) (on_board yes)
      (property "Reference" "#PWR" (id 0) (at 0 -3.81 0)
        (effects (font (size 1.27 1.27)) hide)
      )
      (property "Value" "+12V" (id 1) (at 0 3.556 0)
        (effects (font (size 1.27 1.27)))
      )
      (property "Footprint" "" (id 2) (at 0 0 0)
        (effects (font (size 1.27 1.27)) hide)
      )
      (property "Datasheet" "" (id 3) (at 0 0 0)
        (effects (font (size 1.27 1.27)) hide)
      )
      (property "ki_keywords" "power-flag" (id 4) (at 0 0 0)
        (effects (font (size 1.27 1.27)) hide)
      )
      (property "ki_description" "Power symbol creates a global label with name \"+12V\"" (id 5) (at 0 0 0)
        (effects (font (size 1.27 1.27)) hide)
      )
      (symbol "+12V_0_1"
        (polyline
          (pts
            (xy -0.762 1.27)
            (xy 0 2.54)
          )
          (stroke (width 0) (type default) (color 0 0 0 0))
          (fill (type none))
        )
        (polyline
          (pts
            (xy 0 0)
            (xy 0 2.54)
          )
          (stroke (width 0) (type default) (color 0 0 0 0))
          (fill (type none))
        )
        (polyline
          (pts
            (xy 0 2.54)
            (xy 0.762 1.27)
          )
          (stroke (width 0) (type default) (color 0 0 0 0))
          (fill (type none))
        )
      )
      (symbol "+12V_1_1"
        (pin power_in line (at 0 0 90) (length 0) hide
          (name "+12V" (effects (font (size 1.27 1.27))))
          (number "1" (effects (font (size 1.27 1.27))))
        )
      )
    )
    (symbol "power:GND" (power) (pin_names (offset 0)) (in_bom yes) (on_board yes)
      (property "Reference" "#PWR" (id 0) (at 0 -6.35 0)
        (effects (font (size 1.27 1.27)) hide)
      )
      (property "Value" "GND" (id 1) (at 0 -3.81 0)
        (effects (font (size 1.27 1.27)))
      )
      (property "Footprint" "" (id 2) (at 0 0 0)
        (effects (font (size 1.27 1.27)) hide)
      )
      (property "Datasheet" "" (id 3) (at 0 0 0)
        (effects (font (size 1.27 1.27)) hide)
      )
      (property "ki_keywords" "power-flag" (id 4) (at 0 0 0)
        (effects (font (size 1.27 1.27)) hide)
      )
      (property "ki_description" "Power symbol creates a global label with name \"GND\" , ground" (id 5) (at 0 0 0)
        (effects (font (size 1.27 1.27)) hide)
      )
      (symbol "GND_0_1"
        (polyline
          (pts
            (xy 0 0)
            (xy 0 -1.27)
            (xy 1.27 -1.27)
            (xy 0 -2.54)
            (xy -1.27 -1.27)
            (xy 0 -1.27)
          )
          (stroke (width 0) (type default) (color 0 0 0 0))
          (fill (type none))
        )
      )
      (symbol "GND_1_1"
        (pin power_in line (at 0 0 270) (length 0) hide
          (name "GND" (effects (font (size 1.27 1.27))))
          (number "1" (effects (font (size 1.27 1.27))))
        )
      )
    )
  )

  (junction (at 127 82.55) (diameter 0) (color 0 0 0 0)
    (uuid 73b91187-402f-413a-b6b6-de3a08a3d063)
  )
  (junction (at 142.24 109.22) (diameter 0) (color 0 0 0 0)
    (uuid 7d82f212-87ae-49b5-a858-754db4d63e71)
  )
  (junction (at 152.4 88.9) (diameter 0) (color 0 0 0 0)
    (uuid 94b00495-ead5-4831-aba6-393eed4a8963)
  )
  (junction (at 142.24 96.52) (diameter 0) (color 0 0 0 0)
    (uuid dacfdf43-b6df-4f97-a6e1-60488f5aa466)
  )

  (wire (pts (xy 165.1 80.01) (xy 142.24 80.01))
    (stroke (width 0) (type default) (color 0 0 0 0))
    (uuid 067063ef-affc-4d22-8463-eb3e4abccdc8)
  )
  (wire (pts (xy 152.4 88.9) (xy 152.4 91.44))
    (stroke (width 0) (type default) (color 0 0 0 0))
    (uuid 0dba4188-4d5d-4639-8660-efefc4d5a305)
  )
  (wire (pts (xy 127 78.74) (xy 127 82.55))
    (stroke (width 0) (type default) (color 0 0 0 0))
    (uuid 16549060-9b09-4398-bb3c-1cc4f729b649)
  )
  (wire (pts (xy 142.24 109.22) (xy 165.1 109.22))
    (stroke (width 0) (type default) (color 0 0 0 0))
    (uuid 17a6417b-f710-45ed-b36e-0b1751a9bfae)
  )
  (wire (pts (xy 124.46 82.55) (xy 127 82.55))
    (stroke (width 0) (type default) (color 0 0 0 0))
    (uuid 1847bca2-7399-4868-b317-8fcd5b03c5d2)
  )
  (wire (pts (xy 142.24 80.01) (xy 142.24 83.82))
    (stroke (width 0) (type default) (color 0 0 0 0))
    (uuid 1e4144a2-dcd0-4d77-89a0-3c43ef7bd94c)
  )
  (wire (pts (xy 127 82.55) (xy 127 86.36))
    (stroke (width 0) (type default) (color 0 0 0 0))
    (uuid 2994bc5d-84b4-47b9-a9f5-5d8749e03b62)
  )
  (wire (pts (xy 116.84 82.55) (xy 114.3 82.55))
    (stroke (width 0) (type default) (color 0 0 0 0))
    (uuid 537f8fe3-d874-4456-bfa7-e5b2ebec0ce0)
  )
  (wire (pts (xy 114.3 82.55) (xy 114.3 85.09))
    (stroke (width 0) (type default) (color 0 0 0 0))
    (uuid 574b1deb-60af-4b99-b1be-f03614f117ad)
  )
  (wire (pts (xy 162.56 88.9) (xy 165.1 88.9))
    (stroke (width 0) (type default) (color 0 0 0 0))
    (uuid 75bbc27b-3f73-4cce-b410-5e2f33c98da8)
  )
  (wire (pts (xy 127 93.98) (xy 127 96.52))
    (stroke (width 0) (type default) (color 0 0 0 0))
    (uuid 87af42d1-8c08-4c94-898a-c911fecf609d)
  )
  (wire (pts (xy 152.4 99.06) (xy 152.4 101.6))
    (stroke (width 0) (type default) (color 0 0 0 0))
    (uuid 920059e5-cba9-47dd-882e-f220f3e39af7)
  )
  (wire (pts (xy 142.24 96.52) (xy 142.24 93.98))
    (stroke (width 0) (type default) (color 0 0 0 0))
    (uuid 9c456ba7-5815-4871-9457-b3284de048ff)
  )
  (wire (pts (xy 149.86 88.9) (xy 152.4 88.9))
    (stroke (width 0) (type default) (color 0 0 0 0))
    (uuid b30b41e2-55d3-4427-8baa-83c7c22c0605)
  )
  (wire (pts (xy 127 96.52) (xy 142.24 96.52))
    (stroke (width 0) (type default) (color 0 0 0 0))
    (uuid c841fe01-1f38-4d16-a611-d0352cc30bad)
  )
  (wire (pts (xy 142.24 99.06) (xy 142.24 96.52))
    (stroke (width 0) (type default) (color 0 0 0 0))
    (uuid e0dd4523-a6ea-492b-a1a3-0626822387bd)
  )
  (wire (pts (xy 142.24 106.68) (xy 142.24 109.22))
    (stroke (width 0) (type default) (color 0 0 0 0))
    (uuid ebeab8ff-5991-4846-adc3-4c9b79f045cd)
  )
  (wire (pts (xy 152.4 88.9) (xy 154.94 88.9))
    (stroke (width 0) (type default) (color 0 0 0 0))
    (uuid fd34b360-6379-4899-b833-7ae7564c3c8f)
  )
  (wire (pts (xy 114.3 109.22) (xy 142.24 109.22))
    (stroke (width 0) (type default) (color 0 0 0 0))
    (uuid ff549bca-9ea4-49ed-99c5-f93ada89284c)
  )

  (hierarchical_label "RX3V" (shape input) (at 165.1 88.9 0)
    (effects (font (size 1.27 1.27)) (justify left))
    (uuid 9191d309-53de-4a4d-9d0d-42c0517e891b)
  )
  (hierarchical_label "RF" (shape bidirectional) (at 114.3 109.22 180)
    (effects (font (size 1.27 1.27)) (justify right))
    (uuid e306214a-aa5b-4ae9-995e-abcbfb292164)
  )
  (hierarchical_label "TX" (shape input) (at 165.1 109.22 0)
    (effects (font (size 1.27 1.27)) (justify left))
    (uuid e3345484-d946-4858-94fb-5e27e75e5fdf)
  )
  (hierarchical_label "RX" (shape output) (at 165.1 80.01 0)
    (effects (font (size 1.27 1.27)) (justify left))
    (uuid f36375ea-302e-4afc-a81d-9a26475a879f)
  )

  (symbol (lib_id "Device:R") (at 152.4 95.25 0) (unit 1)
    (in_bom yes) (on_board yes)
    (uuid 436a3073-a1c5-471d-8a69-fe3e85ef8323)
    (property "Reference" "R702" (id 0) (at 154.178 94.0816 0)
      (effects (font (size 1.27 1.27)) (justify left))
    )
    (property "Value" "10k" (id 1) (at 154.178 96.393 0)
      (effects (font (size 1.27 1.27)) (justify left))
    )
    (property "Footprint" "Resistor_SMD:R_1206_3216Metric_Pad1.42x1.75mm_HandSolder" (id 2) (at 150.622 95.25 90)
      (effects (font (size 1.27 1.27)) hide)
    )
    (property "Datasheet" "~" (id 3) (at 152.4 95.25 0)
      (effects (font (size 1.27 1.27)) hide)
    )
    (pin "1" (uuid aef117dc-2b9e-46a2-9525-d120cb1fd213))
    (pin "2" (uuid 5e8bc1ff-70b4-4314-82ab-f08455862b0e))
  )

  (symbol (lib_id "power:GND") (at 152.4 101.6 0) (unit 1)
    (in_bom yes) (on_board yes)
    (uuid 4c1f41d4-6390-4737-8351-1aceb92026f5)
    (property "Reference" "#PWR0703" (id 0) (at 152.4 107.95 0)
      (effects (font (size 1.27 1.27)) hide)
    )
    (property "Value" "GND" (id 1) (at 152.527 105.9942 0))
    (property "Footprint" "" (id 2) (at 152.4 101.6 0)
      (effects (font (size 1.27 1.27)) hide)
    )
    (property "Datasheet" "" (id 3) (at 152.4 101.6 0)
      (effects (font (size 1.27 1.27)) hide)
    )
    (pin "1" (uuid 606b15fd-1bf4-4b42-bdb1-589bb46bc4f0))
  )

  (symbol (lib_id "power:+12V") (at 127 78.74 0) (unit 1)
    (in_bom yes) (on_board yes)
    (uuid 61ee2295-9d8a-48af-bc26-8352ffcb1aec)
    (property "Reference" "#PWR0702" (id 0) (at 127 82.55 0)
      (effects (font (size 1.27 1.27)) hide)
    )
    (property "Value" "+12V" (id 1) (at 127.381 74.3458 0))
    (property "Footprint" "" (id 2) (at 127 78.74 0)
      (effects (font (size 1.27 1.27)) hide)
    )
    (property "Datasheet" "" (id 3) (at 127 78.74 0)
      (effects (font (size 1.27 1.27)) hide)
    )
    (pin "1" (uuid 63f92404-3f6a-446c-8090-3038857c8d54))
  )

  (symbol (lib_id "Transistor_FET:BSS123") (at 144.78 88.9 180) (unit 1)
    (in_bom yes) (on_board yes)
    (uuid 83c7a0c1-48ab-4709-aece-4f45cf0d2dcc)
    (property "Reference" "Q701" (id 0) (at 139.573 87.7316 0)
      (effects (font (size 1.27 1.27)) (justify left))
    )
    (property "Value" "BSS123" (id 1) (at 139.573 90.043 0)
      (effects (font (size 1.27 1.27)) (justify left))
    )
    (property "Footprint" "Package_TO_SOT_SMD:SOT-23" (id 2) (at 139.7 86.995 0)
      (effects (font (size 1.27 1.27) italic) (justify left) hide)
    )
    (property "Datasheet" "http://www.diodes.com/assets/Datasheets/ds30366.pdf" (id 3) (at 144.78 88.9 0)
      (effects (font (size 1.27 1.27)) (justify left) hide)
    )
    (pin "1" (uuid 447ab6f1-2688-420f-9418-9d08e00f625f))
    (pin "2" (uuid 9ff7922d-f863-4199-8478-194c2af52f7e))
    (pin "3" (uuid 0390ef39-01df-4706-8bd1-002e0ae97d11))
  )

  (symbol (lib_id "Device:C") (at 120.65 82.55 270) (unit 1)
    (in_bom yes) (on_board yes)
    (uuid 848d27cc-2922-4ce0-9b3f-32cb6d4011bc)
    (property "Reference" "C701" (id 0) (at 120.65 76.1492 90))
    (property "Value" "100n" (id 1) (at 120.65 78.4606 90))
    (property "Footprint" "Capacitor_SMD:C_1206_3216Metric_Pad1.42x1.75mm_HandSolder" (id 2) (at 116.84 83.5152 0)
      (effects (font (size 1.27 1.27)) hide)
    )
    (property "Datasheet" "~" (id 3) (at 120.65 82.55 0)
      (effects (font (size 1.27 1.27)) hide)
    )
    (pin "1" (uuid 8aea171e-a7ae-41d1-924c-6d491ea8c735))
    (pin "2" (uuid f989bf8c-3fff-404a-8e1d-b639ee74f519))
  )

  (symbol (lib_id "Device:C") (at 142.24 102.87 180) (unit 1)
    (in_bom yes) (on_board yes)
    (uuid 98161390-2c72-4710-b5ee-ad8136a491c3)
    (property "Reference" "C702" (id 0) (at 145.161 101.7016 0)
      (effects (font (size 1.27 1.27)) (justify right))
    )
    (property "Value" "1n" (id 1) (at 145.161 104.013 0)
      (effects (font (size 1.27 1.27)) (justify right))
    )
    (property "Footprint" "Capacitor_SMD:C_1206_3216Metric_Pad1.42x1.75mm_HandSolder" (id 2) (at 141.2748 99.06 0)
      (effects (font (size 1.27 1.27)) hide)
    )
    (property "Datasheet" "~" (id 3) (at 142.24 102.87 0)
      (effects (font (size 1.27 1.27)) hide)
    )
    (pin "1" (uuid c763810b-d6a0-42c7-a6cc-22f9b0524543))
    (pin "2" (uuid c7dbb8b5-f759-4b20-a342-df5e98b504ef))
  )

  (symbol (lib_id "Device:R") (at 127 90.17 0) (unit 1)
    (in_bom yes) (on_board yes)
    (uuid b88c53c1-e516-4d24-a01e-95e529761ff0)
    (property "Reference" "R701" (id 0) (at 128.778 89.0016 0)
      (effects (font (size 1.27 1.27)) (justify left))
    )
    (property "Value" "10k" (id 1) (at 128.778 91.313 0)
      (effects (font (size 1.27 1.27)) (justify left))
    )
    (property "Footprint" "Resistor_SMD:R_1206_3216Metric_Pad1.42x1.75mm_HandSolder" (id 2) (at 125.222 90.17 90)
      (effects (font (size 1.27 1.27)) hide)
    )
    (property "Datasheet" "~" (id 3) (at 127 90.17 0)
      (effects (font (size 1.27 1.27)) hide)
    )
    (pin "1" (uuid 0ec48e2d-3ec3-4b6c-bc92-f4739ac3cc60))
    (pin "2" (uuid 243eb18c-8154-4599-bfe1-d224b3c84ede))
  )

  (symbol (lib_id "Device:R") (at 158.75 88.9 270) (unit 1)
    (in_bom yes) (on_board yes)
    (uuid ebf9946a-b124-43d5-be3c-7d67cb81276b)
    (property "Reference" "R703" (id 0) (at 158.75 83.6422 90))
    (property "Value" "100" (id 1) (at 158.75 85.9536 90))
    (property "Footprint" "Resistor_SMD:R_1206_3216Metric_Pad1.42x1.75mm_HandSolder" (id 2) (at 158.75 87.122 90)
      (effects (font (size 1.27 1.27)) hide)
    )
    (property "Datasheet" "~" (id 3) (at 158.75 88.9 0)
      (effects (font (size 1.27 1.27)) hide)
    )
    (pin "1" (uuid 0b10ecd4-82a8-43f8-b9e0-b61c04048660))
    (pin "2" (uuid 012a915c-709e-455d-bac2-5b6584633696))
  )

  (symbol (lib_id "power:GND") (at 114.3 85.09 0) (unit 1)
    (in_bom yes) (on_board yes)
    (uuid eecaca51-021e-41c4-9fac-ecc1df7560f6)
    (property "Reference" "#PWR0701" (id 0) (at 114.3 91.44 0)
      (effects (font (size 1.27 1.27)) hide)
    )
    (property "Value" "GND" (id 1) (at 114.427 89.4842 0))
    (property "Footprint" "" (id 2) (at 114.3 85.09 0)
      (effects (font (size 1.27 1.27)) hide)
    )
    (property "Datasheet" "" (id 3) (at 114.3 85.09 0)
      (effects (font (size 1.27 1.27)) hide)
    )
    (pin "1" (uuid 68f64933-108f-4ad6-ab68-36e7aefa8c09))
  )
)
