EESchema Schematic File Version 4
EELAYER 30 0
EELAYER END
$Descr A4 11693 8268
encoding utf-8
Sheet 3 4
Title ""
Date ""
Rev ""
Comp ""
Comment1 ""
Comment2 ""
Comment3 ""
Comment4 ""
$EndDescr
$Comp
L Analog_Switch:SN74CBT3253 U?
U 1 1 5FC0F3FB
P 3800 2600
F 0 "U?" H 4150 3300 50  0000 C CNN
F 1 "SN74CBT3253" H 4150 3200 50  0000 C CNN
F 2 "" H 3800 2600 50  0001 C CNN
F 3 "http://www.ti.com/lit/gpn/sn74cbt3253" H 3800 2600 50  0001 C CNN
	1    3800 2600
	1    0    0    -1  
$EndComp
$Comp
L power:GND #PWR?
U 1 1 5FC0FB4C
P 3800 3650
F 0 "#PWR?" H 3800 3400 50  0001 C CNN
F 1 "GND" H 3805 3477 50  0000 C CNN
F 2 "" H 3800 3650 50  0001 C CNN
F 3 "" H 3800 3650 50  0001 C CNN
	1    3800 3650
	1    0    0    -1  
$EndComp
$Comp
L Device:C C?
U 1 1 5FC104AA
P 7050 5500
F 0 "C?" H 7165 5546 50  0000 L CNN
F 1 "10u" H 7165 5455 50  0000 L CNN
F 2 "" H 7088 5350 50  0001 C CNN
F 3 "~" H 7050 5500 50  0001 C CNN
	1    7050 5500
	1    0    0    -1  
$EndComp
Wire Wire Line
	3800 1900 3800 2000
Wire Wire Line
	3800 3200 3800 3650
$Comp
L power:GND #PWR?
U 1 1 5FC11AB1
P 7050 5950
F 0 "#PWR?" H 7050 5700 50  0001 C CNN
F 1 "GND" H 7055 5777 50  0000 C CNN
F 2 "" H 7050 5950 50  0001 C CNN
F 3 "" H 7050 5950 50  0001 C CNN
	1    7050 5950
	1    0    0    -1  
$EndComp
Wire Wire Line
	7050 5650 7050 5950
$Comp
L Device:C C?
U 1 1 5FC2AAB2
P 1450 2250
F 0 "C?" V 1198 2250 50  0000 C CNN
F 1 "100n" V 1289 2250 50  0000 C CNN
F 2 "" H 1488 2100 50  0001 C CNN
F 3 "~" H 1450 2250 50  0001 C CNN
	1    1450 2250
	0    1    1    0   
$EndComp
$Comp
L power:+5VA #PWR?
U 1 1 5FC3AF8C
P 3800 1900
F 0 "#PWR?" H 3800 1750 50  0001 C CNN
F 1 "+5VA" H 3815 2073 50  0000 C CNN
F 2 "" H 3800 1900 50  0001 C CNN
F 3 "" H 3800 1900 50  0001 C CNN
	1    3800 1900
	1    0    0    -1  
$EndComp
$Comp
L Device:C C?
U 1 1 5FC3C75F
P 4900 3400
F 0 "C?" H 5015 3446 50  0000 L CNN
F 1 "470n" H 5015 3355 50  0000 L CNN
F 2 "" H 4938 3250 50  0001 C CNN
F 3 "~" H 4900 3400 50  0001 C CNN
	1    4900 3400
	1    0    0    -1  
$EndComp
$Comp
L Device:C C?
U 1 1 5FC3E130
P 5350 3400
F 0 "C?" H 5465 3446 50  0000 L CNN
F 1 "470n" H 5465 3355 50  0000 L CNN
F 2 "" H 5388 3250 50  0001 C CNN
F 3 "~" H 5350 3400 50  0001 C CNN
	1    5350 3400
	1    0    0    -1  
$EndComp
$Comp
L Device:C C?
U 1 1 5FC3EC92
P 6250 3400
F 0 "C?" H 6365 3446 50  0000 L CNN
F 1 "470n" H 6365 3355 50  0000 L CNN
F 2 "" H 6288 3250 50  0001 C CNN
F 3 "~" H 6250 3400 50  0001 C CNN
	1    6250 3400
	1    0    0    -1  
$EndComp
$Comp
L power:GND #PWR?
U 1 1 5FC45314
P 4900 3650
F 0 "#PWR?" H 4900 3400 50  0001 C CNN
F 1 "GND" H 4905 3477 50  0000 C CNN
F 2 "" H 4900 3650 50  0001 C CNN
F 3 "" H 4900 3650 50  0001 C CNN
	1    4900 3650
	1    0    0    -1  
$EndComp
$Comp
L power:GND #PWR?
U 1 1 5FC46BB6
P 5350 3650
F 0 "#PWR?" H 5350 3400 50  0001 C CNN
F 1 "GND" H 5355 3477 50  0000 C CNN
F 2 "" H 5350 3650 50  0001 C CNN
F 3 "" H 5350 3650 50  0001 C CNN
	1    5350 3650
	1    0    0    -1  
$EndComp
$Comp
L power:GND #PWR?
U 1 1 5FC46F63
P 5800 3650
F 0 "#PWR?" H 5800 3400 50  0001 C CNN
F 1 "GND" H 5805 3477 50  0000 C CNN
F 2 "" H 5800 3650 50  0001 C CNN
F 3 "" H 5800 3650 50  0001 C CNN
	1    5800 3650
	1    0    0    -1  
$EndComp
$Comp
L power:GND #PWR?
U 1 1 5FC4728C
P 6250 3650
F 0 "#PWR?" H 6250 3400 50  0001 C CNN
F 1 "GND" H 6255 3477 50  0000 C CNN
F 2 "" H 6250 3650 50  0001 C CNN
F 3 "" H 6250 3650 50  0001 C CNN
	1    6250 3650
	1    0    0    -1  
$EndComp
Wire Wire Line
	6250 3550 6250 3650
Wire Wire Line
	5800 3550 5800 3650
Wire Wire Line
	5350 3550 5350 3650
Wire Wire Line
	4900 3550 4900 3650
$Comp
L Device:D D?
U 1 1 5FC4A2CC
P 2100 2500
F 0 "D?" V 2054 2579 50  0000 L CNN
F 1 "1N4148W" H 1950 2400 50  0000 L CNN
F 2 "" H 2100 2500 50  0001 C CNN
F 3 "~" H 2100 2500 50  0001 C CNN
	1    2100 2500
	0    1    1    0   
$EndComp
$Comp
L Device:D D?
U 1 1 5FC4B211
P 1700 2500
F 0 "D?" V 1746 2421 50  0000 R CNN
F 1 "1N4148W" H 1850 2600 50  0000 R CNN
F 2 "" H 1700 2500 50  0001 C CNN
F 3 "~" H 1700 2500 50  0001 C CNN
	1    1700 2500
	0    -1   -1   0   
$EndComp
Wire Wire Line
	1600 2250 1700 2250
Wire Wire Line
	2100 2350 2100 2250
Wire Wire Line
	1700 2350 1700 2250
Connection ~ 1700 2250
Wire Wire Line
	1700 2250 2100 2250
$Comp
L power:GND #PWR?
U 1 1 5FC4D90C
P 2100 2750
F 0 "#PWR?" H 2100 2500 50  0001 C CNN
F 1 "GND" H 2105 2577 50  0000 C CNN
F 2 "" H 2100 2750 50  0001 C CNN
F 3 "" H 2100 2750 50  0001 C CNN
	1    2100 2750
	1    0    0    -1  
$EndComp
$Comp
L power:GND #PWR?
U 1 1 5FC4DBCE
P 1700 2750
F 0 "#PWR?" H 1700 2500 50  0001 C CNN
F 1 "GND" H 1705 2577 50  0000 C CNN
F 2 "" H 1700 2750 50  0001 C CNN
F 3 "" H 1700 2750 50  0001 C CNN
	1    1700 2750
	1    0    0    -1  
$EndComp
Wire Wire Line
	1700 2650 1700 2750
Wire Wire Line
	2100 2650 2100 2750
$Comp
L Device:C C?
U 1 1 5FC615A2
P 2650 2000
F 0 "C?" V 2398 2000 50  0000 C CNN
F 1 "100n" V 2489 2000 50  0000 C CNN
F 2 "" H 2688 1850 50  0001 C CNN
F 3 "~" H 2650 2000 50  0001 C CNN
	1    2650 2000
	0    1    1    0   
$EndComp
Wire Wire Line
	4250 2700 4250 2200
Wire Wire Line
	4250 2200 4200 2200
Wire Wire Line
	4300 2800 4300 2450
Wire Wire Line
	4300 2300 4200 2300
Wire Wire Line
	4200 2400 4350 2400
Wire Wire Line
	4350 2400 4350 2750
Wire Wire Line
	4200 2500 4400 2500
Wire Wire Line
	4400 2500 4400 3000
$Comp
L Amplifier_Operational:TL072 U?
U 1 1 5FCFA39E
P 7200 1550
F 0 "U?" H 7200 1917 50  0000 C CNN
F 1 "TL972" H 7200 1826 50  0000 C CNN
F 2 "" H 7200 1550 50  0001 C CNN
F 3 "http://www.ti.com/lit/ds/symlink/tl071.pdf" H 7200 1550 50  0001 C CNN
	1    7200 1550
	-1   0    0    -1  
$EndComp
$Comp
L Amplifier_Operational:TL072 U?
U 2 1 5FCFB27E
P 8550 1100
F 0 "U?" H 8550 1467 50  0000 C CNN
F 1 "TL972" H 8550 1376 50  0000 C CNN
F 2 "" H 8550 1100 50  0001 C CNN
F 3 "http://www.ti.com/lit/ds/symlink/tl071.pdf" H 8550 1100 50  0001 C CNN
	2    8550 1100
	-1   0    0    -1  
$EndComp
$Comp
L Amplifier_Operational:TL072 U?
U 3 1 5FCFC8EC
P 8050 5500
F 0 "U?" H 8008 5546 50  0000 L CNN
F 1 "TL972" H 8008 5455 50  0000 L CNN
F 2 "" H 8050 5500 50  0001 C CNN
F 3 "http://www.ti.com/lit/ds/symlink/tl071.pdf" H 8050 5500 50  0001 C CNN
	3    8050 5500
	1    0    0    -1  
$EndComp
$Comp
L Device:R R?
U 1 1 5FD2BDFC
P 7850 1650
F 0 "R?" V 7950 1650 50  0000 C CNN
F 1 "10k" V 8050 1650 50  0000 C CNN
F 2 "" V 7780 1650 50  0001 C CNN
F 3 "~" H 7850 1650 50  0001 C CNN
	1    7850 1650
	0    -1   1    0   
$EndComp
$Comp
L Device:R R?
U 1 1 5FD2DBCF
P 7850 3050
F 0 "R?" V 7950 3050 50  0000 C CNN
F 1 "10k" V 8050 3050 50  0000 C CNN
F 2 "" V 7780 3050 50  0001 C CNN
F 3 "~" H 7850 3050 50  0001 C CNN
	1    7850 3050
	0    -1   1    0   
$EndComp
$Comp
L Device:R R?
U 1 1 5FD8E444
P 4650 2450
F 0 "R?" V 4857 2450 50  0000 C CNN
F 1 "0" V 4766 2450 50  0000 C CNN
F 2 "" V 4580 2450 50  0001 C CNN
F 3 "~" H 4650 2450 50  0001 C CNN
	1    4650 2450
	0    -1   -1   0   
$EndComp
$Comp
L Device:R R?
U 1 1 5FD8F190
P 4650 2750
F 0 "R?" V 4857 2750 50  0000 C CNN
F 1 "0" V 4766 2750 50  0000 C CNN
F 2 "" V 4580 2750 50  0001 C CNN
F 3 "~" H 4650 2750 50  0001 C CNN
	1    4650 2750
	0    -1   -1   0   
$EndComp
$Comp
L Device:R R?
U 1 1 5FD8FCE0
P 4650 3050
F 0 "R?" V 4857 3050 50  0000 C CNN
F 1 "0" V 4766 3050 50  0000 C CNN
F 2 "" V 4580 3050 50  0001 C CNN
F 3 "~" H 4650 3050 50  0001 C CNN
	1    4650 3050
	0    -1   -1   0   
$EndComp
Wire Wire Line
	4200 2700 4250 2700
Wire Wire Line
	4200 2800 4300 2800
Wire Wire Line
	4200 2900 4350 2900
Wire Wire Line
	4200 3000 4400 3000
Wire Wire Line
	4500 2150 4250 2150
Wire Wire Line
	4250 2150 4250 2200
Connection ~ 4250 2200
Wire Wire Line
	4500 2450 4300 2450
Connection ~ 4300 2450
Wire Wire Line
	4300 2450 4300 2300
Wire Wire Line
	4500 2750 4350 2750
Connection ~ 4350 2750
Wire Wire Line
	4350 2750 4350 2900
Wire Wire Line
	4500 3050 4400 3050
Wire Wire Line
	4400 3050 4400 3000
Connection ~ 4400 3000
Wire Wire Line
	4800 2150 4900 2150
Wire Wire Line
	4800 2750 5800 2750
Wire Wire Line
	4800 3050 6250 3050
$Comp
L Device:C C?
U 1 1 6013CD34
P 8300 5300
F 0 "C?" H 8415 5346 50  0000 L CNN
F 1 "100n" H 8415 5255 50  0000 L CNN
F 2 "" H 8338 5150 50  0001 C CNN
F 3 "~" H 8300 5300 50  0001 C CNN
	1    8300 5300
	1    0    0    -1  
$EndComp
$Comp
L power:GND #PWR?
U 1 1 6014D32E
P 7950 5950
F 0 "#PWR?" H 7950 5700 50  0001 C CNN
F 1 "GND" H 7955 5777 50  0000 C CNN
F 2 "" H 7950 5950 50  0001 C CNN
F 3 "" H 7950 5950 50  0001 C CNN
	1    7950 5950
	1    0    0    -1  
$EndComp
$Comp
L power:GND #PWR?
U 1 1 6014D71C
P 8300 5950
F 0 "#PWR?" H 8300 5700 50  0001 C CNN
F 1 "GND" H 8305 5777 50  0000 C CNN
F 2 "" H 8300 5950 50  0001 C CNN
F 3 "" H 8300 5950 50  0001 C CNN
	1    8300 5950
	1    0    0    -1  
$EndComp
$Comp
L Device:R R?
U 1 1 601E651F
P 7050 1850
F 0 "R?" V 6850 1850 50  0000 C CNN
F 1 "10k" V 6950 1850 50  0000 C CNN
F 2 "" V 6980 1850 50  0001 C CNN
F 3 "~" H 7050 1850 50  0001 C CNN
	1    7050 1850
	0    -1   1    0   
$EndComp
$Comp
L Device:C C?
U 1 1 601E6CFF
P 7350 2000
F 0 "C?" V 7500 2000 50  0000 C CNN
F 1 "10n" V 7600 2000 50  0000 C CNN
F 2 "" H 7388 1850 50  0001 C CNN
F 3 "~" H 7350 2000 50  0001 C CNN
	1    7350 2000
	0    -1   1    0   
$EndComp
Text GLabel 3200 2900 0    50   Input ~ 0
nTX5V
Wire Wire Line
	3400 3000 3300 3000
Wire Wire Line
	3300 3000 3300 2900
Wire Wire Line
	3200 2900 3300 2900
Connection ~ 3300 2900
Wire Wire Line
	3300 2900 3400 2900
Wire Wire Line
	4800 2450 5350 2450
$Comp
L Device:R R?
U 1 1 60276A2E
P 7050 3250
F 0 "R?" V 6850 3250 50  0000 C CNN
F 1 "10k" V 6950 3250 50  0000 C CNN
F 2 "" V 6980 3250 50  0001 C CNN
F 3 "~" H 7050 3250 50  0001 C CNN
	1    7050 3250
	0    -1   1    0   
$EndComp
$Comp
L Device:C C?
U 1 1 6027713F
P 7350 3400
F 0 "C?" V 7500 3400 50  0000 C CNN
F 1 "10n" V 7600 3400 50  0000 C CNN
F 2 "" H 7388 3250 50  0001 C CNN
F 3 "~" H 7350 3400 50  0001 C CNN
	1    7350 3400
	0    -1   1    0   
$EndComp
$Comp
L Amplifier_Operational:TL072 U?
U 1 1 60296B37
P 7200 2950
F 0 "U?" H 7200 3317 50  0000 C CNN
F 1 "TL972" H 7200 3226 50  0000 C CNN
F 2 "" H 7200 2950 50  0001 C CNN
F 3 "http://www.ti.com/lit/ds/symlink/tl071.pdf" H 7200 2950 50  0001 C CNN
	1    7200 2950
	-1   0    0    -1  
$EndComp
$Comp
L Device:R R?
U 1 1 602BE42F
P 9200 1200
F 0 "R?" V 9000 1200 50  0000 C CNN
F 1 "1k" V 9100 1200 50  0000 C CNN
F 2 "" V 9130 1200 50  0001 C CNN
F 3 "~" H 9200 1200 50  0001 C CNN
	1    9200 1200
	0    -1   1    0   
$EndComp
$Comp
L Amplifier_Operational:TL072 U?
U 2 1 602C57B7
P 8550 2450
F 0 "U?" H 8550 2817 50  0000 C CNN
F 1 "TL972" H 8550 2726 50  0000 C CNN
F 2 "" H 8550 2450 50  0001 C CNN
F 3 "http://www.ti.com/lit/ds/symlink/tl071.pdf" H 8550 2450 50  0001 C CNN
	2    8550 2450
	-1   0    0    -1  
$EndComp
$Comp
L Device:R R?
U 1 1 602E6FA3
P 9200 2550
F 0 "R?" V 9000 2550 50  0000 C CNN
F 1 "1k" V 9100 2550 50  0000 C CNN
F 2 "" V 9130 2550 50  0001 C CNN
F 3 "~" H 9200 2550 50  0001 C CNN
	1    9200 2550
	0    -1   1    0   
$EndComp
$Comp
L Device:R R?
U 1 1 602E96EE
P 8400 2750
F 0 "R?" V 8200 2750 50  0000 C CNN
F 1 "10k" V 8300 2750 50  0000 C CNN
F 2 "" V 8330 2750 50  0001 C CNN
F 3 "~" H 8400 2750 50  0001 C CNN
	1    8400 2750
	0    -1   1    0   
$EndComp
$Comp
L Device:R R?
U 1 1 602EDB9B
P 8400 1400
F 0 "R?" V 8200 1400 50  0000 C CNN
F 1 "10k" V 8300 1400 50  0000 C CNN
F 2 "" V 8330 1400 50  0001 C CNN
F 3 "~" H 8400 1400 50  0001 C CNN
	1    8400 1400
	0    -1   1    0   
$EndComp
$Comp
L Device:R R?
U 1 1 5FD76D08
P 4650 2150
F 0 "R?" V 4857 2150 50  0000 C CNN
F 1 "0" V 4766 2150 50  0000 C CNN
F 2 "" V 4580 2150 50  0001 C CNN
F 3 "~" H 4650 2150 50  0001 C CNN
	1    4650 2150
	0    -1   -1   0   
$EndComp
Wire Wire Line
	7600 1450 7500 1450
Wire Wire Line
	7500 1650 7600 1650
Wire Wire Line
	7500 2000 7600 2000
Wire Wire Line
	7600 2000 7600 1850
Connection ~ 7600 1650
Wire Wire Line
	7600 1650 7700 1650
Wire Wire Line
	7200 2000 6800 2000
Wire Wire Line
	6800 2000 6800 1850
Wire Wire Line
	6800 1550 6900 1550
Wire Wire Line
	6900 1850 6800 1850
Connection ~ 6800 1850
Wire Wire Line
	6800 1850 6800 1550
Wire Wire Line
	7200 1850 7600 1850
Connection ~ 7600 1850
Wire Wire Line
	7600 1850 7600 1650
Wire Wire Line
	9050 1200 8950 1200
Wire Wire Line
	7600 2850 7500 2850
Wire Wire Line
	6900 3250 6800 3250
Wire Wire Line
	6800 3250 6800 2950
Wire Wire Line
	7200 3250 7600 3250
Wire Wire Line
	7600 3250 7600 3050
Wire Wire Line
	7600 3050 7500 3050
Wire Wire Line
	7700 3050 7600 3050
Connection ~ 7600 3050
Wire Wire Line
	7500 3400 7600 3400
Wire Wire Line
	7600 3400 7600 3250
Connection ~ 7600 3250
Wire Wire Line
	7200 3400 6800 3400
Wire Wire Line
	6800 3400 6800 3250
Connection ~ 6800 3250
Wire Wire Line
	9050 2550 8950 2550
Wire Wire Line
	8550 2750 8950 2750
Wire Wire Line
	8950 2750 8950 2550
Connection ~ 8950 2550
Wire Wire Line
	8950 2550 8850 2550
Wire Wire Line
	8250 2750 8150 2750
Wire Wire Line
	8150 2750 8150 2450
Wire Wire Line
	8150 2450 8250 2450
Wire Wire Line
	8250 1400 8150 1400
Wire Wire Line
	8150 1400 8150 1100
Wire Wire Line
	8150 1100 8250 1100
Wire Wire Line
	8550 1400 8950 1400
Wire Wire Line
	8950 1400 8950 1200
Connection ~ 8950 1200
Wire Wire Line
	8950 1200 8850 1200
Wire Wire Line
	8850 1000 8950 1000
Wire Wire Line
	8950 1000 8950 900 
$Comp
L Amplifier_Operational:TL072 U?
U 3 1 6047FD94
P 8850 5500
F 0 "U?" H 8808 5546 50  0000 L CNN
F 1 "TL972" H 8808 5455 50  0000 L CNN
F 2 "" H 8850 5500 50  0001 C CNN
F 3 "http://www.ti.com/lit/ds/symlink/tl071.pdf" H 8850 5500 50  0001 C CNN
	3    8850 5500
	1    0    0    -1  
$EndComp
$Comp
L Device:C C?
U 1 1 60482268
P 9100 5250
F 0 "C?" H 9215 5296 50  0000 L CNN
F 1 "100n" H 9215 5205 50  0000 L CNN
F 2 "" H 9138 5100 50  0001 C CNN
F 3 "~" H 9100 5250 50  0001 C CNN
	1    9100 5250
	1    0    0    -1  
$EndComp
$Comp
L power:GND #PWR?
U 1 1 60482709
P 9100 5950
F 0 "#PWR?" H 9100 5700 50  0001 C CNN
F 1 "GND" H 9105 5777 50  0000 C CNN
F 2 "" H 9100 5950 50  0001 C CNN
F 3 "" H 9100 5950 50  0001 C CNN
	1    9100 5950
	1    0    0    -1  
$EndComp
$Comp
L power:GND #PWR?
U 1 1 60483C83
P 8750 5950
F 0 "#PWR?" H 8750 5700 50  0001 C CNN
F 1 "GND" H 8755 5777 50  0000 C CNN
F 2 "" H 8750 5950 50  0001 C CNN
F 3 "" H 8750 5950 50  0001 C CNN
	1    8750 5950
	1    0    0    -1  
$EndComp
$Comp
L power:+5VA #PWR?
U 1 1 6048A044
P 7950 4950
F 0 "#PWR?" H 7950 4800 50  0001 C CNN
F 1 "+5VA" H 7965 5123 50  0000 C CNN
F 2 "" H 7950 4950 50  0001 C CNN
F 3 "" H 7950 4950 50  0001 C CNN
	1    7950 4950
	1    0    0    -1  
$EndComp
$Comp
L power:+5VA #PWR?
U 1 1 6048C23C
P 8750 4900
F 0 "#PWR?" H 8750 4750 50  0001 C CNN
F 1 "+5VA" H 8765 5073 50  0000 C CNN
F 2 "" H 8750 4900 50  0001 C CNN
F 3 "" H 8750 4900 50  0001 C CNN
	1    8750 4900
	1    0    0    -1  
$EndComp
$Comp
L power:+5VA #PWR?
U 1 1 6048C6EB
P 7050 4950
F 0 "#PWR?" H 7050 4800 50  0001 C CNN
F 1 "+5VA" H 7065 5123 50  0000 C CNN
F 2 "" H 7050 4950 50  0001 C CNN
F 3 "" H 7050 4950 50  0001 C CNN
	1    7050 4950
	1    0    0    -1  
$EndComp
Wire Wire Line
	7950 4950 7950 5050
Wire Wire Line
	7950 5050 8300 5050
Wire Wire Line
	8300 5050 8300 5150
Connection ~ 7950 5050
Wire Wire Line
	7950 5050 7950 5200
Wire Wire Line
	8750 4900 8750 5000
Wire Wire Line
	8750 5000 9100 5000
Wire Wire Line
	9100 5000 9100 5100
Connection ~ 8750 5000
Wire Wire Line
	8750 5000 8750 5200
Wire Wire Line
	8300 5450 8300 5950
Wire Wire Line
	8750 5800 8750 5950
Wire Wire Line
	9100 5400 9100 5950
Wire Wire Line
	7950 5800 7950 5950
Wire Wire Line
	4900 2150 4900 3250
$Comp
L Device:C C?
U 1 1 5FC3E8C3
P 5800 3400
F 0 "C?" H 5915 3446 50  0000 L CNN
F 1 "470n" H 5915 3355 50  0000 L CNN
F 2 "" H 5838 3250 50  0001 C CNN
F 3 "~" H 5800 3400 50  0001 C CNN
	1    5800 3400
	1    0    0    -1  
$EndComp
Wire Wire Line
	5800 2750 5800 3250
Wire Wire Line
	6250 3050 6250 3250
$Comp
L Device:C C?
U 1 1 605D02A6
P 8700 1550
F 0 "C?" V 8850 1550 50  0000 C CNN
F 1 "10n" V 8950 1550 50  0000 C CNN
F 2 "" H 8738 1400 50  0001 C CNN
F 3 "~" H 8700 1550 50  0001 C CNN
	1    8700 1550
	0    -1   1    0   
$EndComp
$Comp
L Device:C C?
U 1 1 605D0AD6
P 8750 2900
F 0 "C?" V 8900 2900 50  0000 C CNN
F 1 "10n" V 9000 2900 50  0000 C CNN
F 2 "" H 8788 2750 50  0001 C CNN
F 3 "~" H 8750 2900 50  0001 C CNN
	1    8750 2900
	0    -1   1    0   
$EndComp
Wire Wire Line
	8550 1550 8150 1550
Wire Wire Line
	8150 1550 8150 1400
Connection ~ 8150 1400
Wire Wire Line
	8850 1550 8950 1550
Wire Wire Line
	8950 1550 8950 1400
Connection ~ 8950 1400
Wire Wire Line
	8600 2900 8150 2900
Wire Wire Line
	8150 2900 8150 2750
Connection ~ 8150 2750
Wire Wire Line
	8900 2900 8950 2900
Wire Wire Line
	8950 2900 8950 2750
Connection ~ 8950 2750
$Comp
L Device:C C?
U 1 1 605F919C
P 9600 1200
F 0 "C?" V 9348 1200 50  0000 C CNN
F 1 "10u" V 9439 1200 50  0000 C CNN
F 2 "" H 9638 1050 50  0001 C CNN
F 3 "~" H 9600 1200 50  0001 C CNN
	1    9600 1200
	0    1    1    0   
$EndComp
$Comp
L Device:C C?
U 1 1 605F9954
P 9600 2550
F 0 "C?" V 9348 2550 50  0000 C CNN
F 1 "10u" V 9439 2550 50  0000 C CNN
F 2 "" H 9638 2400 50  0001 C CNN
F 3 "~" H 9600 2550 50  0001 C CNN
	1    9600 2550
	0    1    1    0   
$EndComp
Text HLabel 9850 1200 2    50   Input ~ 0
AF-I
Wire Wire Line
	9850 1200 9750 1200
Text HLabel 9850 2550 2    50   Input ~ 0
AF-Q
Wire Wire Line
	9850 2550 9750 2550
Text HLabel 1150 2250 0    50   Input ~ 0
TX-RF
Wire Wire Line
	1150 2250 1300 2250
Wire Wire Line
	7050 4950 7050 5050
$Comp
L Device:C C?
U 1 1 6066E8FC
P 7450 5500
F 0 "C?" H 7565 5546 50  0000 L CNN
F 1 "100n" H 7565 5455 50  0000 L CNN
F 2 "" H 7488 5350 50  0001 C CNN
F 3 "~" H 7450 5500 50  0001 C CNN
	1    7450 5500
	1    0    0    -1  
$EndComp
Wire Wire Line
	7050 5050 7450 5050
Wire Wire Line
	7450 5050 7450 5350
Connection ~ 7050 5050
Wire Wire Line
	7050 5050 7050 5350
$Comp
L power:GND #PWR?
U 1 1 60680606
P 7450 5950
F 0 "#PWR?" H 7450 5700 50  0001 C CNN
F 1 "GND" H 7455 5777 50  0000 C CNN
F 2 "" H 7450 5950 50  0001 C CNN
F 3 "" H 7450 5950 50  0001 C CNN
	1    7450 5950
	1    0    0    -1  
$EndComp
Wire Wire Line
	7450 5650 7450 5950
$Comp
L 74xx:74HC74 U?
U 1 1 6068CED1
P 2450 4050
F 0 "U?" H 2600 4400 50  0000 C CNN
F 1 "74AC74" H 2600 4300 50  0000 C CNN
F 2 "" H 2450 4050 50  0001 C CNN
F 3 "74xx/74hc_hct74.pdf" H 2450 4050 50  0001 C CNN
	1    2450 4050
	1    0    0    -1  
$EndComp
$Comp
L 74xx:74HC74 U?
U 2 1 60690FF5
P 2450 5000
F 0 "U?" H 2600 5350 50  0000 C CNN
F 1 "74AC74" H 2600 5250 50  0000 C CNN
F 2 "" H 2450 5000 50  0001 C CNN
F 3 "74xx/74hc_hct74.pdf" H 2450 5000 50  0001 C CNN
	2    2450 5000
	1    0    0    -1  
$EndComp
$Comp
L 74xx:74HC74 U?
U 3 1 60692F8E
P 9850 5500
F 0 "U?" H 10080 5546 50  0000 L CNN
F 1 "74HC74" H 10080 5455 50  0000 L CNN
F 2 "" H 9850 5500 50  0001 C CNN
F 3 "74xx/74hc_hct74.pdf" H 9850 5500 50  0001 C CNN
	3    9850 5500
	1    0    0    -1  
$EndComp
Text GLabel 3200 2600 0    50   Input ~ 0
VFO+
Text GLabel 3200 2700 0    50   Input ~ 0
VFO-
Wire Wire Line
	3200 2600 3400 2600
Wire Wire Line
	3200 2700 3400 2700
$Comp
L power:GND #PWR?
U 1 1 606B73BC
P 9850 5950
F 0 "#PWR?" H 9850 5700 50  0001 C CNN
F 1 "GND" H 9855 5777 50  0000 C CNN
F 2 "" H 9850 5950 50  0001 C CNN
F 3 "" H 9850 5950 50  0001 C CNN
	1    9850 5950
	1    0    0    -1  
$EndComp
$Comp
L Device:C C?
U 1 1 60717C95
P 10400 5250
F 0 "C?" H 10515 5296 50  0000 L CNN
F 1 "100n" H 10515 5205 50  0000 L CNN
F 2 "" H 10438 5100 50  0001 C CNN
F 3 "~" H 10400 5250 50  0001 C CNN
	1    10400 5250
	1    0    0    -1  
$EndComp
$Comp
L Device:C C?
U 1 1 60718650
P 10800 5250
F 0 "C?" H 10915 5296 50  0000 L CNN
F 1 "100p" H 10915 5205 50  0000 L CNN
F 2 "" H 10838 5100 50  0001 C CNN
F 3 "~" H 10800 5250 50  0001 C CNN
	1    10800 5250
	1    0    0    -1  
$EndComp
$Comp
L power:GND #PWR?
U 1 1 6071919A
P 10400 5950
F 0 "#PWR?" H 10400 5700 50  0001 C CNN
F 1 "GND" H 10405 5777 50  0000 C CNN
F 2 "" H 10400 5950 50  0001 C CNN
F 3 "" H 10400 5950 50  0001 C CNN
	1    10400 5950
	1    0    0    -1  
$EndComp
$Comp
L power:GND #PWR?
U 1 1 60719683
P 10800 5950
F 0 "#PWR?" H 10800 5700 50  0001 C CNN
F 1 "GND" H 10805 5777 50  0000 C CNN
F 2 "" H 10800 5950 50  0001 C CNN
F 3 "" H 10800 5950 50  0001 C CNN
	1    10800 5950
	1    0    0    -1  
$EndComp
Wire Wire Line
	9850 4900 9850 5000
Wire Wire Line
	9850 5000 10400 5000
Wire Wire Line
	10800 5000 10800 5100
Connection ~ 9850 5000
Wire Wire Line
	9850 5000 9850 5100
Wire Wire Line
	10400 5100 10400 5000
Connection ~ 10400 5000
Wire Wire Line
	10400 5000 10800 5000
Wire Wire Line
	10400 5400 10400 5950
Wire Wire Line
	9850 5900 9850 5950
Wire Wire Line
	10800 5400 10800 5950
$Comp
L power:+5VD #PWR?
U 1 1 6076E114
P 9850 4900
F 0 "#PWR?" H 9850 4750 50  0001 C CNN
F 1 "+5VD" H 9865 5073 50  0000 C CNN
F 2 "" H 9850 4900 50  0001 C CNN
F 3 "" H 9850 4900 50  0001 C CNN
	1    9850 4900
	1    0    0    -1  
$EndComp
$Comp
L Device:C C?
U 1 1 607726EC
P 1150 4500
F 0 "C?" V 898 4500 50  0000 C CNN
F 1 "100n" V 989 4500 50  0000 C CNN
F 2 "" H 1188 4350 50  0001 C CNN
F 3 "~" H 1150 4500 50  0001 C CNN
	1    1150 4500
	0    1    1    0   
$EndComp
$Comp
L Device:R R?
U 1 1 607735CE
P 1450 3950
F 0 "R?" V 1250 3950 50  0000 C CNN
F 1 "10k" V 1350 3950 50  0000 C CNN
F 2 "" V 1380 3950 50  0001 C CNN
F 3 "~" H 1450 3950 50  0001 C CNN
	1    1450 3950
	-1   0    0    1   
$EndComp
$Comp
L Device:R R?
U 1 1 60774112
P 1450 5050
F 0 "R?" V 1250 5050 50  0000 C CNN
F 1 "10k" V 1350 5050 50  0000 C CNN
F 2 "" V 1380 5050 50  0001 C CNN
F 3 "~" H 1450 5050 50  0001 C CNN
	1    1450 5050
	-1   0    0    1   
$EndComp
$Comp
L power:+5VD #PWR?
U 1 1 60774AB2
P 1450 3550
F 0 "#PWR?" H 1450 3400 50  0001 C CNN
F 1 "+5VD" H 1465 3723 50  0000 C CNN
F 2 "" H 1450 3550 50  0001 C CNN
F 3 "" H 1450 3550 50  0001 C CNN
	1    1450 3550
	1    0    0    -1  
$EndComp
$Comp
L power:+5VD #PWR?
U 1 1 607754EC
P 1750 3550
F 0 "#PWR?" H 1750 3400 50  0001 C CNN
F 1 "+5VD" H 1765 3723 50  0000 C CNN
F 2 "" H 1750 3550 50  0001 C CNN
F 3 "" H 1750 3550 50  0001 C CNN
	1    1750 3550
	1    0    0    -1  
$EndComp
Wire Wire Line
	2150 4050 1850 4050
Wire Wire Line
	1850 4050 1850 4500
Wire Wire Line
	1850 5000 2150 5000
Wire Wire Line
	1300 4500 1450 4500
Connection ~ 1850 4500
Wire Wire Line
	1850 4500 1850 5000
Wire Wire Line
	1450 4100 1450 4500
Connection ~ 1450 4500
Wire Wire Line
	1450 4900 1450 4500
Wire Wire Line
	1450 3550 1450 3800
Wire Wire Line
	2450 5300 2450 5400
Wire Wire Line
	1750 5400 1750 4600
Wire Wire Line
	1450 4500 1850 4500
Wire Wire Line
	1750 5400 2450 5400
Wire Wire Line
	2450 4700 2450 4600
Wire Wire Line
	2450 4600 1750 4600
Connection ~ 1750 4600
Wire Wire Line
	1750 4600 1750 4400
Wire Wire Line
	2450 4350 2450 4400
Wire Wire Line
	2450 4400 1750 4400
Connection ~ 1750 4400
Wire Wire Line
	1750 4400 1750 3650
Wire Wire Line
	2450 3750 2450 3650
Wire Wire Line
	2450 3650 1750 3650
Connection ~ 1750 3650
Wire Wire Line
	1750 3650 1750 3550
$Comp
L power:GND #PWR?
U 1 1 6083551A
P 1450 5350
F 0 "#PWR?" H 1450 5100 50  0001 C CNN
F 1 "GND" H 1455 5177 50  0000 C CNN
F 2 "" H 1450 5350 50  0001 C CNN
F 3 "" H 1450 5350 50  0001 C CNN
	1    1450 5350
	1    0    0    -1  
$EndComp
Wire Wire Line
	1450 5200 1450 5350
Wire Wire Line
	2750 3950 2850 3950
Wire Wire Line
	2850 3950 2850 4500
Wire Wire Line
	2850 4500 2050 4500
Wire Wire Line
	2050 4500 2050 4900
Wire Wire Line
	2050 4900 2150 4900
Wire Wire Line
	2750 5100 2950 5100
Wire Wire Line
	2950 5100 2950 3550
Wire Wire Line
	2950 3550 2050 3550
Wire Wire Line
	2050 3550 2050 3950
Wire Wire Line
	2050 3950 2150 3950
NoConn ~ 2750 4150
Text GLabel 3050 3950 2    50   Input ~ 0
VFO+
Text GLabel 3050 4900 2    50   Input ~ 0
VFO-
Wire Wire Line
	3050 3950 2850 3950
Connection ~ 2850 3950
Wire Wire Line
	3050 4900 2750 4900
Text HLabel 900  4500 0    50   Input ~ 0
VFO
Wire Wire Line
	900  4500 1000 4500
$Comp
L Transistor_BJT:MMBT3904 Q?
U 1 1 6088E454
P 6300 5450
F 0 "Q?" H 6491 5496 50  0000 L CNN
F 1 "MMBT3904" H 6491 5405 50  0000 L CNN
F 2 "Package_TO_SOT_SMD:SOT-23" H 6500 5375 50  0001 L CIN
F 3 "https://www.fairchildsemi.com/datasheets/2N/2N3904.pdf" H 6300 5450 50  0001 L CNN
	1    6300 5450
	1    0    0    -1  
$EndComp
$Comp
L Device:R R?
U 1 1 6088F560
P 6400 4900
F 0 "R?" V 6200 4900 50  0000 C CNN
F 1 "10k" V 6300 4900 50  0000 C CNN
F 2 "" V 6330 4900 50  0001 C CNN
F 3 "~" H 6400 4900 50  0001 C CNN
	1    6400 4900
	-1   0    0    1   
$EndComp
$Comp
L power:GND #PWR?
U 1 1 608911DA
P 6400 5950
F 0 "#PWR?" H 6400 5700 50  0001 C CNN
F 1 "GND" H 6405 5777 50  0000 C CNN
F 2 "" H 6400 5950 50  0001 C CNN
F 3 "" H 6400 5950 50  0001 C CNN
	1    6400 5950
	1    0    0    -1  
$EndComp
$Comp
L Device:R R?
U 1 1 60891A32
P 6000 5700
F 0 "R?" V 5800 5700 50  0000 C CNN
F 1 "100k" V 5900 5700 50  0000 C CNN
F 2 "" V 5930 5700 50  0001 C CNN
F 3 "~" H 6000 5700 50  0001 C CNN
	1    6000 5700
	-1   0    0    1   
$EndComp
$Comp
L Device:R R?
U 1 1 60892313
P 5750 5450
F 0 "R?" V 5550 5450 50  0000 C CNN
F 1 "10k" V 5650 5450 50  0000 C CNN
F 2 "" V 5680 5450 50  0001 C CNN
F 3 "~" H 5750 5450 50  0001 C CNN
	1    5750 5450
	0    -1   -1   0   
$EndComp
Text GLabel 6500 5150 2    50   Input ~ 0
nTX5V
$Comp
L power:GND #PWR?
U 1 1 608AC1E8
P 6000 5950
F 0 "#PWR?" H 6000 5700 50  0001 C CNN
F 1 "GND" H 6005 5777 50  0000 C CNN
F 2 "" H 6000 5950 50  0001 C CNN
F 3 "" H 6000 5950 50  0001 C CNN
	1    6000 5950
	1    0    0    -1  
$EndComp
$Comp
L power:+5VA #PWR?
U 1 1 608ACF7A
P 6400 4650
F 0 "#PWR?" H 6400 4500 50  0001 C CNN
F 1 "+5VA" H 6415 4823 50  0000 C CNN
F 2 "" H 6400 4650 50  0001 C CNN
F 3 "" H 6400 4650 50  0001 C CNN
	1    6400 4650
	1    0    0    -1  
$EndComp
Wire Wire Line
	5900 5450 6000 5450
Wire Wire Line
	6400 5050 6400 5150
Wire Wire Line
	6400 5150 6500 5150
Connection ~ 6400 5150
Wire Wire Line
	6400 5150 6400 5250
Wire Wire Line
	6400 5650 6400 5950
Wire Wire Line
	6000 5950 6000 5850
Wire Wire Line
	6000 5450 6000 5550
Connection ~ 6000 5450
Wire Wire Line
	6000 5450 6100 5450
Text HLabel 5500 5450 0    50   Input ~ 0
TX3V
Wire Wire Line
	5500 5450 5600 5450
Wire Wire Line
	6400 4650 6400 4750
Wire Wire Line
	7600 1450 7600 1350
Wire Wire Line
	7600 2750 7600 2850
Wire Wire Line
	8000 3050 8150 3050
Wire Wire Line
	8150 3050 8150 2900
Connection ~ 8150 2900
Wire Wire Line
	6900 2950 6800 2950
Wire Wire Line
	8000 1650 8150 1650
Wire Wire Line
	8150 1650 8150 1550
Connection ~ 8150 1550
Wire Wire Line
	8850 2350 8950 2350
Wire Wire Line
	8950 2350 8950 2250
Wire Wire Line
	9350 1200 9450 1200
Wire Wire Line
	9350 2550 9450 2550
$Comp
L Device:R R?
U 1 1 60F3932C
P 6550 2950
F 0 "R?" V 6650 2950 50  0000 C CNN
F 1 "100" V 6750 2950 50  0000 C CNN
F 2 "" V 6480 2950 50  0001 C CNN
F 3 "~" H 6550 2950 50  0001 C CNN
	1    6550 2950
	0    -1   1    0   
$EndComp
$Comp
L Device:R R?
U 1 1 60F545BD
P 6550 2450
F 0 "R?" V 6650 2450 50  0000 C CNN
F 1 "100" V 6750 2450 50  0000 C CNN
F 2 "" V 6480 2450 50  0001 C CNN
F 3 "~" H 6550 2450 50  0001 C CNN
	1    6550 2450
	0    -1   1    0   
$EndComp
$Comp
L Device:R R?
U 1 1 60F728BC
P 6550 1550
F 0 "R?" V 6650 1550 50  0000 C CNN
F 1 "100" V 6750 1550 50  0000 C CNN
F 2 "" V 6480 1550 50  0001 C CNN
F 3 "~" H 6550 1550 50  0001 C CNN
	1    6550 1550
	0    -1   1    0   
$EndComp
$Comp
L Device:R R?
U 1 1 60F7C533
P 6550 1100
F 0 "R?" V 6650 1100 50  0000 C CNN
F 1 "100" V 6750 1100 50  0000 C CNN
F 2 "" V 6480 1100 50  0001 C CNN
F 3 "~" H 6550 1100 50  0001 C CNN
	1    6550 1100
	0    -1   1    0   
$EndComp
Wire Wire Line
	6700 1100 8150 1100
Connection ~ 8150 1100
Wire Wire Line
	6700 1550 6800 1550
Connection ~ 6800 1550
Wire Wire Line
	6700 2450 8150 2450
Connection ~ 8150 2450
Wire Wire Line
	6700 2950 6800 2950
Connection ~ 6800 2950
Wire Wire Line
	4900 1100 4900 2150
Connection ~ 4900 2150
Wire Wire Line
	6250 1550 6250 3050
Connection ~ 6250 3050
Wire Wire Line
	5800 2450 5800 2750
Connection ~ 5800 2750
Text GLabel 7700 1350 2    50   Input ~ 0
I-BAL
Text GLabel 7700 2750 2    50   Input ~ 0
Q-BAL
$Comp
L power:+5VA #PWR?
U 1 1 611D844C
P 1450 6100
F 0 "#PWR?" H 1450 5950 50  0001 C CNN
F 1 "+5VA" H 1465 6273 50  0000 C CNN
F 2 "" H 1450 6100 50  0001 C CNN
F 3 "" H 1450 6100 50  0001 C CNN
	1    1450 6100
	1    0    0    -1  
$EndComp
$Comp
L Device:C C?
U 1 1 611D8FBC
P 1800 7050
F 0 "C?" H 1915 7096 50  0000 L CNN
F 1 "100n" H 1915 7005 50  0000 L CNN
F 2 "" H 1838 6900 50  0001 C CNN
F 3 "~" H 1800 7050 50  0001 C CNN
	1    1800 7050
	1    0    0    -1  
$EndComp
$Comp
L Device:C C?
U 1 1 611D9BB2
P 2200 7050
F 0 "C?" H 2315 7096 50  0000 L CNN
F 1 "10u" H 2315 7005 50  0000 L CNN
F 2 "" H 2238 6900 50  0001 C CNN
F 3 "~" H 2200 7050 50  0001 C CNN
	1    2200 7050
	1    0    0    -1  
$EndComp
$Comp
L Device:R_POT_TRIM RV?
U 1 1 611DBBC3
P 1450 6700
F 0 "RV?" H 1380 6746 50  0000 R CNN
F 1 "1k" H 1380 6655 50  0000 R CNN
F 2 "" H 1450 6700 50  0001 C CNN
F 3 "~" H 1450 6700 50  0001 C CNN
	1    1450 6700
	1    0    0    -1  
$EndComp
$Comp
L power:GND #PWR?
U 1 1 611E0CE8
P 1800 7300
F 0 "#PWR?" H 1800 7050 50  0001 C CNN
F 1 "GND" H 1805 7127 50  0000 C CNN
F 2 "" H 1800 7300 50  0001 C CNN
F 3 "" H 1800 7300 50  0001 C CNN
	1    1800 7300
	1    0    0    -1  
$EndComp
$Comp
L power:GND #PWR?
U 1 1 611E0FCF
P 2200 7300
F 0 "#PWR?" H 2200 7050 50  0001 C CNN
F 1 "GND" H 2205 7127 50  0000 C CNN
F 2 "" H 2200 7300 50  0001 C CNN
F 3 "" H 2200 7300 50  0001 C CNN
	1    2200 7300
	1    0    0    -1  
$EndComp
$Comp
L power:GND #PWR?
U 1 1 611E122C
P 1450 7300
F 0 "#PWR?" H 1450 7050 50  0001 C CNN
F 1 "GND" H 1455 7127 50  0000 C CNN
F 2 "" H 1450 7300 50  0001 C CNN
F 3 "" H 1450 7300 50  0001 C CNN
	1    1450 7300
	1    0    0    -1  
$EndComp
Wire Wire Line
	1600 6700 1800 6700
Wire Wire Line
	1800 6700 1800 6900
Wire Wire Line
	1800 6700 2200 6700
Wire Wire Line
	2200 6700 2200 6900
Connection ~ 1800 6700
Wire Wire Line
	1800 7200 1800 7300
Wire Wire Line
	2200 7200 2200 7300
$Comp
L power:+5VA #PWR?
U 1 1 6123AE79
P 2850 6100
F 0 "#PWR?" H 2850 5950 50  0001 C CNN
F 1 "+5VA" H 2865 6273 50  0000 C CNN
F 2 "" H 2850 6100 50  0001 C CNN
F 3 "" H 2850 6100 50  0001 C CNN
	1    2850 6100
	1    0    0    -1  
$EndComp
$Comp
L Device:C C?
U 1 1 6123AE83
P 3200 7050
F 0 "C?" H 3315 7096 50  0000 L CNN
F 1 "100n" H 3315 7005 50  0000 L CNN
F 2 "" H 3238 6900 50  0001 C CNN
F 3 "~" H 3200 7050 50  0001 C CNN
	1    3200 7050
	1    0    0    -1  
$EndComp
$Comp
L Device:C C?
U 1 1 6123AE8D
P 3600 7050
F 0 "C?" H 3715 7096 50  0000 L CNN
F 1 "10u" H 3715 7005 50  0000 L CNN
F 2 "" H 3638 6900 50  0001 C CNN
F 3 "~" H 3600 7050 50  0001 C CNN
	1    3600 7050
	1    0    0    -1  
$EndComp
$Comp
L Device:R_POT_TRIM RV?
U 1 1 6123AE97
P 2850 6700
F 0 "RV?" H 2780 6746 50  0000 R CNN
F 1 "1k" H 2780 6655 50  0000 R CNN
F 2 "" H 2850 6700 50  0001 C CNN
F 3 "~" H 2850 6700 50  0001 C CNN
	1    2850 6700
	1    0    0    -1  
$EndComp
$Comp
L power:GND #PWR?
U 1 1 6123AEA1
P 3200 7300
F 0 "#PWR?" H 3200 7050 50  0001 C CNN
F 1 "GND" H 3205 7127 50  0000 C CNN
F 2 "" H 3200 7300 50  0001 C CNN
F 3 "" H 3200 7300 50  0001 C CNN
	1    3200 7300
	1    0    0    -1  
$EndComp
$Comp
L power:GND #PWR?
U 1 1 6123AEAB
P 3600 7300
F 0 "#PWR?" H 3600 7050 50  0001 C CNN
F 1 "GND" H 3605 7127 50  0000 C CNN
F 2 "" H 3600 7300 50  0001 C CNN
F 3 "" H 3600 7300 50  0001 C CNN
	1    3600 7300
	1    0    0    -1  
$EndComp
$Comp
L power:GND #PWR?
U 1 1 6123AEB5
P 2850 7300
F 0 "#PWR?" H 2850 7050 50  0001 C CNN
F 1 "GND" H 2855 7127 50  0000 C CNN
F 2 "" H 2850 7300 50  0001 C CNN
F 3 "" H 2850 7300 50  0001 C CNN
	1    2850 7300
	1    0    0    -1  
$EndComp
Wire Wire Line
	3000 6700 3200 6700
Wire Wire Line
	3200 6700 3200 6900
Wire Wire Line
	3200 6700 3600 6700
Wire Wire Line
	3600 6700 3600 6900
Connection ~ 3200 6700
Wire Wire Line
	3200 7200 3200 7300
Wire Wire Line
	3600 7200 3600 7300
Text GLabel 2300 6700 2    50   Input ~ 0
I-BAL
Text GLabel 3700 6700 2    50   Input ~ 0
Q-BAL
Wire Wire Line
	3700 6700 3600 6700
Connection ~ 3600 6700
Wire Wire Line
	2300 6700 2200 6700
Connection ~ 2200 6700
$Comp
L Device:C C?
U 1 1 612F0BAE
P 2650 2500
F 0 "C?" V 2398 2500 50  0000 C CNN
F 1 "100n" V 2489 2500 50  0000 C CNN
F 2 "" H 2688 2350 50  0001 C CNN
F 3 "~" H 2650 2500 50  0001 C CNN
	1    2650 2500
	0    1    1    0   
$EndComp
Wire Wire Line
	2900 2300 2900 2500
Wire Wire Line
	2900 2500 2800 2500
Wire Wire Line
	2900 2300 3400 2300
Wire Wire Line
	2500 2500 2400 2500
Wire Wire Line
	2800 2000 2900 2000
Wire Wire Line
	2900 2000 2900 2200
Wire Wire Line
	2900 2200 3400 2200
Wire Wire Line
	2500 2000 2400 2000
Wire Wire Line
	2100 2250 2400 2250
Connection ~ 2100 2250
Connection ~ 2400 2250
Wire Wire Line
	2400 2250 2400 2500
Wire Wire Line
	2400 2000 2400 2250
Text GLabel 9050 900  2    50   Input ~ 0
I-BAL
Text GLabel 9050 2250 2    50   Input ~ 0
Q-BAL
Wire Wire Line
	9050 2250 8950 2250
Wire Wire Line
	7700 2750 7600 2750
Wire Wire Line
	7700 1350 7600 1350
Wire Wire Line
	9050 900  8950 900 
$Comp
L Device:R R?
U 1 1 61573158
P 1450 7050
F 0 "R?" V 1250 7050 50  0000 C CNN
F 1 "10k" V 1350 7050 50  0000 C CNN
F 2 "" V 1380 7050 50  0001 C CNN
F 3 "~" H 1450 7050 50  0001 C CNN
	1    1450 7050
	-1   0    0    1   
$EndComp
Wire Wire Line
	1450 6850 1450 6900
Wire Wire Line
	1450 7200 1450 7300
$Comp
L Device:R R?
U 1 1 6162C02A
P 1450 6350
F 0 "R?" V 1250 6350 50  0000 C CNN
F 1 "10k" V 1350 6350 50  0000 C CNN
F 2 "" V 1380 6350 50  0001 C CNN
F 3 "~" H 1450 6350 50  0001 C CNN
	1    1450 6350
	-1   0    0    1   
$EndComp
$Comp
L Device:R R?
U 1 1 616682CB
P 2850 7100
F 0 "R?" V 2650 7100 50  0000 C CNN
F 1 "10k" V 2750 7100 50  0000 C CNN
F 2 "" V 2780 7100 50  0001 C CNN
F 3 "~" H 2850 7100 50  0001 C CNN
	1    2850 7100
	-1   0    0    1   
$EndComp
Wire Wire Line
	1450 6550 1450 6500
Wire Wire Line
	1450 6100 1450 6200
$Comp
L Device:R R?
U 1 1 61684E5A
P 2850 6350
F 0 "R?" V 2650 6350 50  0000 C CNN
F 1 "10k" V 2750 6350 50  0000 C CNN
F 2 "" V 2780 6350 50  0001 C CNN
F 3 "~" H 2850 6350 50  0001 C CNN
	1    2850 6350
	-1   0    0    1   
$EndComp
Wire Wire Line
	2850 6100 2850 6200
Wire Wire Line
	2850 6850 2850 6950
Wire Wire Line
	2850 7250 2850 7300
Wire Wire Line
	2850 6500 2850 6550
Wire Wire Line
	5350 2450 5350 2950
Wire Wire Line
	6400 1100 4900 1100
Wire Wire Line
	6400 1550 6250 1550
Wire Wire Line
	6400 2450 5800 2450
Wire Wire Line
	6400 2950 5350 2950
Connection ~ 5350 2950
Wire Wire Line
	5350 2950 5350 3250
$EndSCHEMATC
