(footprint "AirCoil_D6_W1_L7" (version 20211014) (generator pcbnew)
  (layer "F.Cu")
  (tedit 63584A33)
  (attr through_hole)
  (fp_text reference "REF**" (at -0.127 -5.461 unlocked) (layer "F.SilkS")
    (effects (font (size 1 1) (thickness 0.15)))
    (tstamp 47d179d6-7af5-4f12-9ef1-e337045dd9d3)
  )
  (fp_text value "AirCoil_D6_W1_L7" (at 0 6.731 unlocked) (layer "F.Fab")
    (effects (font (size 1 1) (thickness 0.15)))
    (tstamp 2c635e50-a21b-44aa-9280-553e9b106ee6)
  )
  (fp_text user "${REFERENCE}" (at 0 8.636 unlocked) (layer "F.Fab")
    (effects (font (size 1 1) (thickness 0.15)))
    (tstamp 377d817f-38b7-418b-a0a9-3f53e4a072b7)
  )
  (fp_line (start -3.048 1.143) (end 3.048 -0.254) (layer "F.SilkS") (width 0.12) (tstamp 3dc8d19a-101d-456f-ac57-c31cadce4d41))
  (fp_line (start -3.048 0.127) (end 3.048 -1.27) (layer "F.SilkS") (width 0.12) (tstamp 814cab1b-56d0-49f2-81e2-29aed5f379be))
  (fp_line (start -3.048 2.032) (end 3.048 0.635) (layer "F.SilkS") (width 0.12) (tstamp b79fdba9-2d5d-4a93-abe4-b78cac65e650))
  (fp_line (start -3.048 -0.762) (end 3.048 -2.159) (layer "F.SilkS") (width 0.12) (tstamp c616feea-0883-4623-8360-0206fe89694c))
  (pad "1" thru_hole circle (at 3.048 -3.556) (size 2 2) (drill 1.2) (layers *.Cu *.Mask) (tstamp bd00d5d3-c585-4956-9700-3b550e52db6a))
  (pad "2" thru_hole circle (at -3.048 3.556) (size 2 2) (drill 1.2) (layers *.Cu *.Mask) (tstamp 27603851-80df-426d-954c-ac55918804fb))
)
