(footprint "ETC4-1-2" (version 20211014) (generator pcbnew)
  (layer "F.Cu")
  (tedit 6357ECB8)
  (attr smd)
  (fp_text reference "REF**" (at 0 3.81 unlocked) (layer "F.SilkS")
    (effects (font (size 1 1) (thickness 0.15)))
    (tstamp 0dfb9c1e-a13d-4f4d-ba33-9174bfdfa23c)
  )
  (fp_text value "ETC4-1-2" (at 0 -3.556 unlocked) (layer "F.Fab")
    (effects (font (size 1 1) (thickness 0.15)))
    (tstamp a9613da4-1e5d-4c22-848a-0eb120cac168)
  )
  (fp_text user "${REFERENCE}" (at 0 -5.334 unlocked) (layer "F.Fab")
    (effects (font (size 1 1) (thickness 0.15)))
    (tstamp 2a84d177-fe07-4a90-923b-e0c6937e43a8)
  )
  (fp_line (start 1.27 -2.54) (end 1.524 -2.54) (layer "F.SilkS") (width 0.12) (tstamp 5e2c273b-a3a1-4fff-ae2a-c8267b7e354a))
  (fp_line (start 1.524 2.794) (end -1.524 2.794) (layer "F.SilkS") (width 0.12) (tstamp 68a8f4a2-287b-4721-92b3-5551575d79db))
  (fp_line (start -1.524 -2.54) (end 1.27 -2.54) (layer "F.SilkS") (width 0.12) (tstamp cfb41de7-60c8-4a61-ba24-768968ad646b))
  (fp_line (start 2.032 -2.032) (end 2.032 2.286) (layer "F.SilkS") (width 0.12) (tstamp d24ca0bf-74ba-4baf-b6c0-80d015898986))
  (fp_line (start -2.032 2.286) (end -2.032 -2.032) (layer "F.SilkS") (width 0.12) (tstamp fa45a9b8-9a70-4cb9-9cfa-84505c37ddef))
  (fp_rect (start -1.27 -0.254) (end 1.27 0.508) (layer "F.SilkS") (width 0.12) (fill none) (tstamp 0d29a8cf-cdc6-4237-95e8-2786907a1864))
  (fp_rect (start 1.27 0.508) (end -1.27 0.508) (layer "F.SilkS") (width 0.12) (fill none) (tstamp 602d96f3-e5a0-4717-bb9b-be8fb932a2b5))
  (fp_rect (start -1.27 -0.254) (end 1.27 -0.254) (layer "F.SilkS") (width 0.12) (fill none) (tstamp b518d6f8-fe66-4d15-ab08-9813f01ee6c7))
  (fp_arc (start -2.032 -2.032) (mid -1.88321 -2.39121) (end -1.524 -2.54) (layer "F.SilkS") (width 0.12) (tstamp 6c587410-eb6a-429a-b2de-9c49e78af545))
  (fp_arc (start 2.032 2.286) (mid 1.88321 2.64521) (end 1.524 2.794) (layer "F.SilkS") (width 0.12) (tstamp 77c3fd29-f3f8-4b12-a7b4-ab3851888a9a))
  (fp_arc (start -1.524 2.794) (mid -1.88321 2.64521) (end -2.032 2.286) (layer "F.SilkS") (width 0.12) (tstamp 9a1fdace-6b30-4b75-8a0b-fe13254a2a1a))
  (fp_arc (start 1.524 -2.54) (mid 1.88321 -2.39121) (end 2.032 -2.032) (layer "F.SilkS") (width 0.12) (tstamp facedacb-c5ec-4468-856f-c92c46628384))
  (pad "1" smd roundrect (at -1.27 -1.397 180) (size 0.762 1.65) (layers "F.Cu" "F.Paste" "F.Mask") (roundrect_rratio 0.25) (tstamp 0337a280-02c7-4b7f-bcd2-c37deb9034ba))
  (pad "2" smd roundrect (at 1.27 -1.397 180) (size 0.762 1.65) (layers "F.Cu" "F.Paste" "F.Mask") (roundrect_rratio 0.25) (tstamp 4659fd43-4d86-4018-a328-f40242e3d627))
  (pad "3" smd roundrect (at 1.27 1.778 180) (size 0.762 1.65) (layers "F.Cu" "F.Paste" "F.Mask") (roundrect_rratio 0.25) (tstamp 7ba4d891-3192-43ac-82c9-8ee385fba020))
  (pad "4" smd roundrect (at 0 1.778 180) (size 0.762 1.65) (layers "F.Cu" "F.Paste" "F.Mask") (roundrect_rratio 0.25) (tstamp fd3e0823-a4a6-42b2-9a29-2670362732e8))
  (pad "5" smd roundrect (at -1.27 1.778 180) (size 0.762 1.65) (layers "F.Cu" "F.Paste" "F.Mask") (roundrect_rratio 0.25) (tstamp 6a1c39d3-f69b-4229-9f40-0ccb0dee7537))
)
