M48
; DRILL file {KiCad 6.0.2+dfsg-1} date Do 10 Nov 2022 17:28:29 CET
; FORMAT={-:-/ absolute / inch / decimal}
; #@! TF.CreationDate,2022-11-10T17:28:29+01:00
; #@! TF.GenerationSoftware,Kicad,Pcbnew,6.0.2+dfsg-1
; #@! TF.FileFunction,Plated,1,2,PTH
FMAT,2
INCH
; #@! TA.AperFunction,Plated,PTH,ViaDrill
T1C0.0157
; #@! TA.AperFunction,Plated,PTH,ComponentDrill
T2C0.0469
%
G90
G05
T1
X3.15Y-3.5
X3.15Y-3.55
X3.15Y-3.6
X3.2Y-3.55
X3.25Y-3.5
X3.25Y-3.55
X3.3Y-2.55
X3.3Y-2.65
X3.3Y-2.8
X3.3Y-2.9
X3.3Y-3.55
X3.3Y-3.6
X3.3Y-3.65
X3.35Y-3.5
X3.35Y-3.55
X3.35Y-3.6
X3.35Y-3.65
X3.375Y-3.1
X3.4Y-2.55
X3.4Y-2.65
X3.4Y-2.8
X3.4Y-2.9
X3.45Y-3.15
X3.45Y-3.3
X3.45Y-3.35
X3.45Y-3.5
X3.45Y-3.6
X3.5Y-2.55
X3.5Y-2.65
X3.5Y-2.8
X3.5Y-2.9
X3.5Y-3.3
X3.525Y-3.1
X3.6Y-2.55
X3.6Y-2.65
X3.6Y-2.8
X3.6Y-2.9
X3.65Y-3.4
X3.65Y-3.45
X3.7Y-2.55
X3.7Y-2.65
X3.7Y-2.8
X3.8Y-2.55
X3.8Y-2.65
X3.8Y-2.8
X3.9Y-2.55
X3.9Y-2.65
X3.9Y-2.8
X3.9Y-2.9
X3.9Y-3.0
X4.0Y-2.55
X4.0Y-2.65
X4.0Y-2.9
X4.0Y-3.0
X4.1Y-2.55
X4.1Y-3.0
X4.125Y-3.525
X4.125Y-3.575
X4.125Y-3.625
X4.125Y-3.675
X4.175Y-3.675
X4.2Y-2.55
X4.225Y-3.0
X4.225Y-3.675
X4.275Y-3.675
X4.3Y-2.55
X4.3Y-3.15
X4.325Y-3.0
X4.35Y-3.05
X4.35Y-3.1
X4.35Y-3.15
X4.35Y-3.2
X4.35Y-3.25
X4.35Y-3.3
X4.4Y-2.55
X4.4Y-3.05
X4.4Y-3.25
X4.4Y-3.3
X4.45Y-3.05
X4.45Y-3.25
X4.45Y-3.3
X4.5Y-2.55
X4.5Y-2.65
X4.5Y-3.0
X4.5Y-3.05
X4.5Y-3.25
X4.5Y-3.3
X4.55Y-3.05
X4.6Y-2.55
X4.6Y-2.65
X4.6Y-2.8
X4.6Y-3.0
X4.675Y-3.075
X4.675Y-3.375
X4.7Y-2.55
X4.7Y-2.65
X4.7Y-2.9
X4.7Y-3.0
X4.725Y-3.075
X4.725Y-3.375
X4.75Y-3.125
X4.75Y-3.175
X4.75Y-3.225
X4.75Y-3.275
X4.75Y-3.325
X4.8Y-2.55
X4.8Y-2.65
X4.8Y-2.8
X4.8Y-3.0
X4.8Y-3.1
X4.9Y-2.55
X4.9Y-2.65
X4.9Y-2.8
X4.9Y-2.9
X5.0Y-2.55
X5.0Y-2.65
X5.1Y-2.55
X5.1Y-3.1
X5.2Y-2.55
X5.2Y-3.1
T2
X3.225Y-3.15
X3.225Y-3.25
X3.225Y-3.35
X3.225Y-3.65
X3.225Y-3.75
T0
M30
