G04 #@! TF.GenerationSoftware,KiCad,Pcbnew,6.0.2+dfsg-1*
G04 #@! TF.CreationDate,2022-11-06T16:24:37+01:00*
G04 #@! TF.ProjectId,cascode,63617363-6f64-4652-9e6b-696361645f70,rev?*
G04 #@! TF.SameCoordinates,Original*
G04 #@! TF.FileFunction,Soldermask,Top*
G04 #@! TF.FilePolarity,Negative*
%FSLAX46Y46*%
G04 Gerber Fmt 4.6, Leading zero omitted, Abs format (unit mm)*
G04 Created by KiCad (PCBNEW 6.0.2+dfsg-1) date 2022-11-06 16:24:37*
%MOMM*%
%LPD*%
G01*
G04 APERTURE LIST*
G04 Aperture macros list*
%AMRoundRect*
0 Rectangle with rounded corners*
0 $1 Rounding radius*
0 $2 $3 $4 $5 $6 $7 $8 $9 X,Y pos of 4 corners*
0 Add a 4 corners polygon primitive as box body*
4,1,4,$2,$3,$4,$5,$6,$7,$8,$9,$2,$3,0*
0 Add four circle primitives for the rounded corners*
1,1,$1+$1,$2,$3*
1,1,$1+$1,$4,$5*
1,1,$1+$1,$6,$7*
1,1,$1+$1,$8,$9*
0 Add four rect primitives between the rounded corners*
20,1,$1+$1,$2,$3,$4,$5,0*
20,1,$1+$1,$4,$5,$6,$7,0*
20,1,$1+$1,$6,$7,$8,$9,0*
20,1,$1+$1,$8,$9,$2,$3,0*%
G04 Aperture macros list end*
%ADD10O,1.802000X1.802000*%
%ADD11RoundRect,0.051000X-0.850000X0.850000X-0.850000X-0.850000X0.850000X-0.850000X0.850000X0.850000X0*%
%ADD12RoundRect,0.301001X0.462499X0.624999X-0.462499X0.624999X-0.462499X-0.624999X0.462499X-0.624999X0*%
%ADD13RoundRect,0.301001X-0.624999X0.462499X-0.624999X-0.462499X0.624999X-0.462499X0.624999X0.462499X0*%
%ADD14RoundRect,0.301001X0.624999X-0.462499X0.624999X0.462499X-0.624999X0.462499X-0.624999X-0.462499X0*%
%ADD15RoundRect,0.301001X-0.462499X-0.624999X0.462499X-0.624999X0.462499X0.624999X-0.462499X0.624999X0*%
%ADD16RoundRect,0.051000X0.400000X-0.450000X0.400000X0.450000X-0.400000X0.450000X-0.400000X-0.450000X0*%
%ADD17RoundRect,0.051000X-0.450000X-0.400000X0.450000X-0.400000X0.450000X0.400000X-0.450000X0.400000X0*%
%ADD18RoundRect,0.051000X2.540000X-0.750000X2.540000X0.750000X-2.540000X0.750000X-2.540000X-0.750000X0*%
%ADD19RoundRect,0.051000X-2.540000X0.750000X-2.540000X-0.750000X2.540000X-0.750000X2.540000X0.750000X0*%
G04 APERTURE END LIST*
D10*
X125730000Y-67056000D03*
D11*
X128270000Y-67056000D03*
D12*
X127417500Y-78740000D03*
X130392500Y-78740000D03*
X124877500Y-76200000D03*
X127852500Y-76200000D03*
D13*
X122555000Y-78957500D03*
X122555000Y-75982500D03*
D12*
X110272500Y-78740000D03*
X113247500Y-78740000D03*
X110272500Y-76200000D03*
X113247500Y-76200000D03*
X119797500Y-70104000D03*
X122772500Y-70104000D03*
D14*
X111760000Y-67637000D03*
X111760000Y-70612000D03*
D15*
X117692500Y-70104000D03*
X114717500Y-70104000D03*
D12*
X119797500Y-67564000D03*
X122772500Y-67564000D03*
D15*
X128270000Y-70104000D03*
X125295000Y-70104000D03*
D16*
X127000000Y-72168000D03*
X127950000Y-74168000D03*
X126050000Y-74168000D03*
X122555000Y-72152000D03*
X123505000Y-74152000D03*
X121605000Y-74152000D03*
D17*
X115935000Y-73152000D03*
X113935000Y-74102000D03*
X113935000Y-72202000D03*
X119745000Y-73152000D03*
X117745000Y-74102000D03*
X117745000Y-72202000D03*
D18*
X135890000Y-73025000D03*
X135890000Y-68775000D03*
X135890000Y-77275000D03*
D19*
X104140000Y-73025000D03*
X104140000Y-77275000D03*
X104140000Y-68775000D03*
D13*
X130175000Y-76417500D03*
X130175000Y-73442500D03*
X131445000Y-71047000D03*
X131445000Y-68072000D03*
D14*
X115570000Y-75982500D03*
X115570000Y-78957500D03*
D12*
X108585000Y-73025000D03*
X111560000Y-73025000D03*
X114717500Y-67564000D03*
X117692500Y-67564000D03*
M02*
