%TF.GenerationSoftware,KiCad,Pcbnew,6.0.2+dfsg-1*%
%TF.CreationDate,2022-11-06T16:55:43+01:00*%
%TF.ProjectId,RXModule,52584d6f-6475-46c6-952e-6b696361645f,rev?*%
%TF.SameCoordinates,Original*%
%TF.FileFunction,Soldermask,Bot*%
%TF.FilePolarity,Negative*%
%FSLAX46Y46*%
G04 Gerber Fmt 4.6, Leading zero omitted, Abs format (unit mm)*
G04 Created by KiCad (PCBNEW 6.0.2+dfsg-1) date 2022-11-06 16:55:43*
%MOMM*%
%LPD*%
G01*
G04 APERTURE LIST*
%ADD10R,1.700000X1.700000*%
%ADD11O,1.700000X1.700000*%
%ADD12O,2.200000X4.000000*%
%ADD13R,4.000000X2.200000*%
%ADD14O,4.000000X2.200000*%
%ADD15R,5.080000X1.500000*%
%ADD16C,2.000000*%
G04 APERTURE END LIST*
D10*
%TO.C,J104*%
X123317000Y-91059000D03*
D11*
X120777000Y-91059000D03*
%TD*%
D12*
%TO.C,J103*%
X154783000Y-82837500D03*
D13*
X162083000Y-82337500D03*
D14*
X159183000Y-89437500D03*
X157983000Y-92137500D03*
D12*
X165983000Y-86937500D03*
%TD*%
D15*
%TO.C,J102*%
X165325500Y-69020000D03*
X165325500Y-60520000D03*
%TD*%
%TO.C,J101*%
X118745000Y-60520000D03*
X118745000Y-69020000D03*
%TD*%
D16*
%TO.C,C210*%
X143256000Y-58420000D03*
X149256000Y-58420000D03*
%TD*%
M02*
