%TF.GenerationSoftware,KiCad,Pcbnew,6.0.2+dfsg-1*%
%TF.CreationDate,2022-11-06T16:55:42+01:00*%
%TF.ProjectId,RXModule,52584d6f-6475-46c6-952e-6b696361645f,rev?*%
%TF.SameCoordinates,Original*%
%TF.FileFunction,Legend,Top*%
%TF.FilePolarity,Positive*%
%FSLAX46Y46*%
G04 Gerber Fmt 4.6, Leading zero omitted, Abs format (unit mm)*
G04 Created by KiCad (PCBNEW 6.0.2+dfsg-1) date 2022-11-06 16:55:42*
%MOMM*%
%LPD*%
G01*
G04 APERTURE LIST*
%ADD10C,0.150000*%
%ADD11C,0.200000*%
%ADD12C,0.120000*%
G04 APERTURE END LIST*
D10*
X119762380Y-87820476D02*
X119762380Y-88296666D01*
X120238571Y-88344285D01*
X120190952Y-88296666D01*
X120143333Y-88201428D01*
X120143333Y-87963333D01*
X120190952Y-87868095D01*
X120238571Y-87820476D01*
X120333809Y-87772857D01*
X120571904Y-87772857D01*
X120667142Y-87820476D01*
X120714761Y-87868095D01*
X120762380Y-87963333D01*
X120762380Y-88201428D01*
X120714761Y-88296666D01*
X120667142Y-88344285D01*
X119762380Y-87487142D02*
X120762380Y-87153809D01*
X119762380Y-86820476D01*
X123030000Y-88391904D02*
X122982380Y-88487142D01*
X122982380Y-88630000D01*
X123030000Y-88772857D01*
X123125238Y-88868095D01*
X123220476Y-88915714D01*
X123410952Y-88963333D01*
X123553809Y-88963333D01*
X123744285Y-88915714D01*
X123839523Y-88868095D01*
X123934761Y-88772857D01*
X123982380Y-88630000D01*
X123982380Y-88534761D01*
X123934761Y-88391904D01*
X123887142Y-88344285D01*
X123553809Y-88344285D01*
X123553809Y-88534761D01*
X123982380Y-87915714D02*
X122982380Y-87915714D01*
X123982380Y-87344285D01*
X122982380Y-87344285D01*
X123982380Y-86868095D02*
X122982380Y-86868095D01*
X122982380Y-86630000D01*
X123030000Y-86487142D01*
X123125238Y-86391904D01*
X123220476Y-86344285D01*
X123410952Y-86296666D01*
X123553809Y-86296666D01*
X123744285Y-86344285D01*
X123839523Y-86391904D01*
X123934761Y-86487142D01*
X123982380Y-86630000D01*
X123982380Y-86868095D01*
X164068285Y-71080380D02*
X164401619Y-72080380D01*
X164734952Y-71080380D01*
X165401619Y-71556571D02*
X165068285Y-71556571D01*
X165068285Y-72080380D02*
X165068285Y-71080380D01*
X165544476Y-71080380D01*
X166115904Y-71080380D02*
X166306380Y-71080380D01*
X166401619Y-71128000D01*
X166496857Y-71223238D01*
X166544476Y-71413714D01*
X166544476Y-71747047D01*
X166496857Y-71937523D01*
X166401619Y-72032761D01*
X166306380Y-72080380D01*
X166115904Y-72080380D01*
X166020666Y-72032761D01*
X165925428Y-71937523D01*
X165877809Y-71747047D01*
X165877809Y-71413714D01*
X165925428Y-71223238D01*
X166020666Y-71128000D01*
X166115904Y-71080380D01*
D11*
X123302380Y-78906666D02*
X122826190Y-79240000D01*
X123302380Y-79478095D02*
X122302380Y-79478095D01*
X122302380Y-79097142D01*
X122350000Y-79001904D01*
X122397619Y-78954285D01*
X122492857Y-78906666D01*
X122635714Y-78906666D01*
X122730952Y-78954285D01*
X122778571Y-79001904D01*
X122826190Y-79097142D01*
X122826190Y-79478095D01*
X122302380Y-78573333D02*
X123302380Y-77906666D01*
X122302380Y-77906666D02*
X123302380Y-78573333D01*
X124245714Y-84859047D02*
X125245714Y-84859047D01*
X124293333Y-84859047D02*
X124245714Y-84763809D01*
X124245714Y-84573333D01*
X124293333Y-84478095D01*
X124340952Y-84430476D01*
X124436190Y-84382857D01*
X124721904Y-84382857D01*
X124817142Y-84430476D01*
X124864761Y-84478095D01*
X124912380Y-84573333D01*
X124912380Y-84763809D01*
X124864761Y-84859047D01*
X124912380Y-83954285D02*
X124245714Y-83954285D01*
X124436190Y-83954285D02*
X124340952Y-83906666D01*
X124293333Y-83859047D01*
X124245714Y-83763809D01*
X124245714Y-83668571D01*
X124912380Y-83192380D02*
X124864761Y-83287619D01*
X124817142Y-83335238D01*
X124721904Y-83382857D01*
X124436190Y-83382857D01*
X124340952Y-83335238D01*
X124293333Y-83287619D01*
X124245714Y-83192380D01*
X124245714Y-83049523D01*
X124293333Y-82954285D01*
X124340952Y-82906666D01*
X124436190Y-82859047D01*
X124721904Y-82859047D01*
X124817142Y-82906666D01*
X124864761Y-82954285D01*
X124912380Y-83049523D01*
X124912380Y-83192380D01*
X124245714Y-82573333D02*
X124245714Y-82192380D01*
X123912380Y-82430476D02*
X124769523Y-82430476D01*
X124864761Y-82382857D01*
X124912380Y-82287619D01*
X124912380Y-82192380D01*
X124912380Y-81716190D02*
X124864761Y-81811428D01*
X124817142Y-81859047D01*
X124721904Y-81906666D01*
X124436190Y-81906666D01*
X124340952Y-81859047D01*
X124293333Y-81811428D01*
X124245714Y-81716190D01*
X124245714Y-81573333D01*
X124293333Y-81478095D01*
X124340952Y-81430476D01*
X124436190Y-81382857D01*
X124721904Y-81382857D01*
X124817142Y-81430476D01*
X124864761Y-81478095D01*
X124912380Y-81573333D01*
X124912380Y-81716190D01*
X124531428Y-80954285D02*
X124531428Y-80192380D01*
X124912380Y-79716190D02*
X124245714Y-79716190D01*
X124340952Y-79716190D02*
X124293333Y-79668571D01*
X124245714Y-79573333D01*
X124245714Y-79430476D01*
X124293333Y-79335238D01*
X124388571Y-79287619D01*
X124912380Y-79287619D01*
X124388571Y-79287619D02*
X124293333Y-79240000D01*
X124245714Y-79144761D01*
X124245714Y-79001904D01*
X124293333Y-78906666D01*
X124388571Y-78859047D01*
X124912380Y-78859047D01*
X123912380Y-78382857D02*
X124721904Y-78382857D01*
X124817142Y-78335238D01*
X124864761Y-78287619D01*
X124912380Y-78192380D01*
X124912380Y-78001904D01*
X124864761Y-77906666D01*
X124817142Y-77859047D01*
X124721904Y-77811428D01*
X123912380Y-77811428D01*
X123579047Y-78287619D02*
X123626666Y-78240000D01*
X123674285Y-78287619D01*
X123626666Y-78335238D01*
X123579047Y-78287619D01*
X123674285Y-78287619D01*
X123579047Y-77906666D02*
X123626666Y-77859047D01*
X123674285Y-77906666D01*
X123626666Y-77954285D01*
X123579047Y-77906666D01*
X123674285Y-77906666D01*
X123912380Y-77478095D02*
X123912380Y-76906666D01*
X124912380Y-77192380D02*
X123912380Y-77192380D01*
X124912380Y-75811428D02*
X124245714Y-75811428D01*
X124436190Y-75811428D02*
X124340952Y-75763809D01*
X124293333Y-75716190D01*
X124245714Y-75620952D01*
X124245714Y-75525714D01*
X124864761Y-74811428D02*
X124912380Y-74906666D01*
X124912380Y-75097142D01*
X124864761Y-75192380D01*
X124769523Y-75240000D01*
X124388571Y-75240000D01*
X124293333Y-75192380D01*
X124245714Y-75097142D01*
X124245714Y-74906666D01*
X124293333Y-74811428D01*
X124388571Y-74763809D01*
X124483809Y-74763809D01*
X124579047Y-75240000D01*
X124245714Y-74430476D02*
X124912380Y-74192380D01*
X124245714Y-73954285D01*
X124817142Y-73573333D02*
X124864761Y-73525714D01*
X124912380Y-73573333D01*
X124864761Y-73620952D01*
X124817142Y-73573333D01*
X124912380Y-73573333D01*
X123912380Y-72906666D02*
X123912380Y-72811428D01*
X123960000Y-72716190D01*
X124007619Y-72668571D01*
X124102857Y-72620952D01*
X124293333Y-72573333D01*
X124531428Y-72573333D01*
X124721904Y-72620952D01*
X124817142Y-72668571D01*
X124864761Y-72716190D01*
X124912380Y-72811428D01*
X124912380Y-72906666D01*
X124864761Y-73001904D01*
X124817142Y-73049523D01*
X124721904Y-73097142D01*
X124531428Y-73144761D01*
X124293333Y-73144761D01*
X124102857Y-73097142D01*
X124007619Y-73049523D01*
X123960000Y-73001904D01*
X123912380Y-72906666D01*
X126903333Y-84906666D02*
X126855714Y-84954285D01*
X126712857Y-85049523D01*
X126617619Y-85097142D01*
X126474761Y-85144761D01*
X126236666Y-85192380D01*
X126046190Y-85192380D01*
X125808095Y-85144761D01*
X125665238Y-85097142D01*
X125570000Y-85049523D01*
X125427142Y-84954285D01*
X125379523Y-84906666D01*
X126474761Y-84097142D02*
X126522380Y-84192380D01*
X126522380Y-84382857D01*
X126474761Y-84478095D01*
X126427142Y-84525714D01*
X126331904Y-84573333D01*
X126046190Y-84573333D01*
X125950952Y-84525714D01*
X125903333Y-84478095D01*
X125855714Y-84382857D01*
X125855714Y-84192380D01*
X125903333Y-84097142D01*
X126903333Y-83763809D02*
X126855714Y-83716190D01*
X126712857Y-83620952D01*
X126617619Y-83573333D01*
X126474761Y-83525714D01*
X126236666Y-83478095D01*
X126046190Y-83478095D01*
X125808095Y-83525714D01*
X125665238Y-83573333D01*
X125570000Y-83620952D01*
X125427142Y-83716190D01*
X125379523Y-83763809D01*
X125617619Y-82287619D02*
X125570000Y-82240000D01*
X125522380Y-82144761D01*
X125522380Y-81906666D01*
X125570000Y-81811428D01*
X125617619Y-81763809D01*
X125712857Y-81716190D01*
X125808095Y-81716190D01*
X125950952Y-81763809D01*
X126522380Y-82335238D01*
X126522380Y-81716190D01*
X125522380Y-81097142D02*
X125522380Y-81001904D01*
X125570000Y-80906666D01*
X125617619Y-80859047D01*
X125712857Y-80811428D01*
X125903333Y-80763809D01*
X126141428Y-80763809D01*
X126331904Y-80811428D01*
X126427142Y-80859047D01*
X126474761Y-80906666D01*
X126522380Y-81001904D01*
X126522380Y-81097142D01*
X126474761Y-81192380D01*
X126427142Y-81240000D01*
X126331904Y-81287619D01*
X126141428Y-81335238D01*
X125903333Y-81335238D01*
X125712857Y-81287619D01*
X125617619Y-81240000D01*
X125570000Y-81192380D01*
X125522380Y-81097142D01*
X125617619Y-80382857D02*
X125570000Y-80335238D01*
X125522380Y-80240000D01*
X125522380Y-80001904D01*
X125570000Y-79906666D01*
X125617619Y-79859047D01*
X125712857Y-79811428D01*
X125808095Y-79811428D01*
X125950952Y-79859047D01*
X126522380Y-80430476D01*
X126522380Y-79811428D01*
X125617619Y-79430476D02*
X125570000Y-79382857D01*
X125522380Y-79287619D01*
X125522380Y-79049523D01*
X125570000Y-78954285D01*
X125617619Y-78906666D01*
X125712857Y-78859047D01*
X125808095Y-78859047D01*
X125950952Y-78906666D01*
X126522380Y-79478095D01*
X126522380Y-78859047D01*
X126522380Y-77668571D02*
X125522380Y-77668571D01*
X125522380Y-77430476D01*
X125570000Y-77287619D01*
X125665238Y-77192380D01*
X125760476Y-77144761D01*
X125950952Y-77097142D01*
X126093809Y-77097142D01*
X126284285Y-77144761D01*
X126379523Y-77192380D01*
X126474761Y-77287619D01*
X126522380Y-77430476D01*
X126522380Y-77668571D01*
X126522380Y-76668571D02*
X125522380Y-76668571D01*
X126236666Y-76335238D01*
X125522380Y-76001904D01*
X126522380Y-76001904D01*
X125522380Y-75620952D02*
X125522380Y-75001904D01*
X125903333Y-75335238D01*
X125903333Y-75192380D01*
X125950952Y-75097142D01*
X125998571Y-75049523D01*
X126093809Y-75001904D01*
X126331904Y-75001904D01*
X126427142Y-75049523D01*
X126474761Y-75097142D01*
X126522380Y-75192380D01*
X126522380Y-75478095D01*
X126474761Y-75573333D01*
X126427142Y-75620952D01*
X126522380Y-74573333D02*
X125522380Y-74573333D01*
X126236666Y-74240000D01*
X125522380Y-73906666D01*
X126522380Y-73906666D01*
X126236666Y-73478095D02*
X126236666Y-73001904D01*
X126522380Y-73573333D02*
X125522380Y-73240000D01*
X126522380Y-72906666D01*
X125522380Y-72716190D02*
X125522380Y-72144761D01*
X126522380Y-72430476D02*
X125522380Y-72430476D01*
D10*
X117809523Y-74452380D02*
X117476190Y-73976190D01*
X117238095Y-74452380D02*
X117238095Y-73452380D01*
X117619047Y-73452380D01*
X117714285Y-73500000D01*
X117761904Y-73547619D01*
X117809523Y-73642857D01*
X117809523Y-73785714D01*
X117761904Y-73880952D01*
X117714285Y-73928571D01*
X117619047Y-73976190D01*
X117238095Y-73976190D01*
X118571428Y-73928571D02*
X118238095Y-73928571D01*
X118238095Y-74452380D02*
X118238095Y-73452380D01*
X118714285Y-73452380D01*
X119857142Y-74452380D02*
X119857142Y-73785714D01*
X119857142Y-73452380D02*
X119809523Y-73500000D01*
X119857142Y-73547619D01*
X119904761Y-73500000D01*
X119857142Y-73452380D01*
X119857142Y-73547619D01*
X120333333Y-73785714D02*
X120333333Y-74452380D01*
X120333333Y-73880952D02*
X120380952Y-73833333D01*
X120476190Y-73785714D01*
X120619047Y-73785714D01*
X120714285Y-73833333D01*
X120761904Y-73928571D01*
X120761904Y-74452380D01*
X161464952Y-94940380D02*
X161464952Y-93940380D01*
X162655428Y-93892761D02*
X161798285Y-95178476D01*
X163655428Y-95035619D02*
X163560190Y-94988000D01*
X163464952Y-94892761D01*
X163322095Y-94749904D01*
X163226857Y-94702285D01*
X163131619Y-94702285D01*
X163179238Y-94940380D02*
X163084000Y-94892761D01*
X162988761Y-94797523D01*
X162941142Y-94607047D01*
X162941142Y-94273714D01*
X162988761Y-94083238D01*
X163084000Y-93988000D01*
X163179238Y-93940380D01*
X163369714Y-93940380D01*
X163464952Y-93988000D01*
X163560190Y-94083238D01*
X163607809Y-94273714D01*
X163607809Y-94607047D01*
X163560190Y-94797523D01*
X163464952Y-94892761D01*
X163369714Y-94940380D01*
X163179238Y-94940380D01*
X164941142Y-94940380D02*
X164845904Y-94892761D01*
X164798285Y-94845142D01*
X164750666Y-94749904D01*
X164750666Y-94464190D01*
X164798285Y-94368952D01*
X164845904Y-94321333D01*
X164941142Y-94273714D01*
X165084000Y-94273714D01*
X165179238Y-94321333D01*
X165226857Y-94368952D01*
X165274476Y-94464190D01*
X165274476Y-94749904D01*
X165226857Y-94845142D01*
X165179238Y-94892761D01*
X165084000Y-94940380D01*
X164941142Y-94940380D01*
X166131619Y-94273714D02*
X166131619Y-94940380D01*
X165703047Y-94273714D02*
X165703047Y-94797523D01*
X165750666Y-94892761D01*
X165845904Y-94940380D01*
X165988761Y-94940380D01*
X166084000Y-94892761D01*
X166131619Y-94845142D01*
X166464952Y-94273714D02*
X166845904Y-94273714D01*
X166607809Y-93940380D02*
X166607809Y-94797523D01*
X166655428Y-94892761D01*
X166750666Y-94940380D01*
X166845904Y-94940380D01*
%TO.C,J104*%
X120714285Y-92797380D02*
X120714285Y-93511666D01*
X120666666Y-93654523D01*
X120571428Y-93749761D01*
X120428571Y-93797380D01*
X120333333Y-93797380D01*
X121714285Y-93797380D02*
X121142857Y-93797380D01*
X121428571Y-93797380D02*
X121428571Y-92797380D01*
X121333333Y-92940238D01*
X121238095Y-93035476D01*
X121142857Y-93083095D01*
X122333333Y-92797380D02*
X122428571Y-92797380D01*
X122523809Y-92845000D01*
X122571428Y-92892619D01*
X122619047Y-92987857D01*
X122666666Y-93178333D01*
X122666666Y-93416428D01*
X122619047Y-93606904D01*
X122571428Y-93702142D01*
X122523809Y-93749761D01*
X122428571Y-93797380D01*
X122333333Y-93797380D01*
X122238095Y-93749761D01*
X122190476Y-93702142D01*
X122142857Y-93606904D01*
X122095238Y-93416428D01*
X122095238Y-93178333D01*
X122142857Y-92987857D01*
X122190476Y-92892619D01*
X122238095Y-92845000D01*
X122333333Y-92797380D01*
X123523809Y-93130714D02*
X123523809Y-93797380D01*
X123285714Y-92749761D02*
X123047619Y-93464047D01*
X123666666Y-93464047D01*
%TO.C,J103*%
X164297285Y-79489880D02*
X164297285Y-80204166D01*
X164249666Y-80347023D01*
X164154428Y-80442261D01*
X164011571Y-80489880D01*
X163916333Y-80489880D01*
X165297285Y-80489880D02*
X164725857Y-80489880D01*
X165011571Y-80489880D02*
X165011571Y-79489880D01*
X164916333Y-79632738D01*
X164821095Y-79727976D01*
X164725857Y-79775595D01*
X165916333Y-79489880D02*
X166011571Y-79489880D01*
X166106809Y-79537500D01*
X166154428Y-79585119D01*
X166202047Y-79680357D01*
X166249666Y-79870833D01*
X166249666Y-80108928D01*
X166202047Y-80299404D01*
X166154428Y-80394642D01*
X166106809Y-80442261D01*
X166011571Y-80489880D01*
X165916333Y-80489880D01*
X165821095Y-80442261D01*
X165773476Y-80394642D01*
X165725857Y-80299404D01*
X165678238Y-80108928D01*
X165678238Y-79870833D01*
X165725857Y-79680357D01*
X165773476Y-79585119D01*
X165821095Y-79537500D01*
X165916333Y-79489880D01*
X166583000Y-79489880D02*
X167202047Y-79489880D01*
X166868714Y-79870833D01*
X167011571Y-79870833D01*
X167106809Y-79918452D01*
X167154428Y-79966071D01*
X167202047Y-80061309D01*
X167202047Y-80299404D01*
X167154428Y-80394642D01*
X167106809Y-80442261D01*
X167011571Y-80489880D01*
X166725857Y-80489880D01*
X166630619Y-80442261D01*
X166583000Y-80394642D01*
%TO.C,J102*%
X160817880Y-63055714D02*
X161532166Y-63055714D01*
X161675023Y-63103333D01*
X161770261Y-63198571D01*
X161817880Y-63341428D01*
X161817880Y-63436666D01*
X161817880Y-62055714D02*
X161817880Y-62627142D01*
X161817880Y-62341428D02*
X160817880Y-62341428D01*
X160960738Y-62436666D01*
X161055976Y-62531904D01*
X161103595Y-62627142D01*
X160817880Y-61436666D02*
X160817880Y-61341428D01*
X160865500Y-61246190D01*
X160913119Y-61198571D01*
X161008357Y-61150952D01*
X161198833Y-61103333D01*
X161436928Y-61103333D01*
X161627404Y-61150952D01*
X161722642Y-61198571D01*
X161770261Y-61246190D01*
X161817880Y-61341428D01*
X161817880Y-61436666D01*
X161770261Y-61531904D01*
X161722642Y-61579523D01*
X161627404Y-61627142D01*
X161436928Y-61674761D01*
X161198833Y-61674761D01*
X161008357Y-61627142D01*
X160913119Y-61579523D01*
X160865500Y-61531904D01*
X160817880Y-61436666D01*
X160913119Y-60722380D02*
X160865500Y-60674761D01*
X160817880Y-60579523D01*
X160817880Y-60341428D01*
X160865500Y-60246190D01*
X160913119Y-60198571D01*
X161008357Y-60150952D01*
X161103595Y-60150952D01*
X161246452Y-60198571D01*
X161817880Y-60770000D01*
X161817880Y-60150952D01*
%TO.C,C206*%
X137056952Y-73255142D02*
X137009333Y-73302761D01*
X136866476Y-73350380D01*
X136771238Y-73350380D01*
X136628380Y-73302761D01*
X136533142Y-73207523D01*
X136485523Y-73112285D01*
X136437904Y-72921809D01*
X136437904Y-72778952D01*
X136485523Y-72588476D01*
X136533142Y-72493238D01*
X136628380Y-72398000D01*
X136771238Y-72350380D01*
X136866476Y-72350380D01*
X137009333Y-72398000D01*
X137056952Y-72445619D01*
X137437904Y-72445619D02*
X137485523Y-72398000D01*
X137580761Y-72350380D01*
X137818857Y-72350380D01*
X137914095Y-72398000D01*
X137961714Y-72445619D01*
X138009333Y-72540857D01*
X138009333Y-72636095D01*
X137961714Y-72778952D01*
X137390285Y-73350380D01*
X138009333Y-73350380D01*
X138628380Y-72350380D02*
X138723619Y-72350380D01*
X138818857Y-72398000D01*
X138866476Y-72445619D01*
X138914095Y-72540857D01*
X138961714Y-72731333D01*
X138961714Y-72969428D01*
X138914095Y-73159904D01*
X138866476Y-73255142D01*
X138818857Y-73302761D01*
X138723619Y-73350380D01*
X138628380Y-73350380D01*
X138533142Y-73302761D01*
X138485523Y-73255142D01*
X138437904Y-73159904D01*
X138390285Y-72969428D01*
X138390285Y-72731333D01*
X138437904Y-72540857D01*
X138485523Y-72445619D01*
X138533142Y-72398000D01*
X138628380Y-72350380D01*
X139818857Y-72350380D02*
X139628380Y-72350380D01*
X139533142Y-72398000D01*
X139485523Y-72445619D01*
X139390285Y-72588476D01*
X139342666Y-72778952D01*
X139342666Y-73159904D01*
X139390285Y-73255142D01*
X139437904Y-73302761D01*
X139533142Y-73350380D01*
X139723619Y-73350380D01*
X139818857Y-73302761D01*
X139866476Y-73255142D01*
X139914095Y-73159904D01*
X139914095Y-72921809D01*
X139866476Y-72826571D01*
X139818857Y-72778952D01*
X139723619Y-72731333D01*
X139533142Y-72731333D01*
X139437904Y-72778952D01*
X139390285Y-72826571D01*
X139342666Y-72921809D01*
%TO.C,R213*%
X144978380Y-91035047D02*
X144502190Y-91368380D01*
X144978380Y-91606476D02*
X143978380Y-91606476D01*
X143978380Y-91225523D01*
X144026000Y-91130285D01*
X144073619Y-91082666D01*
X144168857Y-91035047D01*
X144311714Y-91035047D01*
X144406952Y-91082666D01*
X144454571Y-91130285D01*
X144502190Y-91225523D01*
X144502190Y-91606476D01*
X144073619Y-90654095D02*
X144026000Y-90606476D01*
X143978380Y-90511238D01*
X143978380Y-90273142D01*
X144026000Y-90177904D01*
X144073619Y-90130285D01*
X144168857Y-90082666D01*
X144264095Y-90082666D01*
X144406952Y-90130285D01*
X144978380Y-90701714D01*
X144978380Y-90082666D01*
X144978380Y-89130285D02*
X144978380Y-89701714D01*
X144978380Y-89416000D02*
X143978380Y-89416000D01*
X144121238Y-89511238D01*
X144216476Y-89606476D01*
X144264095Y-89701714D01*
X143978380Y-88796952D02*
X143978380Y-88177904D01*
X144359333Y-88511238D01*
X144359333Y-88368380D01*
X144406952Y-88273142D01*
X144454571Y-88225523D01*
X144549809Y-88177904D01*
X144787904Y-88177904D01*
X144883142Y-88225523D01*
X144930761Y-88273142D01*
X144978380Y-88368380D01*
X144978380Y-88654095D01*
X144930761Y-88749333D01*
X144883142Y-88796952D01*
%TO.C,R203*%
X122832952Y-59634380D02*
X122499619Y-59158190D01*
X122261523Y-59634380D02*
X122261523Y-58634380D01*
X122642476Y-58634380D01*
X122737714Y-58682000D01*
X122785333Y-58729619D01*
X122832952Y-58824857D01*
X122832952Y-58967714D01*
X122785333Y-59062952D01*
X122737714Y-59110571D01*
X122642476Y-59158190D01*
X122261523Y-59158190D01*
X123213904Y-58729619D02*
X123261523Y-58682000D01*
X123356761Y-58634380D01*
X123594857Y-58634380D01*
X123690095Y-58682000D01*
X123737714Y-58729619D01*
X123785333Y-58824857D01*
X123785333Y-58920095D01*
X123737714Y-59062952D01*
X123166285Y-59634380D01*
X123785333Y-59634380D01*
X124404380Y-58634380D02*
X124499619Y-58634380D01*
X124594857Y-58682000D01*
X124642476Y-58729619D01*
X124690095Y-58824857D01*
X124737714Y-59015333D01*
X124737714Y-59253428D01*
X124690095Y-59443904D01*
X124642476Y-59539142D01*
X124594857Y-59586761D01*
X124499619Y-59634380D01*
X124404380Y-59634380D01*
X124309142Y-59586761D01*
X124261523Y-59539142D01*
X124213904Y-59443904D01*
X124166285Y-59253428D01*
X124166285Y-59015333D01*
X124213904Y-58824857D01*
X124261523Y-58729619D01*
X124309142Y-58682000D01*
X124404380Y-58634380D01*
X125071047Y-58634380D02*
X125690095Y-58634380D01*
X125356761Y-59015333D01*
X125499619Y-59015333D01*
X125594857Y-59062952D01*
X125642476Y-59110571D01*
X125690095Y-59205809D01*
X125690095Y-59443904D01*
X125642476Y-59539142D01*
X125594857Y-59586761D01*
X125499619Y-59634380D01*
X125213904Y-59634380D01*
X125118666Y-59586761D01*
X125071047Y-59539142D01*
%TO.C,C207*%
X136019452Y-92969142D02*
X135971833Y-93016761D01*
X135828976Y-93064380D01*
X135733738Y-93064380D01*
X135590880Y-93016761D01*
X135495642Y-92921523D01*
X135448023Y-92826285D01*
X135400404Y-92635809D01*
X135400404Y-92492952D01*
X135448023Y-92302476D01*
X135495642Y-92207238D01*
X135590880Y-92112000D01*
X135733738Y-92064380D01*
X135828976Y-92064380D01*
X135971833Y-92112000D01*
X136019452Y-92159619D01*
X136400404Y-92159619D02*
X136448023Y-92112000D01*
X136543261Y-92064380D01*
X136781357Y-92064380D01*
X136876595Y-92112000D01*
X136924214Y-92159619D01*
X136971833Y-92254857D01*
X136971833Y-92350095D01*
X136924214Y-92492952D01*
X136352785Y-93064380D01*
X136971833Y-93064380D01*
X137590880Y-92064380D02*
X137686119Y-92064380D01*
X137781357Y-92112000D01*
X137828976Y-92159619D01*
X137876595Y-92254857D01*
X137924214Y-92445333D01*
X137924214Y-92683428D01*
X137876595Y-92873904D01*
X137828976Y-92969142D01*
X137781357Y-93016761D01*
X137686119Y-93064380D01*
X137590880Y-93064380D01*
X137495642Y-93016761D01*
X137448023Y-92969142D01*
X137400404Y-92873904D01*
X137352785Y-92683428D01*
X137352785Y-92445333D01*
X137400404Y-92254857D01*
X137448023Y-92159619D01*
X137495642Y-92112000D01*
X137590880Y-92064380D01*
X138257547Y-92064380D02*
X138924214Y-92064380D01*
X138495642Y-93064380D01*
%TO.C,R216*%
X147708952Y-70556380D02*
X147375619Y-70080190D01*
X147137523Y-70556380D02*
X147137523Y-69556380D01*
X147518476Y-69556380D01*
X147613714Y-69604000D01*
X147661333Y-69651619D01*
X147708952Y-69746857D01*
X147708952Y-69889714D01*
X147661333Y-69984952D01*
X147613714Y-70032571D01*
X147518476Y-70080190D01*
X147137523Y-70080190D01*
X148089904Y-69651619D02*
X148137523Y-69604000D01*
X148232761Y-69556380D01*
X148470857Y-69556380D01*
X148566095Y-69604000D01*
X148613714Y-69651619D01*
X148661333Y-69746857D01*
X148661333Y-69842095D01*
X148613714Y-69984952D01*
X148042285Y-70556380D01*
X148661333Y-70556380D01*
X149613714Y-70556380D02*
X149042285Y-70556380D01*
X149328000Y-70556380D02*
X149328000Y-69556380D01*
X149232761Y-69699238D01*
X149137523Y-69794476D01*
X149042285Y-69842095D01*
X150470857Y-69556380D02*
X150280380Y-69556380D01*
X150185142Y-69604000D01*
X150137523Y-69651619D01*
X150042285Y-69794476D01*
X149994666Y-69984952D01*
X149994666Y-70365904D01*
X150042285Y-70461142D01*
X150089904Y-70508761D01*
X150185142Y-70556380D01*
X150375619Y-70556380D01*
X150470857Y-70508761D01*
X150518476Y-70461142D01*
X150566095Y-70365904D01*
X150566095Y-70127809D01*
X150518476Y-70032571D01*
X150470857Y-69984952D01*
X150375619Y-69937333D01*
X150185142Y-69937333D01*
X150089904Y-69984952D01*
X150042285Y-70032571D01*
X149994666Y-70127809D01*
%TO.C,J101*%
X117332285Y-71080380D02*
X117332285Y-71794666D01*
X117284666Y-71937523D01*
X117189428Y-72032761D01*
X117046571Y-72080380D01*
X116951333Y-72080380D01*
X118332285Y-72080380D02*
X117760857Y-72080380D01*
X118046571Y-72080380D02*
X118046571Y-71080380D01*
X117951333Y-71223238D01*
X117856095Y-71318476D01*
X117760857Y-71366095D01*
X118951333Y-71080380D02*
X119046571Y-71080380D01*
X119141809Y-71128000D01*
X119189428Y-71175619D01*
X119237047Y-71270857D01*
X119284666Y-71461333D01*
X119284666Y-71699428D01*
X119237047Y-71889904D01*
X119189428Y-71985142D01*
X119141809Y-72032761D01*
X119046571Y-72080380D01*
X118951333Y-72080380D01*
X118856095Y-72032761D01*
X118808476Y-71985142D01*
X118760857Y-71889904D01*
X118713238Y-71699428D01*
X118713238Y-71461333D01*
X118760857Y-71270857D01*
X118808476Y-71175619D01*
X118856095Y-71128000D01*
X118951333Y-71080380D01*
X120237047Y-72080380D02*
X119665619Y-72080380D01*
X119951333Y-72080380D02*
X119951333Y-71080380D01*
X119856095Y-71223238D01*
X119760857Y-71318476D01*
X119665619Y-71366095D01*
%TO.C,R208*%
X137072952Y-76652380D02*
X136739619Y-76176190D01*
X136501523Y-76652380D02*
X136501523Y-75652380D01*
X136882476Y-75652380D01*
X136977714Y-75700000D01*
X137025333Y-75747619D01*
X137072952Y-75842857D01*
X137072952Y-75985714D01*
X137025333Y-76080952D01*
X136977714Y-76128571D01*
X136882476Y-76176190D01*
X136501523Y-76176190D01*
X137453904Y-75747619D02*
X137501523Y-75700000D01*
X137596761Y-75652380D01*
X137834857Y-75652380D01*
X137930095Y-75700000D01*
X137977714Y-75747619D01*
X138025333Y-75842857D01*
X138025333Y-75938095D01*
X137977714Y-76080952D01*
X137406285Y-76652380D01*
X138025333Y-76652380D01*
X138644380Y-75652380D02*
X138739619Y-75652380D01*
X138834857Y-75700000D01*
X138882476Y-75747619D01*
X138930095Y-75842857D01*
X138977714Y-76033333D01*
X138977714Y-76271428D01*
X138930095Y-76461904D01*
X138882476Y-76557142D01*
X138834857Y-76604761D01*
X138739619Y-76652380D01*
X138644380Y-76652380D01*
X138549142Y-76604761D01*
X138501523Y-76557142D01*
X138453904Y-76461904D01*
X138406285Y-76271428D01*
X138406285Y-76033333D01*
X138453904Y-75842857D01*
X138501523Y-75747619D01*
X138549142Y-75700000D01*
X138644380Y-75652380D01*
X139549142Y-76080952D02*
X139453904Y-76033333D01*
X139406285Y-75985714D01*
X139358666Y-75890476D01*
X139358666Y-75842857D01*
X139406285Y-75747619D01*
X139453904Y-75700000D01*
X139549142Y-75652380D01*
X139739619Y-75652380D01*
X139834857Y-75700000D01*
X139882476Y-75747619D01*
X139930095Y-75842857D01*
X139930095Y-75890476D01*
X139882476Y-75985714D01*
X139834857Y-76033333D01*
X139739619Y-76080952D01*
X139549142Y-76080952D01*
X139453904Y-76128571D01*
X139406285Y-76176190D01*
X139358666Y-76271428D01*
X139358666Y-76461904D01*
X139406285Y-76557142D01*
X139453904Y-76604761D01*
X139549142Y-76652380D01*
X139739619Y-76652380D01*
X139834857Y-76604761D01*
X139882476Y-76557142D01*
X139930095Y-76461904D01*
X139930095Y-76271428D01*
X139882476Y-76176190D01*
X139834857Y-76128571D01*
X139739619Y-76080952D01*
%TO.C,L203*%
X143265952Y-61920380D02*
X142789761Y-61920380D01*
X142789761Y-60920380D01*
X143551666Y-61015619D02*
X143599285Y-60968000D01*
X143694523Y-60920380D01*
X143932619Y-60920380D01*
X144027857Y-60968000D01*
X144075476Y-61015619D01*
X144123095Y-61110857D01*
X144123095Y-61206095D01*
X144075476Y-61348952D01*
X143504047Y-61920380D01*
X144123095Y-61920380D01*
X144742142Y-60920380D02*
X144837380Y-60920380D01*
X144932619Y-60968000D01*
X144980238Y-61015619D01*
X145027857Y-61110857D01*
X145075476Y-61301333D01*
X145075476Y-61539428D01*
X145027857Y-61729904D01*
X144980238Y-61825142D01*
X144932619Y-61872761D01*
X144837380Y-61920380D01*
X144742142Y-61920380D01*
X144646904Y-61872761D01*
X144599285Y-61825142D01*
X144551666Y-61729904D01*
X144504047Y-61539428D01*
X144504047Y-61301333D01*
X144551666Y-61110857D01*
X144599285Y-61015619D01*
X144646904Y-60968000D01*
X144742142Y-60920380D01*
X145408809Y-60920380D02*
X146027857Y-60920380D01*
X145694523Y-61301333D01*
X145837380Y-61301333D01*
X145932619Y-61348952D01*
X145980238Y-61396571D01*
X146027857Y-61491809D01*
X146027857Y-61729904D01*
X145980238Y-61825142D01*
X145932619Y-61872761D01*
X145837380Y-61920380D01*
X145551666Y-61920380D01*
X145456428Y-61872761D01*
X145408809Y-61825142D01*
%TO.C,L202*%
X144216380Y-70461047D02*
X144216380Y-70937238D01*
X143216380Y-70937238D01*
X143311619Y-70175333D02*
X143264000Y-70127714D01*
X143216380Y-70032476D01*
X143216380Y-69794380D01*
X143264000Y-69699142D01*
X143311619Y-69651523D01*
X143406857Y-69603904D01*
X143502095Y-69603904D01*
X143644952Y-69651523D01*
X144216380Y-70222952D01*
X144216380Y-69603904D01*
X143216380Y-68984857D02*
X143216380Y-68889619D01*
X143264000Y-68794380D01*
X143311619Y-68746761D01*
X143406857Y-68699142D01*
X143597333Y-68651523D01*
X143835428Y-68651523D01*
X144025904Y-68699142D01*
X144121142Y-68746761D01*
X144168761Y-68794380D01*
X144216380Y-68889619D01*
X144216380Y-68984857D01*
X144168761Y-69080095D01*
X144121142Y-69127714D01*
X144025904Y-69175333D01*
X143835428Y-69222952D01*
X143597333Y-69222952D01*
X143406857Y-69175333D01*
X143311619Y-69127714D01*
X143264000Y-69080095D01*
X143216380Y-68984857D01*
X143311619Y-68270571D02*
X143264000Y-68222952D01*
X143216380Y-68127714D01*
X143216380Y-67889619D01*
X143264000Y-67794380D01*
X143311619Y-67746761D01*
X143406857Y-67699142D01*
X143502095Y-67699142D01*
X143644952Y-67746761D01*
X144216380Y-68318190D01*
X144216380Y-67699142D01*
%TO.C,T202*%
X131865619Y-65849714D02*
X131865619Y-66421142D01*
X130865619Y-66135428D02*
X131865619Y-66135428D01*
X131770380Y-66706857D02*
X131818000Y-66754476D01*
X131865619Y-66849714D01*
X131865619Y-67087809D01*
X131818000Y-67183047D01*
X131770380Y-67230666D01*
X131675142Y-67278285D01*
X131579904Y-67278285D01*
X131437047Y-67230666D01*
X130865619Y-66659238D01*
X130865619Y-67278285D01*
X131865619Y-67897333D02*
X131865619Y-67992571D01*
X131818000Y-68087809D01*
X131770380Y-68135428D01*
X131675142Y-68183047D01*
X131484666Y-68230666D01*
X131246571Y-68230666D01*
X131056095Y-68183047D01*
X130960857Y-68135428D01*
X130913238Y-68087809D01*
X130865619Y-67992571D01*
X130865619Y-67897333D01*
X130913238Y-67802095D01*
X130960857Y-67754476D01*
X131056095Y-67706857D01*
X131246571Y-67659238D01*
X131484666Y-67659238D01*
X131675142Y-67706857D01*
X131770380Y-67754476D01*
X131818000Y-67802095D01*
X131865619Y-67897333D01*
X131770380Y-68611619D02*
X131818000Y-68659238D01*
X131865619Y-68754476D01*
X131865619Y-68992571D01*
X131818000Y-69087809D01*
X131770380Y-69135428D01*
X131675142Y-69183047D01*
X131579904Y-69183047D01*
X131437047Y-69135428D01*
X130865619Y-68564000D01*
X130865619Y-69183047D01*
%TO.C,C201*%
X132865952Y-94972142D02*
X132818333Y-95019761D01*
X132675476Y-95067380D01*
X132580238Y-95067380D01*
X132437380Y-95019761D01*
X132342142Y-94924523D01*
X132294523Y-94829285D01*
X132246904Y-94638809D01*
X132246904Y-94495952D01*
X132294523Y-94305476D01*
X132342142Y-94210238D01*
X132437380Y-94115000D01*
X132580238Y-94067380D01*
X132675476Y-94067380D01*
X132818333Y-94115000D01*
X132865952Y-94162619D01*
X133246904Y-94162619D02*
X133294523Y-94115000D01*
X133389761Y-94067380D01*
X133627857Y-94067380D01*
X133723095Y-94115000D01*
X133770714Y-94162619D01*
X133818333Y-94257857D01*
X133818333Y-94353095D01*
X133770714Y-94495952D01*
X133199285Y-95067380D01*
X133818333Y-95067380D01*
X134437380Y-94067380D02*
X134532619Y-94067380D01*
X134627857Y-94115000D01*
X134675476Y-94162619D01*
X134723095Y-94257857D01*
X134770714Y-94448333D01*
X134770714Y-94686428D01*
X134723095Y-94876904D01*
X134675476Y-94972142D01*
X134627857Y-95019761D01*
X134532619Y-95067380D01*
X134437380Y-95067380D01*
X134342142Y-95019761D01*
X134294523Y-94972142D01*
X134246904Y-94876904D01*
X134199285Y-94686428D01*
X134199285Y-94448333D01*
X134246904Y-94257857D01*
X134294523Y-94162619D01*
X134342142Y-94115000D01*
X134437380Y-94067380D01*
X135723095Y-95067380D02*
X135151666Y-95067380D01*
X135437380Y-95067380D02*
X135437380Y-94067380D01*
X135342142Y-94210238D01*
X135246904Y-94305476D01*
X135151666Y-94353095D01*
%TO.C,C208*%
X138787142Y-61317047D02*
X138834761Y-61364666D01*
X138882380Y-61507523D01*
X138882380Y-61602761D01*
X138834761Y-61745619D01*
X138739523Y-61840857D01*
X138644285Y-61888476D01*
X138453809Y-61936095D01*
X138310952Y-61936095D01*
X138120476Y-61888476D01*
X138025238Y-61840857D01*
X137930000Y-61745619D01*
X137882380Y-61602761D01*
X137882380Y-61507523D01*
X137930000Y-61364666D01*
X137977619Y-61317047D01*
X137977619Y-60936095D02*
X137930000Y-60888476D01*
X137882380Y-60793238D01*
X137882380Y-60555142D01*
X137930000Y-60459904D01*
X137977619Y-60412285D01*
X138072857Y-60364666D01*
X138168095Y-60364666D01*
X138310952Y-60412285D01*
X138882380Y-60983714D01*
X138882380Y-60364666D01*
X137882380Y-59745619D02*
X137882380Y-59650380D01*
X137930000Y-59555142D01*
X137977619Y-59507523D01*
X138072857Y-59459904D01*
X138263333Y-59412285D01*
X138501428Y-59412285D01*
X138691904Y-59459904D01*
X138787142Y-59507523D01*
X138834761Y-59555142D01*
X138882380Y-59650380D01*
X138882380Y-59745619D01*
X138834761Y-59840857D01*
X138787142Y-59888476D01*
X138691904Y-59936095D01*
X138501428Y-59983714D01*
X138263333Y-59983714D01*
X138072857Y-59936095D01*
X137977619Y-59888476D01*
X137930000Y-59840857D01*
X137882380Y-59745619D01*
X138310952Y-58840857D02*
X138263333Y-58936095D01*
X138215714Y-58983714D01*
X138120476Y-59031333D01*
X138072857Y-59031333D01*
X137977619Y-58983714D01*
X137930000Y-58936095D01*
X137882380Y-58840857D01*
X137882380Y-58650380D01*
X137930000Y-58555142D01*
X137977619Y-58507523D01*
X138072857Y-58459904D01*
X138120476Y-58459904D01*
X138215714Y-58507523D01*
X138263333Y-58555142D01*
X138310952Y-58650380D01*
X138310952Y-58840857D01*
X138358571Y-58936095D01*
X138406190Y-58983714D01*
X138501428Y-59031333D01*
X138691904Y-59031333D01*
X138787142Y-58983714D01*
X138834761Y-58936095D01*
X138882380Y-58840857D01*
X138882380Y-58650380D01*
X138834761Y-58555142D01*
X138787142Y-58507523D01*
X138691904Y-58459904D01*
X138501428Y-58459904D01*
X138406190Y-58507523D01*
X138358571Y-58555142D01*
X138310952Y-58650380D01*
%TO.C,L205*%
X153679952Y-63698380D02*
X153203761Y-63698380D01*
X153203761Y-62698380D01*
X153965666Y-62793619D02*
X154013285Y-62746000D01*
X154108523Y-62698380D01*
X154346619Y-62698380D01*
X154441857Y-62746000D01*
X154489476Y-62793619D01*
X154537095Y-62888857D01*
X154537095Y-62984095D01*
X154489476Y-63126952D01*
X153918047Y-63698380D01*
X154537095Y-63698380D01*
X155156142Y-62698380D02*
X155251380Y-62698380D01*
X155346619Y-62746000D01*
X155394238Y-62793619D01*
X155441857Y-62888857D01*
X155489476Y-63079333D01*
X155489476Y-63317428D01*
X155441857Y-63507904D01*
X155394238Y-63603142D01*
X155346619Y-63650761D01*
X155251380Y-63698380D01*
X155156142Y-63698380D01*
X155060904Y-63650761D01*
X155013285Y-63603142D01*
X154965666Y-63507904D01*
X154918047Y-63317428D01*
X154918047Y-63079333D01*
X154965666Y-62888857D01*
X155013285Y-62793619D01*
X155060904Y-62746000D01*
X155156142Y-62698380D01*
X156394238Y-62698380D02*
X155918047Y-62698380D01*
X155870428Y-63174571D01*
X155918047Y-63126952D01*
X156013285Y-63079333D01*
X156251380Y-63079333D01*
X156346619Y-63126952D01*
X156394238Y-63174571D01*
X156441857Y-63269809D01*
X156441857Y-63507904D01*
X156394238Y-63603142D01*
X156346619Y-63650761D01*
X156251380Y-63698380D01*
X156013285Y-63698380D01*
X155918047Y-63650761D01*
X155870428Y-63603142D01*
%TO.C,L201*%
X138834952Y-65222380D02*
X138358761Y-65222380D01*
X138358761Y-64222380D01*
X139120666Y-64317619D02*
X139168285Y-64270000D01*
X139263523Y-64222380D01*
X139501619Y-64222380D01*
X139596857Y-64270000D01*
X139644476Y-64317619D01*
X139692095Y-64412857D01*
X139692095Y-64508095D01*
X139644476Y-64650952D01*
X139073047Y-65222380D01*
X139692095Y-65222380D01*
X140311142Y-64222380D02*
X140406380Y-64222380D01*
X140501619Y-64270000D01*
X140549238Y-64317619D01*
X140596857Y-64412857D01*
X140644476Y-64603333D01*
X140644476Y-64841428D01*
X140596857Y-65031904D01*
X140549238Y-65127142D01*
X140501619Y-65174761D01*
X140406380Y-65222380D01*
X140311142Y-65222380D01*
X140215904Y-65174761D01*
X140168285Y-65127142D01*
X140120666Y-65031904D01*
X140073047Y-64841428D01*
X140073047Y-64603333D01*
X140120666Y-64412857D01*
X140168285Y-64317619D01*
X140215904Y-64270000D01*
X140311142Y-64222380D01*
X141596857Y-65222380D02*
X141025428Y-65222380D01*
X141311142Y-65222380D02*
X141311142Y-64222380D01*
X141215904Y-64365238D01*
X141120666Y-64460476D01*
X141025428Y-64508095D01*
%TO.C,C215*%
X157652452Y-66807142D02*
X157604833Y-66854761D01*
X157461976Y-66902380D01*
X157366738Y-66902380D01*
X157223880Y-66854761D01*
X157128642Y-66759523D01*
X157081023Y-66664285D01*
X157033404Y-66473809D01*
X157033404Y-66330952D01*
X157081023Y-66140476D01*
X157128642Y-66045238D01*
X157223880Y-65950000D01*
X157366738Y-65902380D01*
X157461976Y-65902380D01*
X157604833Y-65950000D01*
X157652452Y-65997619D01*
X158033404Y-65997619D02*
X158081023Y-65950000D01*
X158176261Y-65902380D01*
X158414357Y-65902380D01*
X158509595Y-65950000D01*
X158557214Y-65997619D01*
X158604833Y-66092857D01*
X158604833Y-66188095D01*
X158557214Y-66330952D01*
X157985785Y-66902380D01*
X158604833Y-66902380D01*
X159557214Y-66902380D02*
X158985785Y-66902380D01*
X159271500Y-66902380D02*
X159271500Y-65902380D01*
X159176261Y-66045238D01*
X159081023Y-66140476D01*
X158985785Y-66188095D01*
X160461976Y-65902380D02*
X159985785Y-65902380D01*
X159938166Y-66378571D01*
X159985785Y-66330952D01*
X160081023Y-66283333D01*
X160319119Y-66283333D01*
X160414357Y-66330952D01*
X160461976Y-66378571D01*
X160509595Y-66473809D01*
X160509595Y-66711904D01*
X160461976Y-66807142D01*
X160414357Y-66854761D01*
X160319119Y-66902380D01*
X160081023Y-66902380D01*
X159985785Y-66854761D01*
X159938166Y-66807142D01*
%TO.C,R202*%
X128420952Y-95067380D02*
X128087619Y-94591190D01*
X127849523Y-95067380D02*
X127849523Y-94067380D01*
X128230476Y-94067380D01*
X128325714Y-94115000D01*
X128373333Y-94162619D01*
X128420952Y-94257857D01*
X128420952Y-94400714D01*
X128373333Y-94495952D01*
X128325714Y-94543571D01*
X128230476Y-94591190D01*
X127849523Y-94591190D01*
X128801904Y-94162619D02*
X128849523Y-94115000D01*
X128944761Y-94067380D01*
X129182857Y-94067380D01*
X129278095Y-94115000D01*
X129325714Y-94162619D01*
X129373333Y-94257857D01*
X129373333Y-94353095D01*
X129325714Y-94495952D01*
X128754285Y-95067380D01*
X129373333Y-95067380D01*
X129992380Y-94067380D02*
X130087619Y-94067380D01*
X130182857Y-94115000D01*
X130230476Y-94162619D01*
X130278095Y-94257857D01*
X130325714Y-94448333D01*
X130325714Y-94686428D01*
X130278095Y-94876904D01*
X130230476Y-94972142D01*
X130182857Y-95019761D01*
X130087619Y-95067380D01*
X129992380Y-95067380D01*
X129897142Y-95019761D01*
X129849523Y-94972142D01*
X129801904Y-94876904D01*
X129754285Y-94686428D01*
X129754285Y-94448333D01*
X129801904Y-94257857D01*
X129849523Y-94162619D01*
X129897142Y-94115000D01*
X129992380Y-94067380D01*
X130706666Y-94162619D02*
X130754285Y-94115000D01*
X130849523Y-94067380D01*
X131087619Y-94067380D01*
X131182857Y-94115000D01*
X131230476Y-94162619D01*
X131278095Y-94257857D01*
X131278095Y-94353095D01*
X131230476Y-94495952D01*
X130659047Y-95067380D01*
X131278095Y-95067380D01*
%TO.C,R210*%
X142152952Y-74874380D02*
X141819619Y-74398190D01*
X141581523Y-74874380D02*
X141581523Y-73874380D01*
X141962476Y-73874380D01*
X142057714Y-73922000D01*
X142105333Y-73969619D01*
X142152952Y-74064857D01*
X142152952Y-74207714D01*
X142105333Y-74302952D01*
X142057714Y-74350571D01*
X141962476Y-74398190D01*
X141581523Y-74398190D01*
X142533904Y-73969619D02*
X142581523Y-73922000D01*
X142676761Y-73874380D01*
X142914857Y-73874380D01*
X143010095Y-73922000D01*
X143057714Y-73969619D01*
X143105333Y-74064857D01*
X143105333Y-74160095D01*
X143057714Y-74302952D01*
X142486285Y-74874380D01*
X143105333Y-74874380D01*
X144057714Y-74874380D02*
X143486285Y-74874380D01*
X143772000Y-74874380D02*
X143772000Y-73874380D01*
X143676761Y-74017238D01*
X143581523Y-74112476D01*
X143486285Y-74160095D01*
X144676761Y-73874380D02*
X144772000Y-73874380D01*
X144867238Y-73922000D01*
X144914857Y-73969619D01*
X144962476Y-74064857D01*
X145010095Y-74255333D01*
X145010095Y-74493428D01*
X144962476Y-74683904D01*
X144914857Y-74779142D01*
X144867238Y-74826761D01*
X144772000Y-74874380D01*
X144676761Y-74874380D01*
X144581523Y-74826761D01*
X144533904Y-74779142D01*
X144486285Y-74683904D01*
X144438666Y-74493428D01*
X144438666Y-74255333D01*
X144486285Y-74064857D01*
X144533904Y-73969619D01*
X144581523Y-73922000D01*
X144676761Y-73874380D01*
%TO.C,C205*%
X130249142Y-85425547D02*
X130296761Y-85473166D01*
X130344380Y-85616023D01*
X130344380Y-85711261D01*
X130296761Y-85854119D01*
X130201523Y-85949357D01*
X130106285Y-85996976D01*
X129915809Y-86044595D01*
X129772952Y-86044595D01*
X129582476Y-85996976D01*
X129487238Y-85949357D01*
X129392000Y-85854119D01*
X129344380Y-85711261D01*
X129344380Y-85616023D01*
X129392000Y-85473166D01*
X129439619Y-85425547D01*
X129439619Y-85044595D02*
X129392000Y-84996976D01*
X129344380Y-84901738D01*
X129344380Y-84663642D01*
X129392000Y-84568404D01*
X129439619Y-84520785D01*
X129534857Y-84473166D01*
X129630095Y-84473166D01*
X129772952Y-84520785D01*
X130344380Y-85092214D01*
X130344380Y-84473166D01*
X129344380Y-83854119D02*
X129344380Y-83758880D01*
X129392000Y-83663642D01*
X129439619Y-83616023D01*
X129534857Y-83568404D01*
X129725333Y-83520785D01*
X129963428Y-83520785D01*
X130153904Y-83568404D01*
X130249142Y-83616023D01*
X130296761Y-83663642D01*
X130344380Y-83758880D01*
X130344380Y-83854119D01*
X130296761Y-83949357D01*
X130249142Y-83996976D01*
X130153904Y-84044595D01*
X129963428Y-84092214D01*
X129725333Y-84092214D01*
X129534857Y-84044595D01*
X129439619Y-83996976D01*
X129392000Y-83949357D01*
X129344380Y-83854119D01*
X129344380Y-82616023D02*
X129344380Y-83092214D01*
X129820571Y-83139833D01*
X129772952Y-83092214D01*
X129725333Y-82996976D01*
X129725333Y-82758880D01*
X129772952Y-82663642D01*
X129820571Y-82616023D01*
X129915809Y-82568404D01*
X130153904Y-82568404D01*
X130249142Y-82616023D01*
X130296761Y-82663642D01*
X130344380Y-82758880D01*
X130344380Y-82996976D01*
X130296761Y-83092214D01*
X130249142Y-83139833D01*
%TO.C,R215*%
X151788952Y-61920380D02*
X151455619Y-61444190D01*
X151217523Y-61920380D02*
X151217523Y-60920380D01*
X151598476Y-60920380D01*
X151693714Y-60968000D01*
X151741333Y-61015619D01*
X151788952Y-61110857D01*
X151788952Y-61253714D01*
X151741333Y-61348952D01*
X151693714Y-61396571D01*
X151598476Y-61444190D01*
X151217523Y-61444190D01*
X152169904Y-61015619D02*
X152217523Y-60968000D01*
X152312761Y-60920380D01*
X152550857Y-60920380D01*
X152646095Y-60968000D01*
X152693714Y-61015619D01*
X152741333Y-61110857D01*
X152741333Y-61206095D01*
X152693714Y-61348952D01*
X152122285Y-61920380D01*
X152741333Y-61920380D01*
X153693714Y-61920380D02*
X153122285Y-61920380D01*
X153408000Y-61920380D02*
X153408000Y-60920380D01*
X153312761Y-61063238D01*
X153217523Y-61158476D01*
X153122285Y-61206095D01*
X154598476Y-60920380D02*
X154122285Y-60920380D01*
X154074666Y-61396571D01*
X154122285Y-61348952D01*
X154217523Y-61301333D01*
X154455619Y-61301333D01*
X154550857Y-61348952D01*
X154598476Y-61396571D01*
X154646095Y-61491809D01*
X154646095Y-61729904D01*
X154598476Y-61825142D01*
X154550857Y-61872761D01*
X154455619Y-61920380D01*
X154217523Y-61920380D01*
X154122285Y-61872761D01*
X154074666Y-61825142D01*
%TO.C,R204*%
X122848952Y-70810380D02*
X122515619Y-70334190D01*
X122277523Y-70810380D02*
X122277523Y-69810380D01*
X122658476Y-69810380D01*
X122753714Y-69858000D01*
X122801333Y-69905619D01*
X122848952Y-70000857D01*
X122848952Y-70143714D01*
X122801333Y-70238952D01*
X122753714Y-70286571D01*
X122658476Y-70334190D01*
X122277523Y-70334190D01*
X123229904Y-69905619D02*
X123277523Y-69858000D01*
X123372761Y-69810380D01*
X123610857Y-69810380D01*
X123706095Y-69858000D01*
X123753714Y-69905619D01*
X123801333Y-70000857D01*
X123801333Y-70096095D01*
X123753714Y-70238952D01*
X123182285Y-70810380D01*
X123801333Y-70810380D01*
X124420380Y-69810380D02*
X124515619Y-69810380D01*
X124610857Y-69858000D01*
X124658476Y-69905619D01*
X124706095Y-70000857D01*
X124753714Y-70191333D01*
X124753714Y-70429428D01*
X124706095Y-70619904D01*
X124658476Y-70715142D01*
X124610857Y-70762761D01*
X124515619Y-70810380D01*
X124420380Y-70810380D01*
X124325142Y-70762761D01*
X124277523Y-70715142D01*
X124229904Y-70619904D01*
X124182285Y-70429428D01*
X124182285Y-70191333D01*
X124229904Y-70000857D01*
X124277523Y-69905619D01*
X124325142Y-69858000D01*
X124420380Y-69810380D01*
X125610857Y-70143714D02*
X125610857Y-70810380D01*
X125372761Y-69762761D02*
X125134666Y-70477047D01*
X125753714Y-70477047D01*
%TO.C,L204*%
X149869952Y-63698380D02*
X149393761Y-63698380D01*
X149393761Y-62698380D01*
X150155666Y-62793619D02*
X150203285Y-62746000D01*
X150298523Y-62698380D01*
X150536619Y-62698380D01*
X150631857Y-62746000D01*
X150679476Y-62793619D01*
X150727095Y-62888857D01*
X150727095Y-62984095D01*
X150679476Y-63126952D01*
X150108047Y-63698380D01*
X150727095Y-63698380D01*
X151346142Y-62698380D02*
X151441380Y-62698380D01*
X151536619Y-62746000D01*
X151584238Y-62793619D01*
X151631857Y-62888857D01*
X151679476Y-63079333D01*
X151679476Y-63317428D01*
X151631857Y-63507904D01*
X151584238Y-63603142D01*
X151536619Y-63650761D01*
X151441380Y-63698380D01*
X151346142Y-63698380D01*
X151250904Y-63650761D01*
X151203285Y-63603142D01*
X151155666Y-63507904D01*
X151108047Y-63317428D01*
X151108047Y-63079333D01*
X151155666Y-62888857D01*
X151203285Y-62793619D01*
X151250904Y-62746000D01*
X151346142Y-62698380D01*
X152536619Y-63031714D02*
X152536619Y-63698380D01*
X152298523Y-62650761D02*
X152060428Y-63365047D01*
X152679476Y-63365047D01*
%TO.C,R205*%
X127150952Y-65222380D02*
X126817619Y-64746190D01*
X126579523Y-65222380D02*
X126579523Y-64222380D01*
X126960476Y-64222380D01*
X127055714Y-64270000D01*
X127103333Y-64317619D01*
X127150952Y-64412857D01*
X127150952Y-64555714D01*
X127103333Y-64650952D01*
X127055714Y-64698571D01*
X126960476Y-64746190D01*
X126579523Y-64746190D01*
X127531904Y-64317619D02*
X127579523Y-64270000D01*
X127674761Y-64222380D01*
X127912857Y-64222380D01*
X128008095Y-64270000D01*
X128055714Y-64317619D01*
X128103333Y-64412857D01*
X128103333Y-64508095D01*
X128055714Y-64650952D01*
X127484285Y-65222380D01*
X128103333Y-65222380D01*
X128722380Y-64222380D02*
X128817619Y-64222380D01*
X128912857Y-64270000D01*
X128960476Y-64317619D01*
X129008095Y-64412857D01*
X129055714Y-64603333D01*
X129055714Y-64841428D01*
X129008095Y-65031904D01*
X128960476Y-65127142D01*
X128912857Y-65174761D01*
X128817619Y-65222380D01*
X128722380Y-65222380D01*
X128627142Y-65174761D01*
X128579523Y-65127142D01*
X128531904Y-65031904D01*
X128484285Y-64841428D01*
X128484285Y-64603333D01*
X128531904Y-64412857D01*
X128579523Y-64317619D01*
X128627142Y-64270000D01*
X128722380Y-64222380D01*
X129960476Y-64222380D02*
X129484285Y-64222380D01*
X129436666Y-64698571D01*
X129484285Y-64650952D01*
X129579523Y-64603333D01*
X129817619Y-64603333D01*
X129912857Y-64650952D01*
X129960476Y-64698571D01*
X130008095Y-64793809D01*
X130008095Y-65031904D01*
X129960476Y-65127142D01*
X129912857Y-65174761D01*
X129817619Y-65222380D01*
X129579523Y-65222380D01*
X129484285Y-65174761D01*
X129436666Y-65127142D01*
%TO.C,C212*%
X146222452Y-90937142D02*
X146174833Y-90984761D01*
X146031976Y-91032380D01*
X145936738Y-91032380D01*
X145793880Y-90984761D01*
X145698642Y-90889523D01*
X145651023Y-90794285D01*
X145603404Y-90603809D01*
X145603404Y-90460952D01*
X145651023Y-90270476D01*
X145698642Y-90175238D01*
X145793880Y-90080000D01*
X145936738Y-90032380D01*
X146031976Y-90032380D01*
X146174833Y-90080000D01*
X146222452Y-90127619D01*
X146603404Y-90127619D02*
X146651023Y-90080000D01*
X146746261Y-90032380D01*
X146984357Y-90032380D01*
X147079595Y-90080000D01*
X147127214Y-90127619D01*
X147174833Y-90222857D01*
X147174833Y-90318095D01*
X147127214Y-90460952D01*
X146555785Y-91032380D01*
X147174833Y-91032380D01*
X148127214Y-91032380D02*
X147555785Y-91032380D01*
X147841500Y-91032380D02*
X147841500Y-90032380D01*
X147746261Y-90175238D01*
X147651023Y-90270476D01*
X147555785Y-90318095D01*
X148508166Y-90127619D02*
X148555785Y-90080000D01*
X148651023Y-90032380D01*
X148889119Y-90032380D01*
X148984357Y-90080000D01*
X149031976Y-90127619D01*
X149079595Y-90222857D01*
X149079595Y-90318095D01*
X149031976Y-90460952D01*
X148460547Y-91032380D01*
X149079595Y-91032380D01*
%TO.C,R212*%
X145946952Y-74874380D02*
X145613619Y-74398190D01*
X145375523Y-74874380D02*
X145375523Y-73874380D01*
X145756476Y-73874380D01*
X145851714Y-73922000D01*
X145899333Y-73969619D01*
X145946952Y-74064857D01*
X145946952Y-74207714D01*
X145899333Y-74302952D01*
X145851714Y-74350571D01*
X145756476Y-74398190D01*
X145375523Y-74398190D01*
X146327904Y-73969619D02*
X146375523Y-73922000D01*
X146470761Y-73874380D01*
X146708857Y-73874380D01*
X146804095Y-73922000D01*
X146851714Y-73969619D01*
X146899333Y-74064857D01*
X146899333Y-74160095D01*
X146851714Y-74302952D01*
X146280285Y-74874380D01*
X146899333Y-74874380D01*
X147851714Y-74874380D02*
X147280285Y-74874380D01*
X147566000Y-74874380D02*
X147566000Y-73874380D01*
X147470761Y-74017238D01*
X147375523Y-74112476D01*
X147280285Y-74160095D01*
X148232666Y-73969619D02*
X148280285Y-73922000D01*
X148375523Y-73874380D01*
X148613619Y-73874380D01*
X148708857Y-73922000D01*
X148756476Y-73969619D01*
X148804095Y-74064857D01*
X148804095Y-74160095D01*
X148756476Y-74302952D01*
X148185047Y-74874380D01*
X148804095Y-74874380D01*
%TO.C,R214*%
X143660952Y-65206380D02*
X143327619Y-64730190D01*
X143089523Y-65206380D02*
X143089523Y-64206380D01*
X143470476Y-64206380D01*
X143565714Y-64254000D01*
X143613333Y-64301619D01*
X143660952Y-64396857D01*
X143660952Y-64539714D01*
X143613333Y-64634952D01*
X143565714Y-64682571D01*
X143470476Y-64730190D01*
X143089523Y-64730190D01*
X144041904Y-64301619D02*
X144089523Y-64254000D01*
X144184761Y-64206380D01*
X144422857Y-64206380D01*
X144518095Y-64254000D01*
X144565714Y-64301619D01*
X144613333Y-64396857D01*
X144613333Y-64492095D01*
X144565714Y-64634952D01*
X143994285Y-65206380D01*
X144613333Y-65206380D01*
X145565714Y-65206380D02*
X144994285Y-65206380D01*
X145280000Y-65206380D02*
X145280000Y-64206380D01*
X145184761Y-64349238D01*
X145089523Y-64444476D01*
X144994285Y-64492095D01*
X146422857Y-64539714D02*
X146422857Y-65206380D01*
X146184761Y-64158761D02*
X145946666Y-64873047D01*
X146565714Y-64873047D01*
%TO.C,R201*%
X126007952Y-89733380D02*
X125674619Y-89257190D01*
X125436523Y-89733380D02*
X125436523Y-88733380D01*
X125817476Y-88733380D01*
X125912714Y-88781000D01*
X125960333Y-88828619D01*
X126007952Y-88923857D01*
X126007952Y-89066714D01*
X125960333Y-89161952D01*
X125912714Y-89209571D01*
X125817476Y-89257190D01*
X125436523Y-89257190D01*
X126388904Y-88828619D02*
X126436523Y-88781000D01*
X126531761Y-88733380D01*
X126769857Y-88733380D01*
X126865095Y-88781000D01*
X126912714Y-88828619D01*
X126960333Y-88923857D01*
X126960333Y-89019095D01*
X126912714Y-89161952D01*
X126341285Y-89733380D01*
X126960333Y-89733380D01*
X127579380Y-88733380D02*
X127674619Y-88733380D01*
X127769857Y-88781000D01*
X127817476Y-88828619D01*
X127865095Y-88923857D01*
X127912714Y-89114333D01*
X127912714Y-89352428D01*
X127865095Y-89542904D01*
X127817476Y-89638142D01*
X127769857Y-89685761D01*
X127674619Y-89733380D01*
X127579380Y-89733380D01*
X127484142Y-89685761D01*
X127436523Y-89638142D01*
X127388904Y-89542904D01*
X127341285Y-89352428D01*
X127341285Y-89114333D01*
X127388904Y-88923857D01*
X127436523Y-88828619D01*
X127484142Y-88781000D01*
X127579380Y-88733380D01*
X128865095Y-89733380D02*
X128293666Y-89733380D01*
X128579380Y-89733380D02*
X128579380Y-88733380D01*
X128484142Y-88876238D01*
X128388904Y-88971476D01*
X128293666Y-89019095D01*
%TO.C,C202*%
X141581142Y-82907047D02*
X141628761Y-82954666D01*
X141676380Y-83097523D01*
X141676380Y-83192761D01*
X141628761Y-83335619D01*
X141533523Y-83430857D01*
X141438285Y-83478476D01*
X141247809Y-83526095D01*
X141104952Y-83526095D01*
X140914476Y-83478476D01*
X140819238Y-83430857D01*
X140724000Y-83335619D01*
X140676380Y-83192761D01*
X140676380Y-83097523D01*
X140724000Y-82954666D01*
X140771619Y-82907047D01*
X140771619Y-82526095D02*
X140724000Y-82478476D01*
X140676380Y-82383238D01*
X140676380Y-82145142D01*
X140724000Y-82049904D01*
X140771619Y-82002285D01*
X140866857Y-81954666D01*
X140962095Y-81954666D01*
X141104952Y-82002285D01*
X141676380Y-82573714D01*
X141676380Y-81954666D01*
X140676380Y-81335619D02*
X140676380Y-81240380D01*
X140724000Y-81145142D01*
X140771619Y-81097523D01*
X140866857Y-81049904D01*
X141057333Y-81002285D01*
X141295428Y-81002285D01*
X141485904Y-81049904D01*
X141581142Y-81097523D01*
X141628761Y-81145142D01*
X141676380Y-81240380D01*
X141676380Y-81335619D01*
X141628761Y-81430857D01*
X141581142Y-81478476D01*
X141485904Y-81526095D01*
X141295428Y-81573714D01*
X141057333Y-81573714D01*
X140866857Y-81526095D01*
X140771619Y-81478476D01*
X140724000Y-81430857D01*
X140676380Y-81335619D01*
X140771619Y-80621333D02*
X140724000Y-80573714D01*
X140676380Y-80478476D01*
X140676380Y-80240380D01*
X140724000Y-80145142D01*
X140771619Y-80097523D01*
X140866857Y-80049904D01*
X140962095Y-80049904D01*
X141104952Y-80097523D01*
X141676380Y-80668952D01*
X141676380Y-80049904D01*
%TO.C,D201*%
X126833523Y-59888380D02*
X126833523Y-58888380D01*
X127071619Y-58888380D01*
X127214476Y-58936000D01*
X127309714Y-59031238D01*
X127357333Y-59126476D01*
X127404952Y-59316952D01*
X127404952Y-59459809D01*
X127357333Y-59650285D01*
X127309714Y-59745523D01*
X127214476Y-59840761D01*
X127071619Y-59888380D01*
X126833523Y-59888380D01*
X127785904Y-58983619D02*
X127833523Y-58936000D01*
X127928761Y-58888380D01*
X128166857Y-58888380D01*
X128262095Y-58936000D01*
X128309714Y-58983619D01*
X128357333Y-59078857D01*
X128357333Y-59174095D01*
X128309714Y-59316952D01*
X127738285Y-59888380D01*
X128357333Y-59888380D01*
X128976380Y-58888380D02*
X129071619Y-58888380D01*
X129166857Y-58936000D01*
X129214476Y-58983619D01*
X129262095Y-59078857D01*
X129309714Y-59269333D01*
X129309714Y-59507428D01*
X129262095Y-59697904D01*
X129214476Y-59793142D01*
X129166857Y-59840761D01*
X129071619Y-59888380D01*
X128976380Y-59888380D01*
X128881142Y-59840761D01*
X128833523Y-59793142D01*
X128785904Y-59697904D01*
X128738285Y-59507428D01*
X128738285Y-59269333D01*
X128785904Y-59078857D01*
X128833523Y-58983619D01*
X128881142Y-58936000D01*
X128976380Y-58888380D01*
X130262095Y-59888380D02*
X129690666Y-59888380D01*
X129976380Y-59888380D02*
X129976380Y-58888380D01*
X129881142Y-59031238D01*
X129785904Y-59126476D01*
X129690666Y-59174095D01*
%TO.C,D202*%
X126882023Y-70416380D02*
X126882023Y-69416380D01*
X127120119Y-69416380D01*
X127262976Y-69464000D01*
X127358214Y-69559238D01*
X127405833Y-69654476D01*
X127453452Y-69844952D01*
X127453452Y-69987809D01*
X127405833Y-70178285D01*
X127358214Y-70273523D01*
X127262976Y-70368761D01*
X127120119Y-70416380D01*
X126882023Y-70416380D01*
X127834404Y-69511619D02*
X127882023Y-69464000D01*
X127977261Y-69416380D01*
X128215357Y-69416380D01*
X128310595Y-69464000D01*
X128358214Y-69511619D01*
X128405833Y-69606857D01*
X128405833Y-69702095D01*
X128358214Y-69844952D01*
X127786785Y-70416380D01*
X128405833Y-70416380D01*
X129024880Y-69416380D02*
X129120119Y-69416380D01*
X129215357Y-69464000D01*
X129262976Y-69511619D01*
X129310595Y-69606857D01*
X129358214Y-69797333D01*
X129358214Y-70035428D01*
X129310595Y-70225904D01*
X129262976Y-70321142D01*
X129215357Y-70368761D01*
X129120119Y-70416380D01*
X129024880Y-70416380D01*
X128929642Y-70368761D01*
X128882023Y-70321142D01*
X128834404Y-70225904D01*
X128786785Y-70035428D01*
X128786785Y-69797333D01*
X128834404Y-69606857D01*
X128882023Y-69511619D01*
X128929642Y-69464000D01*
X129024880Y-69416380D01*
X129739166Y-69511619D02*
X129786785Y-69464000D01*
X129882023Y-69416380D01*
X130120119Y-69416380D01*
X130215357Y-69464000D01*
X130262976Y-69511619D01*
X130310595Y-69606857D01*
X130310595Y-69702095D01*
X130262976Y-69844952D01*
X129691547Y-70416380D01*
X130310595Y-70416380D01*
%TO.C,C211*%
X150010952Y-77319142D02*
X149963333Y-77366761D01*
X149820476Y-77414380D01*
X149725238Y-77414380D01*
X149582380Y-77366761D01*
X149487142Y-77271523D01*
X149439523Y-77176285D01*
X149391904Y-76985809D01*
X149391904Y-76842952D01*
X149439523Y-76652476D01*
X149487142Y-76557238D01*
X149582380Y-76462000D01*
X149725238Y-76414380D01*
X149820476Y-76414380D01*
X149963333Y-76462000D01*
X150010952Y-76509619D01*
X150391904Y-76509619D02*
X150439523Y-76462000D01*
X150534761Y-76414380D01*
X150772857Y-76414380D01*
X150868095Y-76462000D01*
X150915714Y-76509619D01*
X150963333Y-76604857D01*
X150963333Y-76700095D01*
X150915714Y-76842952D01*
X150344285Y-77414380D01*
X150963333Y-77414380D01*
X151915714Y-77414380D02*
X151344285Y-77414380D01*
X151630000Y-77414380D02*
X151630000Y-76414380D01*
X151534761Y-76557238D01*
X151439523Y-76652476D01*
X151344285Y-76700095D01*
X152868095Y-77414380D02*
X152296666Y-77414380D01*
X152582380Y-77414380D02*
X152582380Y-76414380D01*
X152487142Y-76557238D01*
X152391904Y-76652476D01*
X152296666Y-76700095D01*
%TO.C,R206*%
X132500952Y-76398380D02*
X132167619Y-75922190D01*
X131929523Y-76398380D02*
X131929523Y-75398380D01*
X132310476Y-75398380D01*
X132405714Y-75446000D01*
X132453333Y-75493619D01*
X132500952Y-75588857D01*
X132500952Y-75731714D01*
X132453333Y-75826952D01*
X132405714Y-75874571D01*
X132310476Y-75922190D01*
X131929523Y-75922190D01*
X132881904Y-75493619D02*
X132929523Y-75446000D01*
X133024761Y-75398380D01*
X133262857Y-75398380D01*
X133358095Y-75446000D01*
X133405714Y-75493619D01*
X133453333Y-75588857D01*
X133453333Y-75684095D01*
X133405714Y-75826952D01*
X132834285Y-76398380D01*
X133453333Y-76398380D01*
X134072380Y-75398380D02*
X134167619Y-75398380D01*
X134262857Y-75446000D01*
X134310476Y-75493619D01*
X134358095Y-75588857D01*
X134405714Y-75779333D01*
X134405714Y-76017428D01*
X134358095Y-76207904D01*
X134310476Y-76303142D01*
X134262857Y-76350761D01*
X134167619Y-76398380D01*
X134072380Y-76398380D01*
X133977142Y-76350761D01*
X133929523Y-76303142D01*
X133881904Y-76207904D01*
X133834285Y-76017428D01*
X133834285Y-75779333D01*
X133881904Y-75588857D01*
X133929523Y-75493619D01*
X133977142Y-75446000D01*
X134072380Y-75398380D01*
X135262857Y-75398380D02*
X135072380Y-75398380D01*
X134977142Y-75446000D01*
X134929523Y-75493619D01*
X134834285Y-75636476D01*
X134786666Y-75826952D01*
X134786666Y-76207904D01*
X134834285Y-76303142D01*
X134881904Y-76350761D01*
X134977142Y-76398380D01*
X135167619Y-76398380D01*
X135262857Y-76350761D01*
X135310476Y-76303142D01*
X135358095Y-76207904D01*
X135358095Y-75969809D01*
X135310476Y-75874571D01*
X135262857Y-75826952D01*
X135167619Y-75779333D01*
X134977142Y-75779333D01*
X134881904Y-75826952D01*
X134834285Y-75874571D01*
X134786666Y-75969809D01*
%TO.C,R207*%
X131484952Y-89986380D02*
X131151619Y-89510190D01*
X130913523Y-89986380D02*
X130913523Y-88986380D01*
X131294476Y-88986380D01*
X131389714Y-89034000D01*
X131437333Y-89081619D01*
X131484952Y-89176857D01*
X131484952Y-89319714D01*
X131437333Y-89414952D01*
X131389714Y-89462571D01*
X131294476Y-89510190D01*
X130913523Y-89510190D01*
X131865904Y-89081619D02*
X131913523Y-89034000D01*
X132008761Y-88986380D01*
X132246857Y-88986380D01*
X132342095Y-89034000D01*
X132389714Y-89081619D01*
X132437333Y-89176857D01*
X132437333Y-89272095D01*
X132389714Y-89414952D01*
X131818285Y-89986380D01*
X132437333Y-89986380D01*
X133056380Y-88986380D02*
X133151619Y-88986380D01*
X133246857Y-89034000D01*
X133294476Y-89081619D01*
X133342095Y-89176857D01*
X133389714Y-89367333D01*
X133389714Y-89605428D01*
X133342095Y-89795904D01*
X133294476Y-89891142D01*
X133246857Y-89938761D01*
X133151619Y-89986380D01*
X133056380Y-89986380D01*
X132961142Y-89938761D01*
X132913523Y-89891142D01*
X132865904Y-89795904D01*
X132818285Y-89605428D01*
X132818285Y-89367333D01*
X132865904Y-89176857D01*
X132913523Y-89081619D01*
X132961142Y-89034000D01*
X133056380Y-88986380D01*
X133723047Y-88986380D02*
X134389714Y-88986380D01*
X133961142Y-89986380D01*
%TO.C,C213*%
X145899142Y-70461047D02*
X145946761Y-70508666D01*
X145994380Y-70651523D01*
X145994380Y-70746761D01*
X145946761Y-70889619D01*
X145851523Y-70984857D01*
X145756285Y-71032476D01*
X145565809Y-71080095D01*
X145422952Y-71080095D01*
X145232476Y-71032476D01*
X145137238Y-70984857D01*
X145042000Y-70889619D01*
X144994380Y-70746761D01*
X144994380Y-70651523D01*
X145042000Y-70508666D01*
X145089619Y-70461047D01*
X145089619Y-70080095D02*
X145042000Y-70032476D01*
X144994380Y-69937238D01*
X144994380Y-69699142D01*
X145042000Y-69603904D01*
X145089619Y-69556285D01*
X145184857Y-69508666D01*
X145280095Y-69508666D01*
X145422952Y-69556285D01*
X145994380Y-70127714D01*
X145994380Y-69508666D01*
X145994380Y-68556285D02*
X145994380Y-69127714D01*
X145994380Y-68842000D02*
X144994380Y-68842000D01*
X145137238Y-68937238D01*
X145232476Y-69032476D01*
X145280095Y-69127714D01*
X144994380Y-68222952D02*
X144994380Y-67603904D01*
X145375333Y-67937238D01*
X145375333Y-67794380D01*
X145422952Y-67699142D01*
X145470571Y-67651523D01*
X145565809Y-67603904D01*
X145803904Y-67603904D01*
X145899142Y-67651523D01*
X145946761Y-67699142D01*
X145994380Y-67794380D01*
X145994380Y-68080095D01*
X145946761Y-68175333D01*
X145899142Y-68222952D01*
%TO.C,C210*%
X151995142Y-59539047D02*
X152042761Y-59586666D01*
X152090380Y-59729523D01*
X152090380Y-59824761D01*
X152042761Y-59967619D01*
X151947523Y-60062857D01*
X151852285Y-60110476D01*
X151661809Y-60158095D01*
X151518952Y-60158095D01*
X151328476Y-60110476D01*
X151233238Y-60062857D01*
X151138000Y-59967619D01*
X151090380Y-59824761D01*
X151090380Y-59729523D01*
X151138000Y-59586666D01*
X151185619Y-59539047D01*
X151185619Y-59158095D02*
X151138000Y-59110476D01*
X151090380Y-59015238D01*
X151090380Y-58777142D01*
X151138000Y-58681904D01*
X151185619Y-58634285D01*
X151280857Y-58586666D01*
X151376095Y-58586666D01*
X151518952Y-58634285D01*
X152090380Y-59205714D01*
X152090380Y-58586666D01*
X152090380Y-57634285D02*
X152090380Y-58205714D01*
X152090380Y-57920000D02*
X151090380Y-57920000D01*
X151233238Y-58015238D01*
X151328476Y-58110476D01*
X151376095Y-58205714D01*
X151090380Y-57015238D02*
X151090380Y-56920000D01*
X151138000Y-56824761D01*
X151185619Y-56777142D01*
X151280857Y-56729523D01*
X151471333Y-56681904D01*
X151709428Y-56681904D01*
X151899904Y-56729523D01*
X151995142Y-56777142D01*
X152042761Y-56824761D01*
X152090380Y-56920000D01*
X152090380Y-57015238D01*
X152042761Y-57110476D01*
X151995142Y-57158095D01*
X151899904Y-57205714D01*
X151709428Y-57253333D01*
X151471333Y-57253333D01*
X151280857Y-57205714D01*
X151185619Y-57158095D01*
X151138000Y-57110476D01*
X151090380Y-57015238D01*
%TO.C,U201*%
X133056380Y-84518285D02*
X133865904Y-84518285D01*
X133961142Y-84470666D01*
X134008761Y-84423047D01*
X134056380Y-84327809D01*
X134056380Y-84137333D01*
X134008761Y-84042095D01*
X133961142Y-83994476D01*
X133865904Y-83946857D01*
X133056380Y-83946857D01*
X133151619Y-83518285D02*
X133104000Y-83470666D01*
X133056380Y-83375428D01*
X133056380Y-83137333D01*
X133104000Y-83042095D01*
X133151619Y-82994476D01*
X133246857Y-82946857D01*
X133342095Y-82946857D01*
X133484952Y-82994476D01*
X134056380Y-83565904D01*
X134056380Y-82946857D01*
X133056380Y-82327809D02*
X133056380Y-82232571D01*
X133104000Y-82137333D01*
X133151619Y-82089714D01*
X133246857Y-82042095D01*
X133437333Y-81994476D01*
X133675428Y-81994476D01*
X133865904Y-82042095D01*
X133961142Y-82089714D01*
X134008761Y-82137333D01*
X134056380Y-82232571D01*
X134056380Y-82327809D01*
X134008761Y-82423047D01*
X133961142Y-82470666D01*
X133865904Y-82518285D01*
X133675428Y-82565904D01*
X133437333Y-82565904D01*
X133246857Y-82518285D01*
X133151619Y-82470666D01*
X133104000Y-82423047D01*
X133056380Y-82327809D01*
X134056380Y-81042095D02*
X134056380Y-81613523D01*
X134056380Y-81327809D02*
X133056380Y-81327809D01*
X133199238Y-81423047D01*
X133294476Y-81518285D01*
X133342095Y-81613523D01*
%TO.C,C204*%
X128725142Y-77805547D02*
X128772761Y-77853166D01*
X128820380Y-77996023D01*
X128820380Y-78091261D01*
X128772761Y-78234119D01*
X128677523Y-78329357D01*
X128582285Y-78376976D01*
X128391809Y-78424595D01*
X128248952Y-78424595D01*
X128058476Y-78376976D01*
X127963238Y-78329357D01*
X127868000Y-78234119D01*
X127820380Y-78091261D01*
X127820380Y-77996023D01*
X127868000Y-77853166D01*
X127915619Y-77805547D01*
X127915619Y-77424595D02*
X127868000Y-77376976D01*
X127820380Y-77281738D01*
X127820380Y-77043642D01*
X127868000Y-76948404D01*
X127915619Y-76900785D01*
X128010857Y-76853166D01*
X128106095Y-76853166D01*
X128248952Y-76900785D01*
X128820380Y-77472214D01*
X128820380Y-76853166D01*
X127820380Y-76234119D02*
X127820380Y-76138880D01*
X127868000Y-76043642D01*
X127915619Y-75996023D01*
X128010857Y-75948404D01*
X128201333Y-75900785D01*
X128439428Y-75900785D01*
X128629904Y-75948404D01*
X128725142Y-75996023D01*
X128772761Y-76043642D01*
X128820380Y-76138880D01*
X128820380Y-76234119D01*
X128772761Y-76329357D01*
X128725142Y-76376976D01*
X128629904Y-76424595D01*
X128439428Y-76472214D01*
X128201333Y-76472214D01*
X128010857Y-76424595D01*
X127915619Y-76376976D01*
X127868000Y-76329357D01*
X127820380Y-76234119D01*
X128153714Y-75043642D02*
X128820380Y-75043642D01*
X127772761Y-75281738D02*
X128487047Y-75519833D01*
X128487047Y-74900785D01*
%TO.C,T201*%
X131865619Y-60261714D02*
X131865619Y-60833142D01*
X130865619Y-60547428D02*
X131865619Y-60547428D01*
X131770380Y-61118857D02*
X131818000Y-61166476D01*
X131865619Y-61261714D01*
X131865619Y-61499809D01*
X131818000Y-61595047D01*
X131770380Y-61642666D01*
X131675142Y-61690285D01*
X131579904Y-61690285D01*
X131437047Y-61642666D01*
X130865619Y-61071238D01*
X130865619Y-61690285D01*
X131865619Y-62309333D02*
X131865619Y-62404571D01*
X131818000Y-62499809D01*
X131770380Y-62547428D01*
X131675142Y-62595047D01*
X131484666Y-62642666D01*
X131246571Y-62642666D01*
X131056095Y-62595047D01*
X130960857Y-62547428D01*
X130913238Y-62499809D01*
X130865619Y-62404571D01*
X130865619Y-62309333D01*
X130913238Y-62214095D01*
X130960857Y-62166476D01*
X131056095Y-62118857D01*
X131246571Y-62071238D01*
X131484666Y-62071238D01*
X131675142Y-62118857D01*
X131770380Y-62166476D01*
X131818000Y-62214095D01*
X131865619Y-62309333D01*
X130865619Y-63595047D02*
X130865619Y-63023619D01*
X130865619Y-63309333D02*
X131865619Y-63309333D01*
X131722761Y-63214095D01*
X131627523Y-63118857D01*
X131579904Y-63023619D01*
%TO.C,U202*%
X148907714Y-80732380D02*
X148907714Y-81541904D01*
X148955333Y-81637142D01*
X149002952Y-81684761D01*
X149098190Y-81732380D01*
X149288666Y-81732380D01*
X149383904Y-81684761D01*
X149431523Y-81637142D01*
X149479142Y-81541904D01*
X149479142Y-80732380D01*
X149907714Y-80827619D02*
X149955333Y-80780000D01*
X150050571Y-80732380D01*
X150288666Y-80732380D01*
X150383904Y-80780000D01*
X150431523Y-80827619D01*
X150479142Y-80922857D01*
X150479142Y-81018095D01*
X150431523Y-81160952D01*
X149860095Y-81732380D01*
X150479142Y-81732380D01*
X151098190Y-80732380D02*
X151193428Y-80732380D01*
X151288666Y-80780000D01*
X151336285Y-80827619D01*
X151383904Y-80922857D01*
X151431523Y-81113333D01*
X151431523Y-81351428D01*
X151383904Y-81541904D01*
X151336285Y-81637142D01*
X151288666Y-81684761D01*
X151193428Y-81732380D01*
X151098190Y-81732380D01*
X151002952Y-81684761D01*
X150955333Y-81637142D01*
X150907714Y-81541904D01*
X150860095Y-81351428D01*
X150860095Y-81113333D01*
X150907714Y-80922857D01*
X150955333Y-80827619D01*
X151002952Y-80780000D01*
X151098190Y-80732380D01*
X151812476Y-80827619D02*
X151860095Y-80780000D01*
X151955333Y-80732380D01*
X152193428Y-80732380D01*
X152288666Y-80780000D01*
X152336285Y-80827619D01*
X152383904Y-80922857D01*
X152383904Y-81018095D01*
X152336285Y-81160952D01*
X151764857Y-81732380D01*
X152383904Y-81732380D01*
%TO.C,R209*%
X136056952Y-89986380D02*
X135723619Y-89510190D01*
X135485523Y-89986380D02*
X135485523Y-88986380D01*
X135866476Y-88986380D01*
X135961714Y-89034000D01*
X136009333Y-89081619D01*
X136056952Y-89176857D01*
X136056952Y-89319714D01*
X136009333Y-89414952D01*
X135961714Y-89462571D01*
X135866476Y-89510190D01*
X135485523Y-89510190D01*
X136437904Y-89081619D02*
X136485523Y-89034000D01*
X136580761Y-88986380D01*
X136818857Y-88986380D01*
X136914095Y-89034000D01*
X136961714Y-89081619D01*
X137009333Y-89176857D01*
X137009333Y-89272095D01*
X136961714Y-89414952D01*
X136390285Y-89986380D01*
X137009333Y-89986380D01*
X137628380Y-88986380D02*
X137723619Y-88986380D01*
X137818857Y-89034000D01*
X137866476Y-89081619D01*
X137914095Y-89176857D01*
X137961714Y-89367333D01*
X137961714Y-89605428D01*
X137914095Y-89795904D01*
X137866476Y-89891142D01*
X137818857Y-89938761D01*
X137723619Y-89986380D01*
X137628380Y-89986380D01*
X137533142Y-89938761D01*
X137485523Y-89891142D01*
X137437904Y-89795904D01*
X137390285Y-89605428D01*
X137390285Y-89367333D01*
X137437904Y-89176857D01*
X137485523Y-89081619D01*
X137533142Y-89034000D01*
X137628380Y-88986380D01*
X138437904Y-89986380D02*
X138628380Y-89986380D01*
X138723619Y-89938761D01*
X138771238Y-89891142D01*
X138866476Y-89748285D01*
X138914095Y-89557809D01*
X138914095Y-89176857D01*
X138866476Y-89081619D01*
X138818857Y-89034000D01*
X138723619Y-88986380D01*
X138533142Y-88986380D01*
X138437904Y-89034000D01*
X138390285Y-89081619D01*
X138342666Y-89176857D01*
X138342666Y-89414952D01*
X138390285Y-89510190D01*
X138437904Y-89557809D01*
X138533142Y-89605428D01*
X138723619Y-89605428D01*
X138818857Y-89557809D01*
X138866476Y-89510190D01*
X138914095Y-89414952D01*
%TO.C,C209*%
X139549142Y-70461047D02*
X139596761Y-70508666D01*
X139644380Y-70651523D01*
X139644380Y-70746761D01*
X139596761Y-70889619D01*
X139501523Y-70984857D01*
X139406285Y-71032476D01*
X139215809Y-71080095D01*
X139072952Y-71080095D01*
X138882476Y-71032476D01*
X138787238Y-70984857D01*
X138692000Y-70889619D01*
X138644380Y-70746761D01*
X138644380Y-70651523D01*
X138692000Y-70508666D01*
X138739619Y-70461047D01*
X138739619Y-70080095D02*
X138692000Y-70032476D01*
X138644380Y-69937238D01*
X138644380Y-69699142D01*
X138692000Y-69603904D01*
X138739619Y-69556285D01*
X138834857Y-69508666D01*
X138930095Y-69508666D01*
X139072952Y-69556285D01*
X139644380Y-70127714D01*
X139644380Y-69508666D01*
X138644380Y-68889619D02*
X138644380Y-68794380D01*
X138692000Y-68699142D01*
X138739619Y-68651523D01*
X138834857Y-68603904D01*
X139025333Y-68556285D01*
X139263428Y-68556285D01*
X139453904Y-68603904D01*
X139549142Y-68651523D01*
X139596761Y-68699142D01*
X139644380Y-68794380D01*
X139644380Y-68889619D01*
X139596761Y-68984857D01*
X139549142Y-69032476D01*
X139453904Y-69080095D01*
X139263428Y-69127714D01*
X139025333Y-69127714D01*
X138834857Y-69080095D01*
X138739619Y-69032476D01*
X138692000Y-68984857D01*
X138644380Y-68889619D01*
X139644380Y-68080095D02*
X139644380Y-67889619D01*
X139596761Y-67794380D01*
X139549142Y-67746761D01*
X139406285Y-67651523D01*
X139215809Y-67603904D01*
X138834857Y-67603904D01*
X138739619Y-67651523D01*
X138692000Y-67699142D01*
X138644380Y-67794380D01*
X138644380Y-67984857D01*
X138692000Y-68080095D01*
X138739619Y-68127714D01*
X138834857Y-68175333D01*
X139072952Y-68175333D01*
X139168190Y-68127714D01*
X139215809Y-68080095D01*
X139263428Y-67984857D01*
X139263428Y-67794380D01*
X139215809Y-67699142D01*
X139168190Y-67651523D01*
X139072952Y-67603904D01*
%TO.C,C214*%
X153265142Y-73001047D02*
X153312761Y-73048666D01*
X153360380Y-73191523D01*
X153360380Y-73286761D01*
X153312761Y-73429619D01*
X153217523Y-73524857D01*
X153122285Y-73572476D01*
X152931809Y-73620095D01*
X152788952Y-73620095D01*
X152598476Y-73572476D01*
X152503238Y-73524857D01*
X152408000Y-73429619D01*
X152360380Y-73286761D01*
X152360380Y-73191523D01*
X152408000Y-73048666D01*
X152455619Y-73001047D01*
X152455619Y-72620095D02*
X152408000Y-72572476D01*
X152360380Y-72477238D01*
X152360380Y-72239142D01*
X152408000Y-72143904D01*
X152455619Y-72096285D01*
X152550857Y-72048666D01*
X152646095Y-72048666D01*
X152788952Y-72096285D01*
X153360380Y-72667714D01*
X153360380Y-72048666D01*
X153360380Y-71096285D02*
X153360380Y-71667714D01*
X153360380Y-71382000D02*
X152360380Y-71382000D01*
X152503238Y-71477238D01*
X152598476Y-71572476D01*
X152646095Y-71667714D01*
X152693714Y-70239142D02*
X153360380Y-70239142D01*
X152312761Y-70477238D02*
X153027047Y-70715333D01*
X153027047Y-70096285D01*
%TO.C,C203*%
X151897142Y-85976547D02*
X151944761Y-86024166D01*
X151992380Y-86167023D01*
X151992380Y-86262261D01*
X151944761Y-86405119D01*
X151849523Y-86500357D01*
X151754285Y-86547976D01*
X151563809Y-86595595D01*
X151420952Y-86595595D01*
X151230476Y-86547976D01*
X151135238Y-86500357D01*
X151040000Y-86405119D01*
X150992380Y-86262261D01*
X150992380Y-86167023D01*
X151040000Y-86024166D01*
X151087619Y-85976547D01*
X151087619Y-85595595D02*
X151040000Y-85547976D01*
X150992380Y-85452738D01*
X150992380Y-85214642D01*
X151040000Y-85119404D01*
X151087619Y-85071785D01*
X151182857Y-85024166D01*
X151278095Y-85024166D01*
X151420952Y-85071785D01*
X151992380Y-85643214D01*
X151992380Y-85024166D01*
X150992380Y-84405119D02*
X150992380Y-84309880D01*
X151040000Y-84214642D01*
X151087619Y-84167023D01*
X151182857Y-84119404D01*
X151373333Y-84071785D01*
X151611428Y-84071785D01*
X151801904Y-84119404D01*
X151897142Y-84167023D01*
X151944761Y-84214642D01*
X151992380Y-84309880D01*
X151992380Y-84405119D01*
X151944761Y-84500357D01*
X151897142Y-84547976D01*
X151801904Y-84595595D01*
X151611428Y-84643214D01*
X151373333Y-84643214D01*
X151182857Y-84595595D01*
X151087619Y-84547976D01*
X151040000Y-84500357D01*
X150992380Y-84405119D01*
X150992380Y-83738452D02*
X150992380Y-83119404D01*
X151373333Y-83452738D01*
X151373333Y-83309880D01*
X151420952Y-83214642D01*
X151468571Y-83167023D01*
X151563809Y-83119404D01*
X151801904Y-83119404D01*
X151897142Y-83167023D01*
X151944761Y-83214642D01*
X151992380Y-83309880D01*
X151992380Y-83595595D01*
X151944761Y-83690833D01*
X151897142Y-83738452D01*
%TO.C,R211*%
X140628952Y-91510380D02*
X140295619Y-91034190D01*
X140057523Y-91510380D02*
X140057523Y-90510380D01*
X140438476Y-90510380D01*
X140533714Y-90558000D01*
X140581333Y-90605619D01*
X140628952Y-90700857D01*
X140628952Y-90843714D01*
X140581333Y-90938952D01*
X140533714Y-90986571D01*
X140438476Y-91034190D01*
X140057523Y-91034190D01*
X141009904Y-90605619D02*
X141057523Y-90558000D01*
X141152761Y-90510380D01*
X141390857Y-90510380D01*
X141486095Y-90558000D01*
X141533714Y-90605619D01*
X141581333Y-90700857D01*
X141581333Y-90796095D01*
X141533714Y-90938952D01*
X140962285Y-91510380D01*
X141581333Y-91510380D01*
X142533714Y-91510380D02*
X141962285Y-91510380D01*
X142248000Y-91510380D02*
X142248000Y-90510380D01*
X142152761Y-90653238D01*
X142057523Y-90748476D01*
X141962285Y-90796095D01*
X143486095Y-91510380D02*
X142914666Y-91510380D01*
X143200380Y-91510380D02*
X143200380Y-90510380D01*
X143105142Y-90653238D01*
X143009904Y-90748476D01*
X142914666Y-90796095D01*
D12*
%TO.C,J104*%
X123317000Y-89729000D02*
X124647000Y-89729000D01*
X119447000Y-89729000D02*
X119447000Y-92389000D01*
X122047000Y-89729000D02*
X119447000Y-89729000D01*
X122047000Y-89729000D02*
X122047000Y-92389000D01*
X124647000Y-89729000D02*
X124647000Y-91059000D01*
X122047000Y-92389000D02*
X119447000Y-92389000D01*
D10*
%TO.C,J103*%
X155783000Y-93137500D02*
X153383000Y-93137500D01*
D12*
X162083000Y-80837500D02*
X162583000Y-80287500D01*
D10*
X156083000Y-81337500D02*
X159833000Y-81337500D01*
X153383000Y-93137500D02*
X153383000Y-81337500D01*
D12*
X162583000Y-80287500D02*
X161583000Y-80287500D01*
D10*
X167883000Y-81337500D02*
X167883000Y-93137500D01*
X164333000Y-81337500D02*
X167883000Y-81337500D01*
X153383000Y-81337500D02*
X153483000Y-81337500D01*
X167883000Y-90037500D02*
X171483000Y-90037500D01*
X171483000Y-83837500D02*
X167883000Y-83837500D01*
D12*
X161583000Y-80287500D02*
X162083000Y-80837500D01*
D10*
X171483000Y-90037500D02*
X171483000Y-83837500D01*
X167883000Y-93137500D02*
X160133000Y-93137500D01*
D12*
%TO.C,J102*%
X161615500Y-65020000D02*
X162115500Y-64770000D01*
X161615500Y-64520000D02*
X161615500Y-65020000D01*
X162115500Y-64770000D02*
X161615500Y-64520000D01*
%TO.C,C206*%
X138437252Y-75411000D02*
X137914748Y-75411000D01*
X138437252Y-73941000D02*
X137914748Y-73941000D01*
%TO.C,R213*%
X145531064Y-87095000D02*
X145076936Y-87095000D01*
X145531064Y-85625000D02*
X145076936Y-85625000D01*
%TO.C,R203*%
X124195064Y-60225000D02*
X123740936Y-60225000D01*
X124195064Y-61695000D02*
X123740936Y-61695000D01*
%TO.C,C207*%
X137399752Y-90197000D02*
X136877248Y-90197000D01*
X137399752Y-91667000D02*
X136877248Y-91667000D01*
%TO.C,R216*%
X148600936Y-67337000D02*
X149055064Y-67337000D01*
X148600936Y-68807000D02*
X149055064Y-68807000D01*
%TO.C,J101*%
X121955000Y-64770000D02*
X122455000Y-65020000D01*
X122455000Y-64520000D02*
X121955000Y-64770000D01*
X122455000Y-65020000D02*
X122455000Y-64520000D01*
%TO.C,R208*%
X138419064Y-78459000D02*
X137964936Y-78459000D01*
X138419064Y-76989000D02*
X137964936Y-76989000D01*
%TO.C,L203*%
X144556267Y-62736000D02*
X144213733Y-62736000D01*
X144556267Y-63756000D02*
X144213733Y-63756000D01*
%TO.C,L202*%
X141730000Y-69170733D02*
X141730000Y-69513267D01*
X142750000Y-69170733D02*
X142750000Y-69513267D01*
%TO.C,T202*%
X137160000Y-69596000D02*
X132842000Y-69596000D01*
X132842000Y-65532000D02*
X137160000Y-65532000D01*
X137668000Y-66040000D02*
X137668000Y-68834000D01*
X132334000Y-69088000D02*
X132334000Y-66040000D01*
X137668000Y-68834000D02*
X137668000Y-69088000D01*
X134620000Y-68834000D02*
X134620000Y-68834000D01*
X134620000Y-68834000D02*
X134620000Y-66294000D01*
X134620000Y-66294000D02*
X134620000Y-66294000D01*
X134620000Y-66294000D02*
X134620000Y-68834000D01*
X135382000Y-66294000D02*
X135382000Y-66294000D01*
X135382000Y-66294000D02*
X135382000Y-68834000D01*
X135382000Y-68834000D02*
X135382000Y-68834000D01*
X135382000Y-68834000D02*
X135382000Y-66294000D01*
X135382000Y-66294000D02*
X134620000Y-66294000D01*
X134620000Y-66294000D02*
X134620000Y-68834000D01*
X134620000Y-68834000D02*
X135382000Y-68834000D01*
X135382000Y-68834000D02*
X135382000Y-66294000D01*
X132842000Y-65532000D02*
G75*
G03*
X132334000Y-66040000I1J-508001D01*
G01*
X132334000Y-69088000D02*
G75*
G03*
X132842000Y-69596000I508001J1D01*
G01*
X137160000Y-69596000D02*
G75*
G03*
X137668000Y-69088000I-1J508001D01*
G01*
X137668000Y-66040000D02*
G75*
G03*
X137160000Y-65532000I-508001J-1D01*
G01*
%TO.C,C201*%
X134212000Y-91708248D02*
X134212000Y-92230752D01*
X132742000Y-91708248D02*
X132742000Y-92230752D01*
%TO.C,C208*%
X139473000Y-60169248D02*
X139473000Y-60691752D01*
X140943000Y-60169248D02*
X140943000Y-60691752D01*
%TO.C,L205*%
X154970267Y-65280000D02*
X154627733Y-65280000D01*
X154970267Y-64260000D02*
X154627733Y-64260000D01*
%TO.C,L201*%
X140111267Y-63756000D02*
X139768733Y-63756000D01*
X140111267Y-62736000D02*
X139768733Y-62736000D01*
%TO.C,C215*%
X159032752Y-64035000D02*
X158510248Y-64035000D01*
X159032752Y-65505000D02*
X158510248Y-65505000D01*
%TO.C,R202*%
X129567000Y-92286064D02*
X129567000Y-91831936D01*
X131037000Y-92286064D02*
X131037000Y-91831936D01*
%TO.C,R210*%
X143499064Y-76935000D02*
X143044936Y-76935000D01*
X143499064Y-75465000D02*
X143044936Y-75465000D01*
%TO.C,C205*%
X132307000Y-84567752D02*
X132307000Y-84045248D01*
X130837000Y-84567752D02*
X130837000Y-84045248D01*
%TO.C,R215*%
X149055064Y-62203000D02*
X148600936Y-62203000D01*
X149055064Y-60733000D02*
X148600936Y-60733000D01*
%TO.C,R204*%
X124195064Y-69315000D02*
X123740936Y-69315000D01*
X124195064Y-67845000D02*
X123740936Y-67845000D01*
%TO.C,L204*%
X151160267Y-64260000D02*
X150817733Y-64260000D01*
X151160267Y-65280000D02*
X150817733Y-65280000D01*
%TO.C,R205*%
X125830000Y-64997064D02*
X125830000Y-64542936D01*
X124360000Y-64997064D02*
X124360000Y-64542936D01*
%TO.C,C212*%
X147602752Y-89635000D02*
X147080248Y-89635000D01*
X147602752Y-88165000D02*
X147080248Y-88165000D01*
%TO.C,R212*%
X147547064Y-76935000D02*
X147092936Y-76935000D01*
X147547064Y-75465000D02*
X147092936Y-75465000D01*
%TO.C,R214*%
X147093000Y-64981064D02*
X147093000Y-64526936D01*
X148563000Y-64981064D02*
X148563000Y-64526936D01*
%TO.C,R201*%
X127497064Y-90324000D02*
X127042936Y-90324000D01*
X127497064Y-91794000D02*
X127042936Y-91794000D01*
%TO.C,C202*%
X140489000Y-85612248D02*
X140489000Y-86134752D01*
X141959000Y-85612248D02*
X141959000Y-86134752D01*
%TO.C,D201*%
X128445500Y-63536000D02*
X127795500Y-63536000D01*
X128445500Y-60416000D02*
X129095500Y-60416000D01*
X128445500Y-60416000D02*
X127795500Y-60416000D01*
X128445500Y-63536000D02*
X130120500Y-63536000D01*
%TO.C,D202*%
X128572500Y-66004000D02*
X127922500Y-66004000D01*
X128572500Y-69124000D02*
X127922500Y-69124000D01*
X128572500Y-66004000D02*
X129222500Y-66004000D01*
X128572500Y-69124000D02*
X130247500Y-69124000D01*
%TO.C,C211*%
X151158752Y-78005000D02*
X150636248Y-78005000D01*
X151158752Y-79475000D02*
X150636248Y-79475000D01*
%TO.C,R206*%
X133847064Y-78459000D02*
X133392936Y-78459000D01*
X133847064Y-76989000D02*
X133392936Y-76989000D01*
%TO.C,R207*%
X132831064Y-87149000D02*
X132376936Y-87149000D01*
X132831064Y-88619000D02*
X132376936Y-88619000D01*
%TO.C,C213*%
X144032248Y-65559000D02*
X144554752Y-65559000D01*
X144032248Y-67029000D02*
X144554752Y-67029000D01*
%TO.C,C210*%
X146256000Y-58920000D02*
X146256000Y-57920000D01*
X147755999Y-59420000D02*
X147755999Y-57420000D01*
X147755999Y-57420000D02*
G75*
G03*
X147755999Y-59420000I-1499999J-1000000D01*
G01*
X147506000Y-58420000D02*
G75*
G03*
X147506000Y-58420000I-1250000J0D01*
G01*
%TO.C,U201*%
X139720000Y-82804000D02*
X139720000Y-79354000D01*
X134600000Y-82804000D02*
X134600000Y-84754000D01*
X139720000Y-82804000D02*
X139720000Y-84754000D01*
X134600000Y-82804000D02*
X134600000Y-80854000D01*
%TO.C,C204*%
X130783000Y-76947752D02*
X130783000Y-76425248D01*
X129313000Y-76947752D02*
X129313000Y-76425248D01*
%TO.C,T201*%
X137668000Y-63246000D02*
X137668000Y-63500000D01*
X137160000Y-64008000D02*
X132842000Y-64008000D01*
X132842000Y-59944000D02*
X137160000Y-59944000D01*
X137668000Y-60452000D02*
X137668000Y-63246000D01*
X132334000Y-63500000D02*
X132334000Y-60452000D01*
X135382000Y-60706000D02*
X135382000Y-60706000D01*
X135382000Y-60706000D02*
X135382000Y-63246000D01*
X135382000Y-63246000D02*
X135382000Y-63246000D01*
X135382000Y-63246000D02*
X135382000Y-60706000D01*
X134620000Y-63246000D02*
X134620000Y-63246000D01*
X134620000Y-63246000D02*
X134620000Y-60706000D01*
X134620000Y-60706000D02*
X134620000Y-60706000D01*
X134620000Y-60706000D02*
X134620000Y-63246000D01*
X135382000Y-60706000D02*
X134620000Y-60706000D01*
X134620000Y-60706000D02*
X134620000Y-63246000D01*
X134620000Y-63246000D02*
X135382000Y-63246000D01*
X135382000Y-63246000D02*
X135382000Y-60706000D01*
X137668000Y-60452000D02*
G75*
G03*
X137160000Y-59944000I-508001J-1D01*
G01*
X132334000Y-63500000D02*
G75*
G03*
X132842000Y-64008000I508001J1D01*
G01*
X137160000Y-64008000D02*
G75*
G03*
X137668000Y-63500000I-1J508001D01*
G01*
X132842000Y-59944000D02*
G75*
G03*
X132334000Y-60452000I1J-508001D01*
G01*
%TO.C,U202*%
X143236000Y-81280000D02*
X143236000Y-83230000D01*
X143236000Y-81280000D02*
X143236000Y-79330000D01*
X148356000Y-81280000D02*
X148356000Y-83230000D01*
X148356000Y-81280000D02*
X148356000Y-77830000D01*
%TO.C,R209*%
X137403064Y-87149000D02*
X136948936Y-87149000D01*
X137403064Y-88619000D02*
X136948936Y-88619000D01*
%TO.C,C209*%
X139946748Y-67029000D02*
X140469252Y-67029000D01*
X139946748Y-65559000D02*
X140469252Y-65559000D01*
%TO.C,C214*%
X152173000Y-67846752D02*
X152173000Y-67324248D01*
X153643000Y-67846752D02*
X153643000Y-67324248D01*
%TO.C,C203*%
X149125000Y-84596248D02*
X149125000Y-85118752D01*
X150595000Y-84596248D02*
X150595000Y-85118752D01*
%TO.C,R211*%
X141975064Y-88673000D02*
X141520936Y-88673000D01*
X141975064Y-90143000D02*
X141520936Y-90143000D01*
%TD*%
M02*
